// Jest Snapshot v1, https://goo.gl/fbAQLP

exports[`Test Bottom Navigation  1`] = `
<View
  style={
    Object {
      "elevation": 99,
    }
  }
>
  <View
    style={
      Object {
        "flexDirection": "row",
        "flexWrap": "wrap",
        "height": 75,
        "justifyContent": "space-between",
        "overflow": "hidden",
      }
    }
  />
</View>
`;
