{
  "type": "File",
  "start": 0,
  "end": 95,
  "loc": {
    "start": {
      "line": 1,
      "column": 0
    },
    "end": {
      "line": 12,
      "column": 0
    }
  },
  "program": {
    "type": "Program",
    "start": 0,
    "end": 95,
    "loc": {
      "start": {
        "line": 1,
        "column": 0
      },
      "end": {
        "line": 12,
        "column": 0
      }
    },
    "sourceType": "module",
    "body": [
      {
        "type": "ExportNamedDeclaration",
        "start": 36,
        "end": 94,
        "loc": {
          "start": {
            "line": 9,
            "column": 0
          },
          "end": {
            "line": 11,
            "column": 2
          }
        },
        "specifiers": [],
        "source": null,
        "exportKind": "type",
        "declaration": {
          "type": "TypeAlias",
          "start": 43,
          "end": 94,
          "loc": {
            "start": {
              "line": 9,
              "column": 7
            },
            "end": {
              "line": 11,
              "column": 2
            }
          },
          "id": {
            "type": "Identifier",
            "start": 48,
            "end": 57,
            "loc": {
              "start": {
                "line": 9,
                "column": 12
              },
              "end": {
                "line": 9,
                "column": 21
              },
              "identifierName": "PropsType"
            },
            "name": "PropsType",
            "leadingComments": null
          },
          "typeParameters": null,
          "right": {
            "type": "ObjectTypeAnnotation",
            "start": 60,
            "end": 93,
            "loc": {
              "start": {
                "line": 9,
                "column": 24
              },
              "end": {
                "line": 11,
                "column": 1
              }
            },
            "callProperties": [],
            "properties": [
              {
                "type": "ObjectTypeProperty",
                "start": 64,
                "end": 91,
                "loc": {
                  "start": {
                    "line": 10,
                    "column": 2
                  },
                  "end": {
                    "line": 10,
                    "column": 29
                  }
                },
                "key": {
                  "type": "Identifier",
                  "start": 64,
                  "end": 80,
                  "loc": {
                    "start": {
                      "line": 10,
                      "column": 2
                    },
                    "end": {
                      "line": 10,
                      "column": 18
                    },
                    "identifierName": "biometricTrigger"
                  },
                  "name": "biometricTrigger"
                },
                "value": {
                  "type": "BooleanTypeAnnotation",
                  "start": 83,
                  "end": 90,
                  "loc": {
                    "start": {
                      "line": 10,
                      "column": 21
                    },
                    "end": {
                      "line": 10,
                      "column": 28
                    }
                  }
                },
                "optional": true,
                "static": false,
                "variance": null
              }
            ],
            "indexers": [],
            "exact": false
          },
          "leadingComments": [
            {
              "type": "CommentBlock",
              "value": "*\n *\n * @format\n *\n ",
              "start": 0,
              "end": 24,
              "loc": {
                "start": {
                  "line": 1,
                  "column": 0
                },
                "end": {
                  "line": 5,
                  "column": 3
                }
              }
            },
            {
              "type": "CommentLine",
              "value": " @flow",
              "start": 26,
              "end": 34,
              "loc": {
                "start": {
                  "line": 7,
                  "column": 0
                },
                "end": {
                  "line": 7,
                  "column": 8
                }
              }
            }
          ],
          "trailingComments": []
        },
        "leadingComments": [
          {
            "type": "CommentBlock",
            "value": "*\n *\n * @format\n *\n ",
            "start": 0,
            "end": 24,
            "loc": {
              "start": {
                "line": 1,
                "column": 0
              },
              "end": {
                "line": 5,
                "column": 3
              }
            }
          },
          {
            "type": "CommentLine",
            "value": " @flow",
            "start": 26,
            "end": 34,
            "loc": {
              "start": {
                "line": 7,
                "column": 0
              },
              "end": {
                "line": 7,
                "column": 8
              }
            }
          }
        ]
      }
    ],
    "directives": []
  },
  "comments": [
    {
      "type": "CommentBlock",
      "value": "*\n *\n * @format\n *\n ",
      "start": 0,
      "end": 24,
      "loc": {
        "start": {
          "line": 1,
          "column": 0
        },
        "end": {
          "line": 5,
          "column": 3
        }
      }
    },
    {
      "type": "CommentLine",
      "value": " @flow",
      "start": 26,
      "end": 34,
      "loc": {
        "start": {
          "line": 7,
          "column": 0
        },
        "end": {
          "line": 7,
          "column": 8
        }
      }
    }
  ],
  "tokens": [
    {
      "type": "CommentBlock",
      "value": "*\n *\n * @format\n *\n ",
      "start": 0,
      "end": 24,
      "loc": {
        "start": {
          "line": 1,
          "column": 0
        },
        "end": {
          "line": 5,
          "column": 3
        }
      }
    },
    {
      "type": "CommentLine",
      "value": " @flow",
      "start": 26,
      "end": 34,
      "loc": {
        "start": {
          "line": 7,
          "column": 0
        },
        "end": {
          "line": 7,
          "column": 8
        }
      }
    },
    {
      "type": {
        "label": "export",
        "keyword": "export",
        "beforeExpr": false,
        "startsExpr": false,
        "rightAssociative": false,
        "isLoop": false,
        "isAssign": false,
        "prefix": false,
        "postfix": false,
        "binop": null,
        "updateContext": null
      },
      "value": "export",
      "start": 36,
      "end": 42,
      "loc": {
        "start": {
          "line": 9,
          "column": 0
        },
        "end": {
          "line": 9,
          "column": 6
        }
      }
    },
    {
      "type": {
        "label": "name",
        "beforeExpr": false,
        "startsExpr": true,
        "rightAssociative": false,
        "isLoop": false,
        "isAssign": false,
        "prefix": false,
        "postfix": false,
        "binop": null
      },
      "value": "type",
      "start": 43,
      "end": 47,
      "loc": {
        "start": {
          "line": 9,
          "column": 7
        },
        "end": {
          "line": 9,
          "column": 11
        }
      }
    },
    {
      "type": {
        "label": "name",
        "beforeExpr": false,
        "startsExpr": true,
        "rightAssociative": false,
        "isLoop": false,
        "isAssign": false,
        "prefix": false,
        "postfix": false,
        "binop": null
      },
      "value": "PropsType",
      "start": 48,
      "end": 57,
      "loc": {
        "start": {
          "line": 9,
          "column": 12
        },
        "end": {
          "line": 9,
          "column": 21
        }
      }
    },
    {
      "type": {
        "label": "=",
        "beforeExpr": true,
        "startsExpr": false,
        "rightAssociative": false,
        "isLoop": false,
        "isAssign": true,
        "prefix": false,
        "postfix": false,
        "binop": null,
        "updateContext": null
      },
      "value": "=",
      "start": 58,
      "end": 59,
      "loc": {
        "start": {
          "line": 9,
          "column": 22
        },
        "end": {
          "line": 9,
          "column": 23
        }
      }
    },
    {
      "type": {
        "label": "{",
        "beforeExpr": true,
        "startsExpr": true,
        "rightAssociative": false,
        "isLoop": false,
        "isAssign": false,
        "prefix": false,
        "postfix": false,
        "binop": null
      },
      "start": 60,
      "end": 61,
      "loc": {
        "start": {
          "line": 9,
          "column": 24
        },
        "end": {
          "line": 9,
          "column": 25
        }
      }
    },
    {
      "type": {
        "label": "name",
        "beforeExpr": false,
        "startsExpr": true,
        "rightAssociative": false,
        "isLoop": false,
        "isAssign": false,
        "prefix": false,
        "postfix": false,
        "binop": null
      },
      "value": "biometricTrigger",
      "start": 64,
      "end": 80,
      "loc": {
        "start": {
          "line": 10,
          "column": 2
        },
        "end": {
          "line": 10,
          "column": 18
        }
      }
    },
    {
      "type": {
        "label": "?",
        "beforeExpr": true,
        "startsExpr": false,
        "rightAssociative": false,
        "isLoop": false,
        "isAssign": false,
        "prefix": false,
        "postfix": false,
        "binop": null,
        "updateContext": null
      },
      "start": 80,
      "end": 81,
      "loc": {
        "start": {
          "line": 10,
          "column": 18
        },
        "end": {
          "line": 10,
          "column": 19
        }
      }
    },
    {
      "type": {
        "label": ":",
        "beforeExpr": true,
        "startsExpr": false,
        "rightAssociative": false,
        "isLoop": false,
        "isAssign": false,
        "prefix": false,
        "postfix": false,
        "binop": null,
        "updateContext": null
      },
      "start": 81,
      "end": 82,
      "loc": {
        "start": {
          "line": 10,
          "column": 19
        },
        "end": {
          "line": 10,
          "column": 20
        }
      }
    },
    {
      "type": {
        "label": "name",
        "beforeExpr": false,
        "startsExpr": true,
        "rightAssociative": false,
        "isLoop": false,
        "isAssign": false,
        "prefix": false,
        "postfix": false,
        "binop": null
      },
      "value": "boolean",
      "start": 83,
      "end": 90,
      "loc": {
        "start": {
          "line": 10,
          "column": 21
        },
        "end": {
          "line": 10,
          "column": 28
        }
      }
    },
    {
      "type": {
        "label": ",",
        "beforeExpr": true,
        "startsExpr": false,
        "rightAssociative": false,
        "isLoop": false,
        "isAssign": false,
        "prefix": false,
        "postfix": false,
        "binop": null,
        "updateContext": null
      },
      "start": 90,
      "end": 91,
      "loc": {
        "start": {
          "line": 10,
          "column": 28
        },
        "end": {
          "line": 10,
          "column": 29
        }
      }
    },
    {
      "type": {
        "label": "}",
        "beforeExpr": false,
        "startsExpr": false,
        "rightAssociative": false,
        "isLoop": false,
        "isAssign": false,
        "prefix": false,
        "postfix": false,
        "binop": null
      },
      "start": 92,
      "end": 93,
      "loc": {
        "start": {
          "line": 11,
          "column": 0
        },
        "end": {
          "line": 11,
          "column": 1
        }
      }
    },
    {
      "type": {
        "label": ";",
        "beforeExpr": true,
        "startsExpr": false,
        "rightAssociative": false,
        "isLoop": false,
        "isAssign": false,
        "prefix": false,
        "postfix": false,
        "binop": null,
        "updateContext": null
      },
      "start": 93,
      "end": 94,
      "loc": {
        "start": {
          "line": 11,
          "column": 1
        },
        "end": {
          "line": 11,
          "column": 2
        }
      }
    },
    {
      "type": {
        "label": "eof",
        "beforeExpr": false,
        "startsExpr": false,
        "rightAssociative": false,
        "isLoop": false,
        "isAssign": false,
        "prefix": false,
        "postfix": false,
        "binop": null,
        "updateContext": null
      },
      "start": 95,
      "end": 95,
      "loc": {
        "start": {
          "line": 12,
          "column": 0
        },
        "end": {
          "line": 12,
          "column": 0
        }
      }
    }
  ]
}
