{
  "type": "File",
  "start": 0,
  "end": 243,
  "loc": {
    "start": {
      "line": 1,
      "column": 0
    },
    "end": {
      "line": 17,
      "column": 0
    }
  },
  "program": {
    "type": "Program",
    "start": 0,
    "end": 243,
    "loc": {
      "start": {
        "line": 1,
        "column": 0
      },
      "end": {
        "line": 17,
        "column": 0
      }
    },
    "sourceType": "module",
    "body": [
      {
        "type": "ImportDeclaration",
        "start": 36,
        "end": 68,
        "loc": {
          "start": {
            "line": 9,
            "column": 0
          },
          "end": {
            "line": 9,
            "column": 32
          }
        },
        "specifiers": [
          {
            "type": "ImportSpecifier",
            "start": 49,
            "end": 53,
            "loc": {
              "start": {
                "line": 9,
                "column": 13
              },
              "end": {
                "line": 9,
                "column": 17
              }
            },
            "imported": {
              "type": "Identifier",
              "start": 49,
              "end": 53,
              "loc": {
                "start": {
                  "line": 9,
                  "column": 13
                },
                "end": {
                  "line": 9,
                  "column": 17
                },
                "identifierName": "Node"
              },
              "name": "Node",
              "leadingComments": null
            },
            "importKind": null,
            "local": {
              "type": "Identifier",
              "start": 49,
              "end": 53,
              "loc": {
                "start": {
                  "line": 9,
                  "column": 13
                },
                "end": {
                  "line": 9,
                  "column": 17
                },
                "identifierName": "Node"
              },
              "name": "Node"
            },
            "leadingComments": null
          }
        ],
        "importKind": "type",
        "source": {
          "type": "StringLiteral",
          "start": 60,
          "end": 67,
          "loc": {
            "start": {
              "line": 9,
              "column": 24
            },
            "end": {
              "line": 9,
              "column": 31
            }
          },
          "extra": {
            "rawValue": "react",
            "raw": "'react'"
          },
          "value": "react"
        },
        "leadingComments": [
          {
            "type": "CommentBlock",
            "value": "*\n *\n * @format\n *\n ",
            "start": 0,
            "end": 24,
            "loc": {
              "start": {
                "line": 1,
                "column": 0
              },
              "end": {
                "line": 5,
                "column": 3
              }
            }
          },
          {
            "type": "CommentLine",
            "value": " @flow",
            "start": 26,
            "end": 34,
            "loc": {
              "start": {
                "line": 7,
                "column": 0
              },
              "end": {
                "line": 7,
                "column": 8
              }
            }
          }
        ]
      },
      {
        "type": "ExportNamedDeclaration",
        "start": 70,
        "end": 242,
        "loc": {
          "start": {
            "line": 11,
            "column": 0
          },
          "end": {
            "line": 16,
            "column": 2
          }
        },
        "specifiers": [],
        "source": null,
        "exportKind": "type",
        "declaration": {
          "type": "TypeAlias",
          "start": 77,
          "end": 242,
          "loc": {
            "start": {
              "line": 11,
              "column": 7
            },
            "end": {
              "line": 16,
              "column": 2
            }
          },
          "id": {
            "type": "Identifier",
            "start": 82,
            "end": 91,
            "loc": {
              "start": {
                "line": 11,
                "column": 12
              },
              "end": {
                "line": 11,
                "column": 21
              },
              "identifierName": "PropsType"
            },
            "name": "PropsType"
          },
          "typeParameters": null,
          "right": {
            "type": "ObjectTypeAnnotation",
            "start": 94,
            "end": 241,
            "loc": {
              "start": {
                "line": 11,
                "column": 24
              },
              "end": {
                "line": 16,
                "column": 1
              }
            },
            "callProperties": [],
            "properties": [
              {
                "type": "ObjectTypeProperty",
                "start": 98,
                "end": 113,
                "loc": {
                  "start": {
                    "line": 12,
                    "column": 2
                  },
                  "end": {
                    "line": 12,
                    "column": 17
                  }
                },
                "key": {
                  "type": "Identifier",
                  "start": 98,
                  "end": 106,
                  "loc": {
                    "start": {
                      "line": 12,
                      "column": 2
                    },
                    "end": {
                      "line": 12,
                      "column": 10
                    },
                    "identifierName": "children"
                  },
                  "name": "children"
                },
                "value": {
                  "type": "GenericTypeAnnotation",
                  "start": 108,
                  "end": 112,
                  "loc": {
                    "start": {
                      "line": 12,
                      "column": 12
                    },
                    "end": {
                      "line": 12,
                      "column": 16
                    }
                  },
                  "typeParameters": null,
                  "id": {
                    "type": "Identifier",
                    "start": 108,
                    "end": 112,
                    "loc": {
                      "start": {
                        "line": 12,
                        "column": 12
                      },
                      "end": {
                        "line": 12,
                        "column": 16
                      },
                      "identifierName": "Node"
                    },
                    "name": "Node"
                  }
                },
                "optional": false,
                "static": false,
                "variance": null
              },
              {
                "type": "ObjectTypeProperty",
                "start": 116,
                "end": 138,
                "loc": {
                  "start": {
                    "line": 13,
                    "column": 2
                  },
                  "end": {
                    "line": 13,
                    "column": 24
                  }
                },
                "key": {
                  "type": "Identifier",
                  "start": 116,
                  "end": 128,
                  "loc": {
                    "start": {
                      "line": 13,
                      "column": 2
                    },
                    "end": {
                      "line": 13,
                      "column": 14
                    },
                    "identifierName": "isDrawerOpen"
                  },
                  "name": "isDrawerOpen"
                },
                "value": {
                  "type": "BooleanTypeAnnotation",
                  "start": 130,
                  "end": 137,
                  "loc": {
                    "start": {
                      "line": 13,
                      "column": 16
                    },
                    "end": {
                      "line": 13,
                      "column": 23
                    }
                  }
                },
                "optional": false,
                "static": false,
                "variance": null
              },
              {
                "type": "ObjectTypeProperty",
                "start": 141,
                "end": 204,
                "loc": {
                  "start": {
                    "line": 14,
                    "column": 2
                  },
                  "end": {
                    "line": 14,
                    "column": 65
                  }
                },
                "key": {
                  "type": "Identifier",
                  "start": 141,
                  "end": 172,
                  "loc": {
                    "start": {
                      "line": 14,
                      "column": 2
                    },
                    "end": {
                      "line": 14,
                      "column": 33
                    },
                    "identifierName": "changeIsDrawerOpenValueFunction"
                  },
                  "name": "changeIsDrawerOpenValueFunction"
                },
                "value": {
                  "type": "FunctionTypeAnnotation",
                  "start": 175,
                  "end": 203,
                  "loc": {
                    "start": {
                      "line": 14,
                      "column": 36
                    },
                    "end": {
                      "line": 14,
                      "column": 64
                    }
                  },
                  "params": [
                    {
                      "type": "FunctionTypeParam",
                      "start": 176,
                      "end": 194,
                      "loc": {
                        "start": {
                          "line": 14,
                          "column": 37
                        },
                        "end": {
                          "line": 14,
                          "column": 55
                        }
                      },
                      "name": {
                        "type": "Identifier",
                        "start": 176,
                        "end": 185,
                        "loc": {
                          "start": {
                            "line": 14,
                            "column": 37
                          },
                          "end": {
                            "line": 14,
                            "column": 46
                          },
                          "identifierName": "nextState"
                        },
                        "name": "nextState"
                      },
                      "optional": false,
                      "typeAnnotation": {
                        "type": "BooleanTypeAnnotation",
                        "start": 187,
                        "end": 194,
                        "loc": {
                          "start": {
                            "line": 14,
                            "column": 48
                          },
                          "end": {
                            "line": 14,
                            "column": 55
                          }
                        }
                      }
                    }
                  ],
                  "rest": null,
                  "returnType": {
                    "type": "VoidTypeAnnotation",
                    "start": 199,
                    "end": 203,
                    "loc": {
                      "start": {
                        "line": 14,
                        "column": 60
                      },
                      "end": {
                        "line": 14,
                        "column": 64
                      }
                    }
                  },
                  "typeParameters": null
                },
                "optional": true,
                "static": false,
                "variance": null
              },
              {
                "type": "ObjectTypeProperty",
                "start": 207,
                "end": 239,
                "loc": {
                  "start": {
                    "line": 15,
                    "column": 2
                  },
                  "end": {
                    "line": 15,
                    "column": 34
                  }
                },
                "key": {
                  "type": "Identifier",
                  "start": 207,
                  "end": 229,
                  "loc": {
                    "start": {
                      "line": 15,
                      "column": 2
                    },
                    "end": {
                      "line": 15,
                      "column": 24
                    },
                    "identifierName": "delayBeforeDrawerOpens"
                  },
                  "name": "delayBeforeDrawerOpens"
                },
                "value": {
                  "type": "NumberTypeAnnotation",
                  "start": 232,
                  "end": 238,
                  "loc": {
                    "start": {
                      "line": 15,
                      "column": 27
                    },
                    "end": {
                      "line": 15,
                      "column": 33
                    }
                  }
                },
                "optional": true,
                "static": false,
                "variance": null
              }
            ],
            "indexers": [],
            "exact": false
          },
          "leadingComments": [],
          "trailingComments": []
        }
      }
    ],
    "directives": []
  },
  "comments": [
    {
      "type": "CommentBlock",
      "value": "*\n *\n * @format\n *\n ",
      "start": 0,
      "end": 24,
      "loc": {
        "start": {
          "line": 1,
          "column": 0
        },
        "end": {
          "line": 5,
          "column": 3
        }
      }
    },
    {
      "type": "CommentLine",
      "value": " @flow",
      "start": 26,
      "end": 34,
      "loc": {
        "start": {
          "line": 7,
          "column": 0
        },
        "end": {
          "line": 7,
          "column": 8
        }
      }
    }
  ],
  "tokens": [
    {
      "type": "CommentBlock",
      "value": "*\n *\n * @format\n *\n ",
      "start": 0,
      "end": 24,
      "loc": {
        "start": {
          "line": 1,
          "column": 0
        },
        "end": {
          "line": 5,
          "column": 3
        }
      }
    },
    {
      "type": "CommentLine",
      "value": " @flow",
      "start": 26,
      "end": 34,
      "loc": {
        "start": {
          "line": 7,
          "column": 0
        },
        "end": {
          "line": 7,
          "column": 8
        }
      }
    },
    {
      "type": {
        "label": "import",
        "keyword": "import",
        "beforeExpr": false,
        "startsExpr": true,
        "rightAssociative": false,
        "isLoop": false,
        "isAssign": false,
        "prefix": false,
        "postfix": false,
        "binop": null,
        "updateContext": null
      },
      "value": "import",
      "start": 36,
      "end": 42,
      "loc": {
        "start": {
          "line": 9,
          "column": 0
        },
        "end": {
          "line": 9,
          "column": 6
        }
      }
    },
    {
      "type": {
        "label": "name",
        "beforeExpr": false,
        "startsExpr": true,
        "rightAssociative": false,
        "isLoop": false,
        "isAssign": false,
        "prefix": false,
        "postfix": false,
        "binop": null
      },
      "value": "type",
      "start": 43,
      "end": 47,
      "loc": {
        "start": {
          "line": 9,
          "column": 7
        },
        "end": {
          "line": 9,
          "column": 11
        }
      }
    },
    {
      "type": {
        "label": "{",
        "beforeExpr": true,
        "startsExpr": true,
        "rightAssociative": false,
        "isLoop": false,
        "isAssign": false,
        "prefix": false,
        "postfix": false,
        "binop": null
      },
      "start": 48,
      "end": 49,
      "loc": {
        "start": {
          "line": 9,
          "column": 12
        },
        "end": {
          "line": 9,
          "column": 13
        }
      }
    },
    {
      "type": {
        "label": "name",
        "beforeExpr": false,
        "startsExpr": true,
        "rightAssociative": false,
        "isLoop": false,
        "isAssign": false,
        "prefix": false,
        "postfix": false,
        "binop": null
      },
      "value": "Node",
      "start": 49,
      "end": 53,
      "loc": {
        "start": {
          "line": 9,
          "column": 13
        },
        "end": {
          "line": 9,
          "column": 17
        }
      }
    },
    {
      "type": {
        "label": "}",
        "beforeExpr": false,
        "startsExpr": false,
        "rightAssociative": false,
        "isLoop": false,
        "isAssign": false,
        "prefix": false,
        "postfix": false,
        "binop": null
      },
      "start": 53,
      "end": 54,
      "loc": {
        "start": {
          "line": 9,
          "column": 17
        },
        "end": {
          "line": 9,
          "column": 18
        }
      }
    },
    {
      "type": {
        "label": "name",
        "beforeExpr": false,
        "startsExpr": true,
        "rightAssociative": false,
        "isLoop": false,
        "isAssign": false,
        "prefix": false,
        "postfix": false,
        "binop": null
      },
      "value": "from",
      "start": 55,
      "end": 59,
      "loc": {
        "start": {
          "line": 9,
          "column": 19
        },
        "end": {
          "line": 9,
          "column": 23
        }
      }
    },
    {
      "type": {
        "label": "string",
        "beforeExpr": false,
        "startsExpr": true,
        "rightAssociative": false,
        "isLoop": false,
        "isAssign": false,
        "prefix": false,
        "postfix": false,
        "binop": null,
        "updateContext": null
      },
      "value": "react",
      "start": 60,
      "end": 67,
      "loc": {
        "start": {
          "line": 9,
          "column": 24
        },
        "end": {
          "line": 9,
          "column": 31
        }
      }
    },
    {
      "type": {
        "label": ";",
        "beforeExpr": true,
        "startsExpr": false,
        "rightAssociative": false,
        "isLoop": false,
        "isAssign": false,
        "prefix": false,
        "postfix": false,
        "binop": null,
        "updateContext": null
      },
      "start": 67,
      "end": 68,
      "loc": {
        "start": {
          "line": 9,
          "column": 31
        },
        "end": {
          "line": 9,
          "column": 32
        }
      }
    },
    {
      "type": {
        "label": "export",
        "keyword": "export",
        "beforeExpr": false,
        "startsExpr": false,
        "rightAssociative": false,
        "isLoop": false,
        "isAssign": false,
        "prefix": false,
        "postfix": false,
        "binop": null,
        "updateContext": null
      },
      "value": "export",
      "start": 70,
      "end": 76,
      "loc": {
        "start": {
          "line": 11,
          "column": 0
        },
        "end": {
          "line": 11,
          "column": 6
        }
      }
    },
    {
      "type": {
        "label": "name",
        "beforeExpr": false,
        "startsExpr": true,
        "rightAssociative": false,
        "isLoop": false,
        "isAssign": false,
        "prefix": false,
        "postfix": false,
        "binop": null
      },
      "value": "type",
      "start": 77,
      "end": 81,
      "loc": {
        "start": {
          "line": 11,
          "column": 7
        },
        "end": {
          "line": 11,
          "column": 11
        }
      }
    },
    {
      "type": {
        "label": "name",
        "beforeExpr": false,
        "startsExpr": true,
        "rightAssociative": false,
        "isLoop": false,
        "isAssign": false,
        "prefix": false,
        "postfix": false,
        "binop": null
      },
      "value": "PropsType",
      "start": 82,
      "end": 91,
      "loc": {
        "start": {
          "line": 11,
          "column": 12
        },
        "end": {
          "line": 11,
          "column": 21
        }
      }
    },
    {
      "type": {
        "label": "=",
        "beforeExpr": true,
        "startsExpr": false,
        "rightAssociative": false,
        "isLoop": false,
        "isAssign": true,
        "prefix": false,
        "postfix": false,
        "binop": null,
        "updateContext": null
      },
      "value": "=",
      "start": 92,
      "end": 93,
      "loc": {
        "start": {
          "line": 11,
          "column": 22
        },
        "end": {
          "line": 11,
          "column": 23
        }
      }
    },
    {
      "type": {
        "label": "{",
        "beforeExpr": true,
        "startsExpr": true,
        "rightAssociative": false,
        "isLoop": false,
        "isAssign": false,
        "prefix": false,
        "postfix": false,
        "binop": null
      },
      "start": 94,
      "end": 95,
      "loc": {
        "start": {
          "line": 11,
          "column": 24
        },
        "end": {
          "line": 11,
          "column": 25
        }
      }
    },
    {
      "type": {
        "label": "name",
        "beforeExpr": false,
        "startsExpr": true,
        "rightAssociative": false,
        "isLoop": false,
        "isAssign": false,
        "prefix": false,
        "postfix": false,
        "binop": null
      },
      "value": "children",
      "start": 98,
      "end": 106,
      "loc": {
        "start": {
          "line": 12,
          "column": 2
        },
        "end": {
          "line": 12,
          "column": 10
        }
      }
    },
    {
      "type": {
        "label": ":",
        "beforeExpr": true,
        "startsExpr": false,
        "rightAssociative": false,
        "isLoop": false,
        "isAssign": false,
        "prefix": false,
        "postfix": false,
        "binop": null,
        "updateContext": null
      },
      "start": 106,
      "end": 107,
      "loc": {
        "start": {
          "line": 12,
          "column": 10
        },
        "end": {
          "line": 12,
          "column": 11
        }
      }
    },
    {
      "type": {
        "label": "name",
        "beforeExpr": false,
        "startsExpr": true,
        "rightAssociative": false,
        "isLoop": false,
        "isAssign": false,
        "prefix": false,
        "postfix": false,
        "binop": null
      },
      "value": "Node",
      "start": 108,
      "end": 112,
      "loc": {
        "start": {
          "line": 12,
          "column": 12
        },
        "end": {
          "line": 12,
          "column": 16
        }
      }
    },
    {
      "type": {
        "label": ",",
        "beforeExpr": true,
        "startsExpr": false,
        "rightAssociative": false,
        "isLoop": false,
        "isAssign": false,
        "prefix": false,
        "postfix": false,
        "binop": null,
        "updateContext": null
      },
      "start": 112,
      "end": 113,
      "loc": {
        "start": {
          "line": 12,
          "column": 16
        },
        "end": {
          "line": 12,
          "column": 17
        }
      }
    },
    {
      "type": {
        "label": "name",
        "beforeExpr": false,
        "startsExpr": true,
        "rightAssociative": false,
        "isLoop": false,
        "isAssign": false,
        "prefix": false,
        "postfix": false,
        "binop": null
      },
      "value": "isDrawerOpen",
      "start": 116,
      "end": 128,
      "loc": {
        "start": {
          "line": 13,
          "column": 2
        },
        "end": {
          "line": 13,
          "column": 14
        }
      }
    },
    {
      "type": {
        "label": ":",
        "beforeExpr": true,
        "startsExpr": false,
        "rightAssociative": false,
        "isLoop": false,
        "isAssign": false,
        "prefix": false,
        "postfix": false,
        "binop": null,
        "updateContext": null
      },
      "start": 128,
      "end": 129,
      "loc": {
        "start": {
          "line": 13,
          "column": 14
        },
        "end": {
          "line": 13,
          "column": 15
        }
      }
    },
    {
      "type": {
        "label": "name",
        "beforeExpr": false,
        "startsExpr": true,
        "rightAssociative": false,
        "isLoop": false,
        "isAssign": false,
        "prefix": false,
        "postfix": false,
        "binop": null
      },
      "value": "boolean",
      "start": 130,
      "end": 137,
      "loc": {
        "start": {
          "line": 13,
          "column": 16
        },
        "end": {
          "line": 13,
          "column": 23
        }
      }
    },
    {
      "type": {
        "label": ",",
        "beforeExpr": true,
        "startsExpr": false,
        "rightAssociative": false,
        "isLoop": false,
        "isAssign": false,
        "prefix": false,
        "postfix": false,
        "binop": null,
        "updateContext": null
      },
      "start": 137,
      "end": 138,
      "loc": {
        "start": {
          "line": 13,
          "column": 23
        },
        "end": {
          "line": 13,
          "column": 24
        }
      }
    },
    {
      "type": {
        "label": "name",
        "beforeExpr": false,
        "startsExpr": true,
        "rightAssociative": false,
        "isLoop": false,
        "isAssign": false,
        "prefix": false,
        "postfix": false,
        "binop": null
      },
      "value": "changeIsDrawerOpenValueFunction",
      "start": 141,
      "end": 172,
      "loc": {
        "start": {
          "line": 14,
          "column": 2
        },
        "end": {
          "line": 14,
          "column": 33
        }
      }
    },
    {
      "type": {
        "label": "?",
        "beforeExpr": true,
        "startsExpr": false,
        "rightAssociative": false,
        "isLoop": false,
        "isAssign": false,
        "prefix": false,
        "postfix": false,
        "binop": null,
        "updateContext": null
      },
      "start": 172,
      "end": 173,
      "loc": {
        "start": {
          "line": 14,
          "column": 33
        },
        "end": {
          "line": 14,
          "column": 34
        }
      }
    },
    {
      "type": {
        "label": ":",
        "beforeExpr": true,
        "startsExpr": false,
        "rightAssociative": false,
        "isLoop": false,
        "isAssign": false,
        "prefix": false,
        "postfix": false,
        "binop": null,
        "updateContext": null
      },
      "start": 173,
      "end": 174,
      "loc": {
        "start": {
          "line": 14,
          "column": 34
        },
        "end": {
          "line": 14,
          "column": 35
        }
      }
    },
    {
      "type": {
        "label": "(",
        "beforeExpr": true,
        "startsExpr": true,
        "rightAssociative": false,
        "isLoop": false,
        "isAssign": false,
        "prefix": false,
        "postfix": false,
        "binop": null
      },
      "start": 175,
      "end": 176,
      "loc": {
        "start": {
          "line": 14,
          "column": 36
        },
        "end": {
          "line": 14,
          "column": 37
        }
      }
    },
    {
      "type": {
        "label": "name",
        "beforeExpr": false,
        "startsExpr": true,
        "rightAssociative": false,
        "isLoop": false,
        "isAssign": false,
        "prefix": false,
        "postfix": false,
        "binop": null
      },
      "value": "nextState",
      "start": 176,
      "end": 185,
      "loc": {
        "start": {
          "line": 14,
          "column": 37
        },
        "end": {
          "line": 14,
          "column": 46
        }
      }
    },
    {
      "type": {
        "label": ":",
        "beforeExpr": true,
        "startsExpr": false,
        "rightAssociative": false,
        "isLoop": false,
        "isAssign": false,
        "prefix": false,
        "postfix": false,
        "binop": null,
        "updateContext": null
      },
      "start": 185,
      "end": 186,
      "loc": {
        "start": {
          "line": 14,
          "column": 46
        },
        "end": {
          "line": 14,
          "column": 47
        }
      }
    },
    {
      "type": {
        "label": "name",
        "beforeExpr": false,
        "startsExpr": true,
        "rightAssociative": false,
        "isLoop": false,
        "isAssign": false,
        "prefix": false,
        "postfix": false,
        "binop": null
      },
      "value": "boolean",
      "start": 187,
      "end": 194,
      "loc": {
        "start": {
          "line": 14,
          "column": 48
        },
        "end": {
          "line": 14,
          "column": 55
        }
      }
    },
    {
      "type": {
        "label": ")",
        "beforeExpr": false,
        "startsExpr": false,
        "rightAssociative": false,
        "isLoop": false,
        "isAssign": false,
        "prefix": false,
        "postfix": false,
        "binop": null
      },
      "start": 194,
      "end": 195,
      "loc": {
        "start": {
          "line": 14,
          "column": 55
        },
        "end": {
          "line": 14,
          "column": 56
        }
      }
    },
    {
      "type": {
        "label": "=>",
        "beforeExpr": true,
        "startsExpr": false,
        "rightAssociative": false,
        "isLoop": false,
        "isAssign": false,
        "prefix": false,
        "postfix": false,
        "binop": null,
        "updateContext": null
      },
      "start": 196,
      "end": 198,
      "loc": {
        "start": {
          "line": 14,
          "column": 57
        },
        "end": {
          "line": 14,
          "column": 59
        }
      }
    },
    {
      "type": {
        "label": "name",
        "beforeExpr": false,
        "startsExpr": true,
        "rightAssociative": false,
        "isLoop": false,
        "isAssign": false,
        "prefix": false,
        "postfix": false,
        "binop": null
      },
      "value": "void",
      "start": 199,
      "end": 203,
      "loc": {
        "start": {
          "line": 14,
          "column": 60
        },
        "end": {
          "line": 14,
          "column": 64
        }
      }
    },
    {
      "type": {
        "label": ",",
        "beforeExpr": true,
        "startsExpr": false,
        "rightAssociative": false,
        "isLoop": false,
        "isAssign": false,
        "prefix": false,
        "postfix": false,
        "binop": null,
        "updateContext": null
      },
      "start": 203,
      "end": 204,
      "loc": {
        "start": {
          "line": 14,
          "column": 64
        },
        "end": {
          "line": 14,
          "column": 65
        }
      }
    },
    {
      "type": {
        "label": "name",
        "beforeExpr": false,
        "startsExpr": true,
        "rightAssociative": false,
        "isLoop": false,
        "isAssign": false,
        "prefix": false,
        "postfix": false,
        "binop": null
      },
      "value": "delayBeforeDrawerOpens",
      "start": 207,
      "end": 229,
      "loc": {
        "start": {
          "line": 15,
          "column": 2
        },
        "end": {
          "line": 15,
          "column": 24
        }
      }
    },
    {
      "type": {
        "label": "?",
        "beforeExpr": true,
        "startsExpr": false,
        "rightAssociative": false,
        "isLoop": false,
        "isAssign": false,
        "prefix": false,
        "postfix": false,
        "binop": null,
        "updateContext": null
      },
      "start": 229,
      "end": 230,
      "loc": {
        "start": {
          "line": 15,
          "column": 24
        },
        "end": {
          "line": 15,
          "column": 25
        }
      }
    },
    {
      "type": {
        "label": ":",
        "beforeExpr": true,
        "startsExpr": false,
        "rightAssociative": false,
        "isLoop": false,
        "isAssign": false,
        "prefix": false,
        "postfix": false,
        "binop": null,
        "updateContext": null
      },
      "start": 230,
      "end": 231,
      "loc": {
        "start": {
          "line": 15,
          "column": 25
        },
        "end": {
          "line": 15,
          "column": 26
        }
      }
    },
    {
      "type": {
        "label": "name",
        "beforeExpr": false,
        "startsExpr": true,
        "rightAssociative": false,
        "isLoop": false,
        "isAssign": false,
        "prefix": false,
        "postfix": false,
        "binop": null
      },
      "value": "number",
      "start": 232,
      "end": 238,
      "loc": {
        "start": {
          "line": 15,
          "column": 27
        },
        "end": {
          "line": 15,
          "column": 33
        }
      }
    },
    {
      "type": {
        "label": ",",
        "beforeExpr": true,
        "startsExpr": false,
        "rightAssociative": false,
        "isLoop": false,
        "isAssign": false,
        "prefix": false,
        "postfix": false,
        "binop": null,
        "updateContext": null
      },
      "start": 238,
      "end": 239,
      "loc": {
        "start": {
          "line": 15,
          "column": 33
        },
        "end": {
          "line": 15,
          "column": 34
        }
      }
    },
    {
      "type": {
        "label": "}",
        "beforeExpr": false,
        "startsExpr": false,
        "rightAssociative": false,
        "isLoop": false,
        "isAssign": false,
        "prefix": false,
        "postfix": false,
        "binop": null
      },
      "start": 240,
      "end": 241,
      "loc": {
        "start": {
          "line": 16,
          "column": 0
        },
        "end": {
          "line": 16,
          "column": 1
        }
      }
    },
    {
      "type": {
        "label": ";",
        "beforeExpr": true,
        "startsExpr": false,
        "rightAssociative": false,
        "isLoop": false,
        "isAssign": false,
        "prefix": false,
        "postfix": false,
        "binop": null,
        "updateContext": null
      },
      "start": 241,
      "end": 242,
      "loc": {
        "start": {
          "line": 16,
          "column": 1
        },
        "end": {
          "line": 16,
          "column": 2
        }
      }
    },
    {
      "type": {
        "label": "eof",
        "beforeExpr": false,
        "startsExpr": false,
        "rightAssociative": false,
        "isLoop": false,
        "isAssign": false,
        "prefix": false,
        "postfix": false,
        "binop": null,
        "updateContext": null
      },
      "start": 243,
      "end": 243,
      "loc": {
        "start": {
          "line": 17,
          "column": 0
        },
        "end": {
          "line": 17,
          "column": 0
        }
      }
    }
  ]
}
