{
  "type": "File",
  "start": 0,
  "end": 238,
  "loc": {
    "start": {
      "line": 1,
      "column": 0
    },
    "end": {
      "line": 18,
      "column": 0
    }
  },
  "program": {
    "type": "Program",
    "start": 0,
    "end": 238,
    "loc": {
      "start": {
        "line": 1,
        "column": 0
      },
      "end": {
        "line": 18,
        "column": 0
      }
    },
    "sourceType": "module",
    "body": [
      {
        "type": "TypeAlias",
        "start": 35,
        "end": 82,
        "loc": {
          "start": {
            "line": 8,
            "column": 0
          },
          "end": {
            "line": 10,
            "column": 2
          }
        },
        "id": {
          "type": "Identifier",
          "start": 40,
          "end": 57,
          "loc": {
            "start": {
              "line": 8,
              "column": 5
            },
            "end": {
              "line": 8,
              "column": 22
            },
            "identifierName": "NavigationSubpath"
          },
          "name": "NavigationSubpath"
        },
        "typeParameters": null,
        "right": {
          "type": "ObjectTypeAnnotation",
          "start": 60,
          "end": 81,
          "loc": {
            "start": {
              "line": 8,
              "column": 25
            },
            "end": {
              "line": 10,
              "column": 1
            }
          },
          "callProperties": [],
          "properties": [
            {
              "type": "ObjectTypeProperty",
              "start": 64,
              "end": 79,
              "loc": {
                "start": {
                  "line": 9,
                  "column": 2
                },
                "end": {
                  "line": 9,
                  "column": 17
                }
              },
              "key": {
                "type": "Identifier",
                "start": 64,
                "end": 70,
                "loc": {
                  "start": {
                    "line": 9,
                    "column": 2
                  },
                  "end": {
                    "line": 9,
                    "column": 8
                  },
                  "identifierName": "screen"
                },
                "name": "screen"
              },
              "value": {
                "type": "StringTypeAnnotation",
                "start": 72,
                "end": 78,
                "loc": {
                  "start": {
                    "line": 9,
                    "column": 10
                  },
                  "end": {
                    "line": 9,
                    "column": 16
                  }
                }
              },
              "optional": false,
              "static": false,
              "variance": null
            }
          ],
          "indexers": [],
          "exact": false
        },
        "leadingComments": [
          {
            "type": "CommentBlock",
            "value": "*\n *\n * @format\n *\n ",
            "start": 0,
            "end": 24,
            "loc": {
              "start": {
                "line": 1,
                "column": 0
              },
              "end": {
                "line": 5,
                "column": 3
              }
            }
          },
          {
            "type": "CommentLine",
            "value": " @flow",
            "start": 26,
            "end": 34,
            "loc": {
              "start": {
                "line": 7,
                "column": 0
              },
              "end": {
                "line": 7,
                "column": 8
              }
            }
          }
        ]
      },
      {
        "type": "ExportNamedDeclaration",
        "start": 84,
        "end": 237,
        "loc": {
          "start": {
            "line": 12,
            "column": 0
          },
          "end": {
            "line": 17,
            "column": 2
          }
        },
        "specifiers": [],
        "source": null,
        "exportKind": "type",
        "declaration": {
          "type": "TypeAlias",
          "start": 91,
          "end": 237,
          "loc": {
            "start": {
              "line": 12,
              "column": 7
            },
            "end": {
              "line": 17,
              "column": 2
            }
          },
          "id": {
            "type": "Identifier",
            "start": 96,
            "end": 105,
            "loc": {
              "start": {
                "line": 12,
                "column": 12
              },
              "end": {
                "line": 12,
                "column": 21
              },
              "identifierName": "PropsType"
            },
            "name": "PropsType"
          },
          "typeParameters": null,
          "right": {
            "type": "ObjectTypeAnnotation",
            "start": 108,
            "end": 236,
            "loc": {
              "start": {
                "line": 12,
                "column": 24
              },
              "end": {
                "line": 17,
                "column": 1
              }
            },
            "callProperties": [],
            "properties": [
              {
                "type": "ObjectTypeProperty",
                "start": 112,
                "end": 234,
                "loc": {
                  "start": {
                    "line": 13,
                    "column": 2
                  },
                  "end": {
                    "line": 16,
                    "column": 4
                  }
                },
                "key": {
                  "type": "Identifier",
                  "start": 112,
                  "end": 122,
                  "loc": {
                    "start": {
                      "line": 13,
                      "column": 2
                    },
                    "end": {
                      "line": 13,
                      "column": 12
                    },
                    "identifierName": "navigation"
                  },
                  "name": "navigation"
                },
                "value": {
                  "type": "ObjectTypeAnnotation",
                  "start": 124,
                  "end": 233,
                  "loc": {
                    "start": {
                      "line": 13,
                      "column": 14
                    },
                    "end": {
                      "line": 16,
                      "column": 3
                    }
                  },
                  "callProperties": [],
                  "properties": [
                    {
                      "type": "ObjectTypeProperty",
                      "start": 130,
                      "end": 192,
                      "loc": {
                        "start": {
                          "line": 14,
                          "column": 4
                        },
                        "end": {
                          "line": 14,
                          "column": 66
                        }
                      },
                      "key": {
                        "type": "Identifier",
                        "start": 130,
                        "end": 138,
                        "loc": {
                          "start": {
                            "line": 14,
                            "column": 4
                          },
                          "end": {
                            "line": 14,
                            "column": 12
                          },
                          "identifierName": "navigate"
                        },
                        "name": "navigate"
                      },
                      "value": {
                        "type": "FunctionTypeAnnotation",
                        "start": 140,
                        "end": 191,
                        "loc": {
                          "start": {
                            "line": 14,
                            "column": 14
                          },
                          "end": {
                            "line": 14,
                            "column": 65
                          }
                        },
                        "params": [
                          {
                            "type": "FunctionTypeParam",
                            "start": 141,
                            "end": 153,
                            "loc": {
                              "start": {
                                "line": 14,
                                "column": 15
                              },
                              "end": {
                                "line": 14,
                                "column": 27
                              }
                            },
                            "name": {
                              "type": "Identifier",
                              "start": 141,
                              "end": 145,
                              "loc": {
                                "start": {
                                  "line": 14,
                                  "column": 15
                                },
                                "end": {
                                  "line": 14,
                                  "column": 19
                                },
                                "identifierName": "path"
                              },
                              "name": "path"
                            },
                            "optional": false,
                            "typeAnnotation": {
                              "type": "StringTypeAnnotation",
                              "start": 147,
                              "end": 153,
                              "loc": {
                                "start": {
                                  "line": 14,
                                  "column": 21
                                },
                                "end": {
                                  "line": 14,
                                  "column": 27
                                }
                              }
                            }
                          },
                          {
                            "type": "FunctionTypeParam",
                            "start": 155,
                            "end": 182,
                            "loc": {
                              "start": {
                                "line": 14,
                                "column": 29
                              },
                              "end": {
                                "line": 14,
                                "column": 56
                              }
                            },
                            "name": {
                              "type": "Identifier",
                              "start": 155,
                              "end": 162,
                              "loc": {
                                "start": {
                                  "line": 14,
                                  "column": 29
                                },
                                "end": {
                                  "line": 14,
                                  "column": 36
                                },
                                "identifierName": "subpath"
                              },
                              "name": "subpath"
                            },
                            "optional": true,
                            "typeAnnotation": {
                              "type": "GenericTypeAnnotation",
                              "start": 165,
                              "end": 182,
                              "loc": {
                                "start": {
                                  "line": 14,
                                  "column": 39
                                },
                                "end": {
                                  "line": 14,
                                  "column": 56
                                }
                              },
                              "typeParameters": null,
                              "id": {
                                "type": "Identifier",
                                "start": 165,
                                "end": 182,
                                "loc": {
                                  "start": {
                                    "line": 14,
                                    "column": 39
                                  },
                                  "end": {
                                    "line": 14,
                                    "column": 56
                                  },
                                  "identifierName": "NavigationSubpath"
                                },
                                "name": "NavigationSubpath"
                              }
                            }
                          }
                        ],
                        "rest": null,
                        "returnType": {
                          "type": "VoidTypeAnnotation",
                          "start": 187,
                          "end": 191,
                          "loc": {
                            "start": {
                              "line": 14,
                              "column": 61
                            },
                            "end": {
                              "line": 14,
                              "column": 65
                            }
                          }
                        },
                        "typeParameters": null
                      },
                      "optional": false,
                      "static": false,
                      "variance": null
                    },
                    {
                      "type": "ObjectTypeProperty",
                      "start": 197,
                      "end": 229,
                      "loc": {
                        "start": {
                          "line": 15,
                          "column": 4
                        },
                        "end": {
                          "line": 15,
                          "column": 36
                        }
                      },
                      "key": {
                        "type": "Identifier",
                        "start": 197,
                        "end": 203,
                        "loc": {
                          "start": {
                            "line": 15,
                            "column": 4
                          },
                          "end": {
                            "line": 15,
                            "column": 10
                          },
                          "identifierName": "goBack"
                        },
                        "name": "goBack"
                      },
                      "value": {
                        "type": "FunctionTypeAnnotation",
                        "start": 205,
                        "end": 228,
                        "loc": {
                          "start": {
                            "line": 15,
                            "column": 12
                          },
                          "end": {
                            "line": 15,
                            "column": 35
                          }
                        },
                        "params": [
                          {
                            "type": "FunctionTypeParam",
                            "start": 206,
                            "end": 219,
                            "loc": {
                              "start": {
                                "line": 15,
                                "column": 13
                              },
                              "end": {
                                "line": 15,
                                "column": 26
                              }
                            },
                            "name": {
                              "type": "Identifier",
                              "start": 206,
                              "end": 210,
                              "loc": {
                                "start": {
                                  "line": 15,
                                  "column": 13
                                },
                                "end": {
                                  "line": 15,
                                  "column": 17
                                },
                                "identifierName": "path"
                              },
                              "name": "path"
                            },
                            "optional": true,
                            "typeAnnotation": {
                              "type": "StringTypeAnnotation",
                              "start": 213,
                              "end": 219,
                              "loc": {
                                "start": {
                                  "line": 15,
                                  "column": 20
                                },
                                "end": {
                                  "line": 15,
                                  "column": 26
                                }
                              }
                            }
                          }
                        ],
                        "rest": null,
                        "returnType": {
                          "type": "VoidTypeAnnotation",
                          "start": 224,
                          "end": 228,
                          "loc": {
                            "start": {
                              "line": 15,
                              "column": 31
                            },
                            "end": {
                              "line": 15,
                              "column": 35
                            }
                          }
                        },
                        "typeParameters": null
                      },
                      "optional": false,
                      "static": false,
                      "variance": null
                    }
                  ],
                  "indexers": [],
                  "exact": false
                },
                "optional": false,
                "static": false,
                "variance": null
              }
            ],
            "indexers": [],
            "exact": false
          },
          "leadingComments": [],
          "trailingComments": []
        }
      }
    ],
    "directives": []
  },
  "comments": [
    {
      "type": "CommentBlock",
      "value": "*\n *\n * @format\n *\n ",
      "start": 0,
      "end": 24,
      "loc": {
        "start": {
          "line": 1,
          "column": 0
        },
        "end": {
          "line": 5,
          "column": 3
        }
      }
    },
    {
      "type": "CommentLine",
      "value": " @flow",
      "start": 26,
      "end": 34,
      "loc": {
        "start": {
          "line": 7,
          "column": 0
        },
        "end": {
          "line": 7,
          "column": 8
        }
      }
    }
  ],
  "tokens": [
    {
      "type": "CommentBlock",
      "value": "*\n *\n * @format\n *\n ",
      "start": 0,
      "end": 24,
      "loc": {
        "start": {
          "line": 1,
          "column": 0
        },
        "end": {
          "line": 5,
          "column": 3
        }
      }
    },
    {
      "type": "CommentLine",
      "value": " @flow",
      "start": 26,
      "end": 34,
      "loc": {
        "start": {
          "line": 7,
          "column": 0
        },
        "end": {
          "line": 7,
          "column": 8
        }
      }
    },
    {
      "type": {
        "label": "name",
        "beforeExpr": false,
        "startsExpr": true,
        "rightAssociative": false,
        "isLoop": false,
        "isAssign": false,
        "prefix": false,
        "postfix": false,
        "binop": null
      },
      "value": "type",
      "start": 35,
      "end": 39,
      "loc": {
        "start": {
          "line": 8,
          "column": 0
        },
        "end": {
          "line": 8,
          "column": 4
        }
      }
    },
    {
      "type": {
        "label": "name",
        "beforeExpr": false,
        "startsExpr": true,
        "rightAssociative": false,
        "isLoop": false,
        "isAssign": false,
        "prefix": false,
        "postfix": false,
        "binop": null
      },
      "value": "NavigationSubpath",
      "start": 40,
      "end": 57,
      "loc": {
        "start": {
          "line": 8,
          "column": 5
        },
        "end": {
          "line": 8,
          "column": 22
        }
      }
    },
    {
      "type": {
        "label": "=",
        "beforeExpr": true,
        "startsExpr": false,
        "rightAssociative": false,
        "isLoop": false,
        "isAssign": true,
        "prefix": false,
        "postfix": false,
        "binop": null,
        "updateContext": null
      },
      "value": "=",
      "start": 58,
      "end": 59,
      "loc": {
        "start": {
          "line": 8,
          "column": 23
        },
        "end": {
          "line": 8,
          "column": 24
        }
      }
    },
    {
      "type": {
        "label": "{",
        "beforeExpr": true,
        "startsExpr": true,
        "rightAssociative": false,
        "isLoop": false,
        "isAssign": false,
        "prefix": false,
        "postfix": false,
        "binop": null
      },
      "start": 60,
      "end": 61,
      "loc": {
        "start": {
          "line": 8,
          "column": 25
        },
        "end": {
          "line": 8,
          "column": 26
        }
      }
    },
    {
      "type": {
        "label": "name",
        "beforeExpr": false,
        "startsExpr": true,
        "rightAssociative": false,
        "isLoop": false,
        "isAssign": false,
        "prefix": false,
        "postfix": false,
        "binop": null
      },
      "value": "screen",
      "start": 64,
      "end": 70,
      "loc": {
        "start": {
          "line": 9,
          "column": 2
        },
        "end": {
          "line": 9,
          "column": 8
        }
      }
    },
    {
      "type": {
        "label": ":",
        "beforeExpr": true,
        "startsExpr": false,
        "rightAssociative": false,
        "isLoop": false,
        "isAssign": false,
        "prefix": false,
        "postfix": false,
        "binop": null,
        "updateContext": null
      },
      "start": 70,
      "end": 71,
      "loc": {
        "start": {
          "line": 9,
          "column": 8
        },
        "end": {
          "line": 9,
          "column": 9
        }
      }
    },
    {
      "type": {
        "label": "name",
        "beforeExpr": false,
        "startsExpr": true,
        "rightAssociative": false,
        "isLoop": false,
        "isAssign": false,
        "prefix": false,
        "postfix": false,
        "binop": null
      },
      "value": "string",
      "start": 72,
      "end": 78,
      "loc": {
        "start": {
          "line": 9,
          "column": 10
        },
        "end": {
          "line": 9,
          "column": 16
        }
      }
    },
    {
      "type": {
        "label": ",",
        "beforeExpr": true,
        "startsExpr": false,
        "rightAssociative": false,
        "isLoop": false,
        "isAssign": false,
        "prefix": false,
        "postfix": false,
        "binop": null,
        "updateContext": null
      },
      "start": 78,
      "end": 79,
      "loc": {
        "start": {
          "line": 9,
          "column": 16
        },
        "end": {
          "line": 9,
          "column": 17
        }
      }
    },
    {
      "type": {
        "label": "}",
        "beforeExpr": false,
        "startsExpr": false,
        "rightAssociative": false,
        "isLoop": false,
        "isAssign": false,
        "prefix": false,
        "postfix": false,
        "binop": null
      },
      "start": 80,
      "end": 81,
      "loc": {
        "start": {
          "line": 10,
          "column": 0
        },
        "end": {
          "line": 10,
          "column": 1
        }
      }
    },
    {
      "type": {
        "label": ";",
        "beforeExpr": true,
        "startsExpr": false,
        "rightAssociative": false,
        "isLoop": false,
        "isAssign": false,
        "prefix": false,
        "postfix": false,
        "binop": null,
        "updateContext": null
      },
      "start": 81,
      "end": 82,
      "loc": {
        "start": {
          "line": 10,
          "column": 1
        },
        "end": {
          "line": 10,
          "column": 2
        }
      }
    },
    {
      "type": {
        "label": "export",
        "keyword": "export",
        "beforeExpr": false,
        "startsExpr": false,
        "rightAssociative": false,
        "isLoop": false,
        "isAssign": false,
        "prefix": false,
        "postfix": false,
        "binop": null,
        "updateContext": null
      },
      "value": "export",
      "start": 84,
      "end": 90,
      "loc": {
        "start": {
          "line": 12,
          "column": 0
        },
        "end": {
          "line": 12,
          "column": 6
        }
      }
    },
    {
      "type": {
        "label": "name",
        "beforeExpr": false,
        "startsExpr": true,
        "rightAssociative": false,
        "isLoop": false,
        "isAssign": false,
        "prefix": false,
        "postfix": false,
        "binop": null
      },
      "value": "type",
      "start": 91,
      "end": 95,
      "loc": {
        "start": {
          "line": 12,
          "column": 7
        },
        "end": {
          "line": 12,
          "column": 11
        }
      }
    },
    {
      "type": {
        "label": "name",
        "beforeExpr": false,
        "startsExpr": true,
        "rightAssociative": false,
        "isLoop": false,
        "isAssign": false,
        "prefix": false,
        "postfix": false,
        "binop": null
      },
      "value": "PropsType",
      "start": 96,
      "end": 105,
      "loc": {
        "start": {
          "line": 12,
          "column": 12
        },
        "end": {
          "line": 12,
          "column": 21
        }
      }
    },
    {
      "type": {
        "label": "=",
        "beforeExpr": true,
        "startsExpr": false,
        "rightAssociative": false,
        "isLoop": false,
        "isAssign": true,
        "prefix": false,
        "postfix": false,
        "binop": null,
        "updateContext": null
      },
      "value": "=",
      "start": 106,
      "end": 107,
      "loc": {
        "start": {
          "line": 12,
          "column": 22
        },
        "end": {
          "line": 12,
          "column": 23
        }
      }
    },
    {
      "type": {
        "label": "{",
        "beforeExpr": true,
        "startsExpr": true,
        "rightAssociative": false,
        "isLoop": false,
        "isAssign": false,
        "prefix": false,
        "postfix": false,
        "binop": null
      },
      "start": 108,
      "end": 109,
      "loc": {
        "start": {
          "line": 12,
          "column": 24
        },
        "end": {
          "line": 12,
          "column": 25
        }
      }
    },
    {
      "type": {
        "label": "name",
        "beforeExpr": false,
        "startsExpr": true,
        "rightAssociative": false,
        "isLoop": false,
        "isAssign": false,
        "prefix": false,
        "postfix": false,
        "binop": null
      },
      "value": "navigation",
      "start": 112,
      "end": 122,
      "loc": {
        "start": {
          "line": 13,
          "column": 2
        },
        "end": {
          "line": 13,
          "column": 12
        }
      }
    },
    {
      "type": {
        "label": ":",
        "beforeExpr": true,
        "startsExpr": false,
        "rightAssociative": false,
        "isLoop": false,
        "isAssign": false,
        "prefix": false,
        "postfix": false,
        "binop": null,
        "updateContext": null
      },
      "start": 122,
      "end": 123,
      "loc": {
        "start": {
          "line": 13,
          "column": 12
        },
        "end": {
          "line": 13,
          "column": 13
        }
      }
    },
    {
      "type": {
        "label": "{",
        "beforeExpr": true,
        "startsExpr": true,
        "rightAssociative": false,
        "isLoop": false,
        "isAssign": false,
        "prefix": false,
        "postfix": false,
        "binop": null
      },
      "start": 124,
      "end": 125,
      "loc": {
        "start": {
          "line": 13,
          "column": 14
        },
        "end": {
          "line": 13,
          "column": 15
        }
      }
    },
    {
      "type": {
        "label": "name",
        "beforeExpr": false,
        "startsExpr": true,
        "rightAssociative": false,
        "isLoop": false,
        "isAssign": false,
        "prefix": false,
        "postfix": false,
        "binop": null
      },
      "value": "navigate",
      "start": 130,
      "end": 138,
      "loc": {
        "start": {
          "line": 14,
          "column": 4
        },
        "end": {
          "line": 14,
          "column": 12
        }
      }
    },
    {
      "type": {
        "label": ":",
        "beforeExpr": true,
        "startsExpr": false,
        "rightAssociative": false,
        "isLoop": false,
        "isAssign": false,
        "prefix": false,
        "postfix": false,
        "binop": null,
        "updateContext": null
      },
      "start": 138,
      "end": 139,
      "loc": {
        "start": {
          "line": 14,
          "column": 12
        },
        "end": {
          "line": 14,
          "column": 13
        }
      }
    },
    {
      "type": {
        "label": "(",
        "beforeExpr": true,
        "startsExpr": true,
        "rightAssociative": false,
        "isLoop": false,
        "isAssign": false,
        "prefix": false,
        "postfix": false,
        "binop": null
      },
      "start": 140,
      "end": 141,
      "loc": {
        "start": {
          "line": 14,
          "column": 14
        },
        "end": {
          "line": 14,
          "column": 15
        }
      }
    },
    {
      "type": {
        "label": "name",
        "beforeExpr": false,
        "startsExpr": true,
        "rightAssociative": false,
        "isLoop": false,
        "isAssign": false,
        "prefix": false,
        "postfix": false,
        "binop": null
      },
      "value": "path",
      "start": 141,
      "end": 145,
      "loc": {
        "start": {
          "line": 14,
          "column": 15
        },
        "end": {
          "line": 14,
          "column": 19
        }
      }
    },
    {
      "type": {
        "label": ":",
        "beforeExpr": true,
        "startsExpr": false,
        "rightAssociative": false,
        "isLoop": false,
        "isAssign": false,
        "prefix": false,
        "postfix": false,
        "binop": null,
        "updateContext": null
      },
      "start": 145,
      "end": 146,
      "loc": {
        "start": {
          "line": 14,
          "column": 19
        },
        "end": {
          "line": 14,
          "column": 20
        }
      }
    },
    {
      "type": {
        "label": "name",
        "beforeExpr": false,
        "startsExpr": true,
        "rightAssociative": false,
        "isLoop": false,
        "isAssign": false,
        "prefix": false,
        "postfix": false,
        "binop": null
      },
      "value": "string",
      "start": 147,
      "end": 153,
      "loc": {
        "start": {
          "line": 14,
          "column": 21
        },
        "end": {
          "line": 14,
          "column": 27
        }
      }
    },
    {
      "type": {
        "label": ",",
        "beforeExpr": true,
        "startsExpr": false,
        "rightAssociative": false,
        "isLoop": false,
        "isAssign": false,
        "prefix": false,
        "postfix": false,
        "binop": null,
        "updateContext": null
      },
      "start": 153,
      "end": 154,
      "loc": {
        "start": {
          "line": 14,
          "column": 27
        },
        "end": {
          "line": 14,
          "column": 28
        }
      }
    },
    {
      "type": {
        "label": "name",
        "beforeExpr": false,
        "startsExpr": true,
        "rightAssociative": false,
        "isLoop": false,
        "isAssign": false,
        "prefix": false,
        "postfix": false,
        "binop": null
      },
      "value": "subpath",
      "start": 155,
      "end": 162,
      "loc": {
        "start": {
          "line": 14,
          "column": 29
        },
        "end": {
          "line": 14,
          "column": 36
        }
      }
    },
    {
      "type": {
        "label": "?",
        "beforeExpr": true,
        "startsExpr": false,
        "rightAssociative": false,
        "isLoop": false,
        "isAssign": false,
        "prefix": false,
        "postfix": false,
        "binop": null,
        "updateContext": null
      },
      "start": 162,
      "end": 163,
      "loc": {
        "start": {
          "line": 14,
          "column": 36
        },
        "end": {
          "line": 14,
          "column": 37
        }
      }
    },
    {
      "type": {
        "label": ":",
        "beforeExpr": true,
        "startsExpr": false,
        "rightAssociative": false,
        "isLoop": false,
        "isAssign": false,
        "prefix": false,
        "postfix": false,
        "binop": null,
        "updateContext": null
      },
      "start": 163,
      "end": 164,
      "loc": {
        "start": {
          "line": 14,
          "column": 37
        },
        "end": {
          "line": 14,
          "column": 38
        }
      }
    },
    {
      "type": {
        "label": "name",
        "beforeExpr": false,
        "startsExpr": true,
        "rightAssociative": false,
        "isLoop": false,
        "isAssign": false,
        "prefix": false,
        "postfix": false,
        "binop": null
      },
      "value": "NavigationSubpath",
      "start": 165,
      "end": 182,
      "loc": {
        "start": {
          "line": 14,
          "column": 39
        },
        "end": {
          "line": 14,
          "column": 56
        }
      }
    },
    {
      "type": {
        "label": ")",
        "beforeExpr": false,
        "startsExpr": false,
        "rightAssociative": false,
        "isLoop": false,
        "isAssign": false,
        "prefix": false,
        "postfix": false,
        "binop": null
      },
      "start": 182,
      "end": 183,
      "loc": {
        "start": {
          "line": 14,
          "column": 56
        },
        "end": {
          "line": 14,
          "column": 57
        }
      }
    },
    {
      "type": {
        "label": "=>",
        "beforeExpr": true,
        "startsExpr": false,
        "rightAssociative": false,
        "isLoop": false,
        "isAssign": false,
        "prefix": false,
        "postfix": false,
        "binop": null,
        "updateContext": null
      },
      "start": 184,
      "end": 186,
      "loc": {
        "start": {
          "line": 14,
          "column": 58
        },
        "end": {
          "line": 14,
          "column": 60
        }
      }
    },
    {
      "type": {
        "label": "name",
        "beforeExpr": false,
        "startsExpr": true,
        "rightAssociative": false,
        "isLoop": false,
        "isAssign": false,
        "prefix": false,
        "postfix": false,
        "binop": null
      },
      "value": "void",
      "start": 187,
      "end": 191,
      "loc": {
        "start": {
          "line": 14,
          "column": 61
        },
        "end": {
          "line": 14,
          "column": 65
        }
      }
    },
    {
      "type": {
        "label": ",",
        "beforeExpr": true,
        "startsExpr": false,
        "rightAssociative": false,
        "isLoop": false,
        "isAssign": false,
        "prefix": false,
        "postfix": false,
        "binop": null,
        "updateContext": null
      },
      "start": 191,
      "end": 192,
      "loc": {
        "start": {
          "line": 14,
          "column": 65
        },
        "end": {
          "line": 14,
          "column": 66
        }
      }
    },
    {
      "type": {
        "label": "name",
        "beforeExpr": false,
        "startsExpr": true,
        "rightAssociative": false,
        "isLoop": false,
        "isAssign": false,
        "prefix": false,
        "postfix": false,
        "binop": null
      },
      "value": "goBack",
      "start": 197,
      "end": 203,
      "loc": {
        "start": {
          "line": 15,
          "column": 4
        },
        "end": {
          "line": 15,
          "column": 10
        }
      }
    },
    {
      "type": {
        "label": ":",
        "beforeExpr": true,
        "startsExpr": false,
        "rightAssociative": false,
        "isLoop": false,
        "isAssign": false,
        "prefix": false,
        "postfix": false,
        "binop": null,
        "updateContext": null
      },
      "start": 203,
      "end": 204,
      "loc": {
        "start": {
          "line": 15,
          "column": 10
        },
        "end": {
          "line": 15,
          "column": 11
        }
      }
    },
    {
      "type": {
        "label": "(",
        "beforeExpr": true,
        "startsExpr": true,
        "rightAssociative": false,
        "isLoop": false,
        "isAssign": false,
        "prefix": false,
        "postfix": false,
        "binop": null
      },
      "start": 205,
      "end": 206,
      "loc": {
        "start": {
          "line": 15,
          "column": 12
        },
        "end": {
          "line": 15,
          "column": 13
        }
      }
    },
    {
      "type": {
        "label": "name",
        "beforeExpr": false,
        "startsExpr": true,
        "rightAssociative": false,
        "isLoop": false,
        "isAssign": false,
        "prefix": false,
        "postfix": false,
        "binop": null
      },
      "value": "path",
      "start": 206,
      "end": 210,
      "loc": {
        "start": {
          "line": 15,
          "column": 13
        },
        "end": {
          "line": 15,
          "column": 17
        }
      }
    },
    {
      "type": {
        "label": "?",
        "beforeExpr": true,
        "startsExpr": false,
        "rightAssociative": false,
        "isLoop": false,
        "isAssign": false,
        "prefix": false,
        "postfix": false,
        "binop": null,
        "updateContext": null
      },
      "start": 210,
      "end": 211,
      "loc": {
        "start": {
          "line": 15,
          "column": 17
        },
        "end": {
          "line": 15,
          "column": 18
        }
      }
    },
    {
      "type": {
        "label": ":",
        "beforeExpr": true,
        "startsExpr": false,
        "rightAssociative": false,
        "isLoop": false,
        "isAssign": false,
        "prefix": false,
        "postfix": false,
        "binop": null,
        "updateContext": null
      },
      "start": 211,
      "end": 212,
      "loc": {
        "start": {
          "line": 15,
          "column": 18
        },
        "end": {
          "line": 15,
          "column": 19
        }
      }
    },
    {
      "type": {
        "label": "name",
        "beforeExpr": false,
        "startsExpr": true,
        "rightAssociative": false,
        "isLoop": false,
        "isAssign": false,
        "prefix": false,
        "postfix": false,
        "binop": null
      },
      "value": "string",
      "start": 213,
      "end": 219,
      "loc": {
        "start": {
          "line": 15,
          "column": 20
        },
        "end": {
          "line": 15,
          "column": 26
        }
      }
    },
    {
      "type": {
        "label": ")",
        "beforeExpr": false,
        "startsExpr": false,
        "rightAssociative": false,
        "isLoop": false,
        "isAssign": false,
        "prefix": false,
        "postfix": false,
        "binop": null
      },
      "start": 219,
      "end": 220,
      "loc": {
        "start": {
          "line": 15,
          "column": 26
        },
        "end": {
          "line": 15,
          "column": 27
        }
      }
    },
    {
      "type": {
        "label": "=>",
        "beforeExpr": true,
        "startsExpr": false,
        "rightAssociative": false,
        "isLoop": false,
        "isAssign": false,
        "prefix": false,
        "postfix": false,
        "binop": null,
        "updateContext": null
      },
      "start": 221,
      "end": 223,
      "loc": {
        "start": {
          "line": 15,
          "column": 28
        },
        "end": {
          "line": 15,
          "column": 30
        }
      }
    },
    {
      "type": {
        "label": "name",
        "beforeExpr": false,
        "startsExpr": true,
        "rightAssociative": false,
        "isLoop": false,
        "isAssign": false,
        "prefix": false,
        "postfix": false,
        "binop": null
      },
      "value": "void",
      "start": 224,
      "end": 228,
      "loc": {
        "start": {
          "line": 15,
          "column": 31
        },
        "end": {
          "line": 15,
          "column": 35
        }
      }
    },
    {
      "type": {
        "label": ",",
        "beforeExpr": true,
        "startsExpr": false,
        "rightAssociative": false,
        "isLoop": false,
        "isAssign": false,
        "prefix": false,
        "postfix": false,
        "binop": null,
        "updateContext": null
      },
      "start": 228,
      "end": 229,
      "loc": {
        "start": {
          "line": 15,
          "column": 35
        },
        "end": {
          "line": 15,
          "column": 36
        }
      }
    },
    {
      "type": {
        "label": "}",
        "beforeExpr": false,
        "startsExpr": false,
        "rightAssociative": false,
        "isLoop": false,
        "isAssign": false,
        "prefix": false,
        "postfix": false,
        "binop": null
      },
      "start": 232,
      "end": 233,
      "loc": {
        "start": {
          "line": 16,
          "column": 2
        },
        "end": {
          "line": 16,
          "column": 3
        }
      }
    },
    {
      "type": {
        "label": ",",
        "beforeExpr": true,
        "startsExpr": false,
        "rightAssociative": false,
        "isLoop": false,
        "isAssign": false,
        "prefix": false,
        "postfix": false,
        "binop": null,
        "updateContext": null
      },
      "start": 233,
      "end": 234,
      "loc": {
        "start": {
          "line": 16,
          "column": 3
        },
        "end": {
          "line": 16,
          "column": 4
        }
      }
    },
    {
      "type": {
        "label": "}",
        "beforeExpr": false,
        "startsExpr": false,
        "rightAssociative": false,
        "isLoop": false,
        "isAssign": false,
        "prefix": false,
        "postfix": false,
        "binop": null
      },
      "start": 235,
      "end": 236,
      "loc": {
        "start": {
          "line": 17,
          "column": 0
        },
        "end": {
          "line": 17,
          "column": 1
        }
      }
    },
    {
      "type": {
        "label": ";",
        "beforeExpr": true,
        "startsExpr": false,
        "rightAssociative": false,
        "isLoop": false,
        "isAssign": false,
        "prefix": false,
        "postfix": false,
        "binop": null,
        "updateContext": null
      },
      "start": 236,
      "end": 237,
      "loc": {
        "start": {
          "line": 17,
          "column": 1
        },
        "end": {
          "line": 17,
          "column": 2
        }
      }
    },
    {
      "type": {
        "label": "eof",
        "beforeExpr": false,
        "startsExpr": false,
        "rightAssociative": false,
        "isLoop": false,
        "isAssign": false,
        "prefix": false,
        "postfix": false,
        "binop": null,
        "updateContext": null
      },
      "start": 238,
      "end": 238,
      "loc": {
        "start": {
          "line": 18,
          "column": 0
        },
        "end": {
          "line": 18,
          "column": 0
        }
      }
    }
  ]
}
