<?xml version="1.0" encoding="UTF-8"?>
<svg width="20px" height="20px" viewBox="0 0 20 20" version="1.1" xmlns="http://www.w3.org/2000/svg" xmlns:xlink="http://www.w3.org/1999/xlink">
    <title>4CA3A774-BED2-45E7-A647-AB983A48683E</title>
    <defs>
        <linearGradient x1="0%" y1="17.1292915%" x2="100%" y2="82.8707085%" id="linearGradient-1">
            <stop stop-color="#00A3AD" offset="0%"></stop>
            <stop stop-color="#00A3E0" offset="62.3521959%"></stop>
            <stop stop-color="#0957C3" offset="100%"></stop>
        </linearGradient>
    </defs>
    <g id="Assessments" stroke="none" stroke-width="1" fill="none" fill-rule="evenodd">
        <g id="6a-Assessments-Details---Survey" transform="translate(-20.000000, -54.000000)" fill="url(#linearGradient-1)">
            <g id="Header/Level-2/Min">
                <g id="Icons/Dashboard" transform="translate(20.000000, 54.000000)">
                    <path d="M18.9864865,8.98648649 L3.88175676,8.98648649 L3.88175676,8.98648649 L8.83023201,4.03801123 C9.22485933,3.64338392 9.22485933,3.00356662 8.83023201,2.6089393 C8.82939039,2.60809769 8.82854729,2.60725756 8.8277027,2.60641892 C8.42987093,2.21138878 7.78747625,2.21252375 7.39104282,2.60895718 L0,10 L0,10 L7.39358108,17.3935811 C7.78820346,17.7882035 8.42801275,17.7882035 8.82263514,17.3935811 C9.21736095,16.9988553 9.21764738,16.3589667 8.82327511,15.9638876 L3.88175676,11.0135135 L3.88175676,11.0135135 L18.9864865,11.0135135 C19.5462345,11.0135135 20,10.5597481 20,10 C20,9.44025194 19.5462345,8.98648649 18.9864865,8.98648649 Z" id="Path-Copy-3"></path>
                </g>
            </g>
        </g>
    </g>
</svg>