<?xml version="1.0" encoding="UTF-8"?>
<svg width="20px" height="20px" viewBox="0 0 20 20" version="1.1" xmlns="http://www.w3.org/2000/svg" xmlns:xlink="http://www.w3.org/1999/xlink">
    <title>1021C23E-B8F7-43E1-A15C-4C8F5D5EC0AA</title>
    <g id="Challenges" stroke="none" stroke-width="1" fill="none" fill-rule="evenodd">
        <g id="3c1f-Challenges---Weekly-Challenge" transform="translate(-20.000000, -54.000000)" fill="#7A8999">
            <g id="Header/Level-2/Min">
                <g id="Icons/Dashboard" transform="translate(20.000000, 54.000000)">
                    <polygon id="Path" points="16.6666667 4.67619048 15.3238095 3.33333333 10 8.65714286 4.67619048 3.33333333 3.33333333 4.67619048 8.65714286 10 3.33333333 15.3238095 4.67619048 16.6666667 10 11.3428571 15.3238095 16.6666667 16.6666667 15.3238095 11.3428571 10"></polygon>
                </g>
            </g>
        </g>
    </g>
</svg>