<?xml version="1.0" encoding="UTF-8"?>
<svg width="32px" height="32px" viewBox="0 0 32 32" version="1.1" xmlns="http://www.w3.org/2000/svg" xmlns:xlink="http://www.w3.org/1999/xlink">
    <title>B32464AA-4649-4572-9BC9-B92568CE16AC</title>
    <defs>
        <linearGradient x1="0%" y1="0%" x2="100%" y2="100%" id="linearGradient-1">
            <stop stop-color="#00A3AD" offset="0%"></stop>
            <stop stop-color="#00A3E0" offset="62.3521959%"></stop>
            <stop stop-color="#0957C3" offset="100%"></stop>
        </linearGradient>
    </defs>
    <g id="Icons" stroke="none" stroke-width="1" fill="none" fill-rule="evenodd">
        <g id="Icons/-Others" transform="translate(-95.000000, -153.000000)" fill="url(#linearGradient-1)">
            <g id="Icon-with-name" transform="translate(95.000000, 153.000000)">
                <g id="Icon">
                    <g id="streamline-icon-face-id@40x40" transform="translate(0.500000, 0.500000)">
                        <path d="M29,22.5576923 C29.6472087,22.5576923 30.1795339,23.049567 30.2435464,23.6798871 L30.25,23.8076923 L30.25,27.2692308 C30.25,28.8561949 29.0086277,30.1542445 27.4443245,30.2449381 L27.2692308,30.25 L23.8076923,30.25 C23.1173364,30.25 22.5576923,29.6903559 22.5576923,29 C22.5576923,28.3527913 23.049567,27.8204661 23.6798871,27.7564536 L23.8076923,27.75 L27.2692308,27.75 C27.5048118,27.75 27.7014492,27.5795383 27.7422379,27.3555198 L27.75,27.2692308 L27.75,23.8076923 C27.75,23.1173364 28.3096441,22.5576923 29,22.5576923 Z M2,22.5576923 C2.64720869,22.5576923 3.1795339,23.049567 3.24354639,23.6798871 L3.25,23.8076923 L3.25,27.2692308 C3.25,27.5048118 3.42046167,27.7014492 3.64448015,27.7422379 L3.73076923,27.75 L7.19230769,27.75 C7.88266363,27.75 8.44230769,28.3096441 8.44230769,29 C8.44230769,29.6472087 7.95043303,30.1795339 7.32011293,30.2435464 L7.19230769,30.25 L3.73076923,30.25 C2.14380513,30.25 0.845755507,29.0086277 0.755061866,27.4443245 L0.75,27.2692308 L0.75,23.8076923 C0.75,23.1173364 1.30964406,22.5576923 2,22.5576923 Z M21.6025577,20.8740634 C22.0757033,21.3767805 22.0517308,22.1678736 21.5490136,22.6410192 C18.1253934,25.86325 12.8746066,25.86325 9.45098643,22.6410192 C8.94826925,22.1678736 8.92429673,21.3767805 9.39744232,20.8740634 C9.87058791,20.3713462 10.661681,20.3473737 11.1643982,20.8205192 C13.6253934,23.13675 17.3746066,23.13675 19.8356018,20.8205192 C20.338319,20.3473737 21.1294121,20.3713462 21.6025577,20.8740634 Z M15.5,8.01923077 C16.1472087,8.01923077 16.6795339,8.51110543 16.7435464,9.14142553 L16.75,9.26923077 L16.75,15.7307692 C16.75,17.4149907 15.332317,18.7332299 13.6088532,18.8221404 L13.4230769,18.8269231 L12.3846154,18.8269231 C11.6942594,18.8269231 11.1346154,18.267279 11.1346154,17.5769231 C11.1346154,16.9297144 11.62649,16.3973892 12.2568101,16.3333767 L12.3846154,16.3269231 L13.4230769,16.3269231 C13.8692684,16.3269231 14.1922873,16.0728464 14.2430252,15.8042137 L14.25,15.7307692 L14.25,9.26923077 C14.25,8.57887483 14.8096441,8.01923077 15.5,8.01923077 Z M9.78846154,8.01923077 C10.4356702,8.01923077 10.9679954,8.51110543 11.0320079,9.14142553 L11.0384615,9.26923077 L11.0384615,12.3846154 C11.0384615,13.0749713 10.4788175,13.6346154 9.78846154,13.6346154 C9.14125285,13.6346154 8.60892764,13.1427407 8.54491515,12.5124206 L8.53846154,12.3846154 L8.53846154,9.26923077 C8.53846154,8.57887483 9.0981056,8.01923077 9.78846154,8.01923077 Z M21.2115385,8.01923077 C21.8587472,8.01923077 22.3910724,8.51110543 22.4550849,9.14142553 L22.4615385,9.26923077 L22.4615385,12.3846154 C22.4615385,13.0749713 21.9018944,13.6346154 21.2115385,13.6346154 C20.5643298,13.6346154 20.0320046,13.1427407 19.9679921,12.5124206 L19.9615385,12.3846154 L19.9615385,9.26923077 C19.9615385,8.57887483 20.5211825,8.01923077 21.2115385,8.01923077 Z M27.2692308,0.75 C28.8561949,0.75 30.1542445,1.99137233 30.2449381,3.5556755 L30.25,3.73076923 L30.25,7.19230769 C30.25,7.88266363 29.6903559,8.44230769 29,8.44230769 C28.3527913,8.44230769 27.8204661,7.95043303 27.7564536,7.32011293 L27.75,7.19230769 L27.75,3.73076923 C27.75,3.49518818 27.5795383,3.29855084 27.3555198,3.25776206 L27.2692308,3.25 L23.8076923,3.25 C23.1173364,3.25 22.5576923,2.69035594 22.5576923,2 C22.5576923,1.35279131 23.049567,0.820466101 23.6798871,0.756453609 L23.8076923,0.75 L27.2692308,0.75 Z M7.19230769,0.75 C7.88266363,0.75 8.44230769,1.30964406 8.44230769,2 C8.44230769,2.64720869 7.95043303,3.1795339 7.32011293,3.24354639 L7.19230769,3.25 L3.73076923,3.25 C3.49518818,3.25 3.29855084,3.42046167 3.25776206,3.64448015 L3.25,3.73076923 L3.25,7.19230769 C3.25,7.88266363 2.69035594,8.44230769 2,8.44230769 C1.35279131,8.44230769 0.820466101,7.95043303 0.756453609,7.32011293 L0.75,7.19230769 L0.75,3.73076923 C0.75,2.14380513 1.99137233,0.845755507 3.5556755,0.755061866 L3.73076923,0.75 L7.19230769,0.75 Z" id="Combined-Shape"></path>
                    </g>
                </g>
            </g>
        </g>
    </g>
</svg>