<?xml version="1.0" encoding="UTF-8"?>
<svg width="30px" height="31px" viewBox="0 0 30 31" version="1.1" xmlns="http://www.w3.org/2000/svg" xmlns:xlink="http://www.w3.org/1999/xlink">
    <title>3D31D49C-02FF-43A5-94AE-99D37BC7F643</title>
    <defs>
        <linearGradient x1="0%" y1="0.625405049%" x2="100%" y2="99.374595%" id="linearGradient-1">
            <stop stop-color="#00A3AD" offset="0%"></stop>
            <stop stop-color="#00A3E0" offset="62.3521959%"></stop>
            <stop stop-color="#0957C3" offset="100%"></stop>
        </linearGradient>
    </defs>
    <g id="Challenges" stroke="none" stroke-width="1" fill="none" fill-rule="evenodd">
        <g id="3c1h-Challenges---Weekly-Challenge" transform="translate(-20.000000, -268.000000)" fill="url(#linearGradient-1)">
            <g id="Group-29" transform="translate(20.000000, 265.000000)">
                <g id="Group-26" transform="translate(0.000000, 0.500000)">
                    <g id="Icons/Nutrition" transform="translate(0.000000, 3.000000)">
                        <path d="M16.1928193,22.3605687 C16.5290982,20.9074259 17.95414,19.9612659 19.4334935,20.2335463 L19.4334935,20.2335463 L24.9823312,21.2328891 C26.5104694,21.5115826 27.525747,22.9743686 27.2508056,24.5024438 L27.2508056,24.5024438 L27.0784177,25.4596872 C26.4538855,28.3561984 23.6921779,30.2734056 20.759352,29.8465132 C17.6802935,29.3972342 15.5478393,26.5382175 16.0000252,23.4317452 L16.0000252,23.4317452 L16.1609175,22.5173018 Z M10.2884609,18.4460823 C11.8205747,18.2007193 13.2612268,19.2451486 13.5066111,20.7773956 L13.5066111,20.7773956 L13.6531727,21.7180946 C14.1354379,24.7914119 12.0342956,27.6744608 8.96090592,28.1567373 C5.95459382,28.6284881 3.11899699,26.6261746 2.55063208,23.6289252 L2.55063208,23.6289252 L2.52215064,23.4637514 L2.37787342,22.5395842 C2.13251044,21.0074703 3.17693971,19.5668183 4.74111991,19.3168825 L4.74111991,19.3168825 L4.73366013,19.3177671 Z M19.0979726,22.076325 C18.5896897,21.9827759 18.1013986,22.319635 18.0084645,22.827342 L18.0084645,22.827342 L17.8491908,23.7287847 C17.5570507,25.7376144 18.9101138,27.6062456 20.8903143,27.9700894 L20.8903143,27.9700894 L21.0294726,27.9930151 C22.9871383,28.2779665 24.8305584,26.9982443 25.2411096,25.0968386 L25.2411096,25.0968386 L25.4072597,24.1711459 C25.4993102,23.6595451 25.1588782,23.1690594 24.6483028,23.0759411 L24.6483028,23.0759411 Z M10.6910615,20.2849389 L10.5817701,20.2960502 L5.00537977,21.1709446 C4.49401957,21.2528373 4.1456954,21.7333044 4.22795822,22.2470217 L4.22795822,22.2470217 L4.37027519,23.1594285 L4.39356162,23.2945472 C4.77096586,25.2843506 6.6640944,26.6211545 8.67053571,26.3063035 C10.7219936,25.9843886 12.1246316,24.0597812 11.8026263,22.0077457 L11.8026263,22.0077457 L11.6571004,21.0735887 C11.5752077,20.5622285 11.0947406,20.2139043 10.5817701,20.2960502 Z M16.9858787,7.38100832 C17.6280845,3.80882983 21.0444552,1.43367307 24.6166389,2.07587977 L24.6166389,2.07587977 L24.7920312,2.10954402 L25.000242,2.15673147 C28.4419977,3.09828922 30.5672367,6.54563472 29.8667307,10.0255808 L29.8667307,10.0255808 L28.5897176,17.1059327 C28.3182039,18.6338998 26.8593978,19.6518197 25.3320548,19.3800838 L25.3320548,19.3800838 L19.777797,18.380089 C18.2497425,18.1104323 17.229974,16.6520474 17.4998581,15.1245779 L17.4998581,15.1245779 L17.5354242,14.9264071 C17.6867868,14.0876459 17.6038838,13.2236399 17.2979159,12.4286126 L17.2979159,12.4286126 L17.1313167,12.0231681 C16.6923342,10.8999718 16.57173,9.67519208 16.7862136,8.48665243 L16.7862136,8.48665243 Z M24.2852107,3.91940233 C21.7311744,3.46023804 19.2885639,5.15840938 18.8292715,7.71315702 L18.8292715,7.71315702 L18.629497,8.8194081 C18.4664659,9.7228289 18.5752346,10.656628 18.9415679,11.5006518 L18.9415679,11.5006518 L19.033611,11.7238973 C19.4726213,12.8470237 19.5931999,14.0705742 19.3791088,15.2569258 L19.3791088,15.2569258 L19.3430419,15.457354 L19.3329073,15.5399831 C19.2974056,15.9855692 19.5848339,16.3964094 20.0180238,16.5161089 L20.0180238,16.5161089 L20.1065528,16.536091 L25.6347099,17.5314753 L25.7496385,17.5475342 C26.1951398,17.5836016 26.605805,17.2969288 26.7258889,16.8642736 L26.7258889,16.8642736 L26.7459555,16.7758485 L28.0555917,9.5195502 C28.4735178,7.04026271 26.9475615,4.63135017 24.5367064,3.97126985 C24.4508775,3.95088549 24.3691255,3.93392765 24.2914189,3.92049687 L24.2914189,3.92049687 Z M5.52769249,0.174343658 C9.11410243,-0.387716529 12.4764991,2.06294297 13.0401566,5.65025391 L13.0401566,5.65025391 L13.2136478,6.76109782 C13.4133714,8.03524675 13.2311568,9.34124355 12.690704,10.5110093 L12.690704,10.5110093 L12.6121114,10.6914732 C12.2885226,11.4794224 12.1860399,12.3425057 12.3193383,13.1998158 L12.3193383,13.1998158 L12.3607892,13.5081387 C12.5191514,14.991743 11.4835423,16.3510342 9.99615294,16.5798591 L9.99615294,16.5798591 L4.42714325,17.4541144 C2.8912761,17.6935675 1.4524353,16.6439308 1.21097612,15.1071984 L1.21097612,15.1071984 L0.105340513,8.01759544 C-0.519020448,4.50031374 1.69015455,1.10171857 5.19245822,0.236331714 C5.22703263,0.229147422 5.26190921,0.222176217 5.29734515,0.215357592 L5.29734515,0.215357592 Z M11.1896472,5.94014098 C10.7866404,3.37526773 8.38233466,1.62290621 5.81770035,2.02483428 L5.81770035,2.02483428 L5.60781377,2.06243785 C3.09691061,2.68334624 1.49756302,5.14378282 1.95281329,7.7095702 L1.95281329,7.7095702 L3.06151349,14.8174909 C3.14238842,15.3322065 3.6240924,15.6836104 4.13762824,15.6035468 L4.13762824,15.6035468 L9.70850097,14.729003 C10.2204662,14.6502391 10.5710159,14.172743 10.4872394,13.6227663 L10.4872394,13.6227663 L10.4337248,13.2344939 C10.2924424,12.0379445 10.4840046,10.8242822 10.9899327,9.72628255 L10.9899327,9.72628255 L11.0686574,9.54596524 C11.3927862,8.75853764 11.4954192,7.89487926 11.3630853,7.05064638 L11.3630853,7.05064638 Z" id="Combined-Shape"></path>
                    </g>
                </g>
            </g>
        </g>
    </g>
</svg>