{
  "type": "File",
  "start": 0,
  "end": 155,
  "loc": {
    "start": {
      "line": 1,
      "column": 0
    },
    "end": {
      "line": 13,
      "column": 0
    }
  },
  "program": {
    "type": "Program",
    "start": 0,
    "end": 155,
    "loc": {
      "start": {
        "line": 1,
        "column": 0
      },
      "end": {
        "line": 13,
        "column": 0
      }
    },
    "sourceType": "module",
    "body": [
      {
        "type": "ImportDeclaration",
        "start": 36,
        "end": 74,
        "loc": {
          "start": {
            "line": 9,
            "column": 0
          },
          "end": {
            "line": 9,
            "column": 38
          }
        },
        "specifiers": [
          {
            "type": "ImportSpecifier",
            "start": 44,
            "end": 57,
            "loc": {
              "start": {
                "line": 9,
                "column": 8
              },
              "end": {
                "line": 9,
                "column": 21
              }
            },
            "imported": {
              "type": "Identifier",
              "start": 44,
              "end": 57,
              "loc": {
                "start": {
                  "line": 9,
                  "column": 8
                },
                "end": {
                  "line": 9,
                  "column": 21
                },
                "identifierName": "COLOR_AIA_RED"
              },
              "name": "COLOR_AIA_RED",
              "leadingComments": null
            },
            "importKind": null,
            "local": {
              "type": "Identifier",
              "start": 44,
              "end": 57,
              "loc": {
                "start": {
                  "line": 9,
                  "column": 8
                },
                "end": {
                  "line": 9,
                  "column": 21
                },
                "identifierName": "COLOR_AIA_RED"
              },
              "name": "COLOR_AIA_RED"
            },
            "leadingComments": null
          }
        ],
        "importKind": "value",
        "source": {
          "type": "StringLiteral",
          "start": 64,
          "end": 73,
          "loc": {
            "start": {
              "line": 9,
              "column": 28
            },
            "end": {
              "line": 9,
              "column": 37
            }
          },
          "extra": {
            "rawValue": "@colors",
            "raw": "'@colors'"
          },
          "value": "@colors"
        },
        "leadingComments": [
          {
            "type": "CommentBlock",
            "value": "*\n *\n * @format\n *\n ",
            "start": 0,
            "end": 24,
            "loc": {
              "start": {
                "line": 1,
                "column": 0
              },
              "end": {
                "line": 5,
                "column": 3
              }
            }
          },
          {
            "type": "CommentLine",
            "value": " @flow",
            "start": 26,
            "end": 34,
            "loc": {
              "start": {
                "line": 7,
                "column": 0
              },
              "end": {
                "line": 7,
                "column": 8
              }
            }
          }
        ]
      },
      {
        "type": "ExportNamedDeclaration",
        "start": 76,
        "end": 118,
        "loc": {
          "start": {
            "line": 11,
            "column": 0
          },
          "end": {
            "line": 11,
            "column": 42
          }
        },
        "specifiers": [],
        "source": null,
        "declaration": {
          "type": "VariableDeclaration",
          "start": 83,
          "end": 118,
          "loc": {
            "start": {
              "line": 11,
              "column": 7
            },
            "end": {
              "line": 11,
              "column": 42
            }
          },
          "declarations": [
            {
              "type": "VariableDeclarator",
              "start": 89,
              "end": 117,
              "loc": {
                "start": {
                  "line": 11,
                  "column": 13
                },
                "end": {
                  "line": 11,
                  "column": 41
                }
              },
              "id": {
                "type": "Identifier",
                "start": 89,
                "end": 101,
                "loc": {
                  "start": {
                    "line": 11,
                    "column": 13
                  },
                  "end": {
                    "line": 11,
                    "column": 25
                  },
                  "identifierName": "defaultColor"
                },
                "name": "defaultColor"
              },
              "init": {
                "type": "Identifier",
                "start": 104,
                "end": 117,
                "loc": {
                  "start": {
                    "line": 11,
                    "column": 28
                  },
                  "end": {
                    "line": 11,
                    "column": 41
                  },
                  "identifierName": "COLOR_AIA_RED"
                },
                "name": "COLOR_AIA_RED"
              }
            }
          ],
          "kind": "const",
          "leadingComments": [],
          "trailingComments": []
        },
        "exportKind": "value"
      },
      {
        "type": "ExportNamedDeclaration",
        "start": 119,
        "end": 154,
        "loc": {
          "start": {
            "line": 12,
            "column": 0
          },
          "end": {
            "line": 12,
            "column": 35
          }
        },
        "specifiers": [],
        "source": null,
        "declaration": {
          "type": "VariableDeclaration",
          "start": 126,
          "end": 154,
          "loc": {
            "start": {
              "line": 12,
              "column": 7
            },
            "end": {
              "line": 12,
              "column": 35
            }
          },
          "declarations": [
            {
              "type": "VariableDeclarator",
              "start": 132,
              "end": 153,
              "loc": {
                "start": {
                  "line": 12,
                  "column": 13
                },
                "end": {
                  "line": 12,
                  "column": 34
                }
              },
              "id": {
                "type": "Identifier",
                "start": 132,
                "end": 143,
                "loc": {
                  "start": {
                    "line": 12,
                    "column": 13
                  },
                  "end": {
                    "line": 12,
                    "column": 24
                  },
                  "identifierName": "defaultSize"
                },
                "name": "defaultSize"
              },
              "init": {
                "type": "StringLiteral",
                "start": 146,
                "end": 153,
                "loc": {
                  "start": {
                    "line": 12,
                    "column": 27
                  },
                  "end": {
                    "line": 12,
                    "column": 34
                  }
                },
                "extra": {
                  "rawValue": "large",
                  "raw": "'large'"
                },
                "value": "large"
              }
            }
          ],
          "kind": "const",
          "leadingComments": [],
          "trailingComments": []
        },
        "exportKind": "value"
      }
    ],
    "directives": []
  },
  "comments": [
    {
      "type": "CommentBlock",
      "value": "*\n *\n * @format\n *\n ",
      "start": 0,
      "end": 24,
      "loc": {
        "start": {
          "line": 1,
          "column": 0
        },
        "end": {
          "line": 5,
          "column": 3
        }
      }
    },
    {
      "type": "CommentLine",
      "value": " @flow",
      "start": 26,
      "end": 34,
      "loc": {
        "start": {
          "line": 7,
          "column": 0
        },
        "end": {
          "line": 7,
          "column": 8
        }
      }
    }
  ],
  "tokens": [
    {
      "type": "CommentBlock",
      "value": "*\n *\n * @format\n *\n ",
      "start": 0,
      "end": 24,
      "loc": {
        "start": {
          "line": 1,
          "column": 0
        },
        "end": {
          "line": 5,
          "column": 3
        }
      }
    },
    {
      "type": "CommentLine",
      "value": " @flow",
      "start": 26,
      "end": 34,
      "loc": {
        "start": {
          "line": 7,
          "column": 0
        },
        "end": {
          "line": 7,
          "column": 8
        }
      }
    },
    {
      "type": {
        "label": "import",
        "keyword": "import",
        "beforeExpr": false,
        "startsExpr": true,
        "rightAssociative": false,
        "isLoop": false,
        "isAssign": false,
        "prefix": false,
        "postfix": false,
        "binop": null,
        "updateContext": null
      },
      "value": "import",
      "start": 36,
      "end": 42,
      "loc": {
        "start": {
          "line": 9,
          "column": 0
        },
        "end": {
          "line": 9,
          "column": 6
        }
      }
    },
    {
      "type": {
        "label": "{",
        "beforeExpr": true,
        "startsExpr": true,
        "rightAssociative": false,
        "isLoop": false,
        "isAssign": false,
        "prefix": false,
        "postfix": false,
        "binop": null
      },
      "start": 43,
      "end": 44,
      "loc": {
        "start": {
          "line": 9,
          "column": 7
        },
        "end": {
          "line": 9,
          "column": 8
        }
      }
    },
    {
      "type": {
        "label": "name",
        "beforeExpr": false,
        "startsExpr": true,
        "rightAssociative": false,
        "isLoop": false,
        "isAssign": false,
        "prefix": false,
        "postfix": false,
        "binop": null
      },
      "value": "COLOR_AIA_RED",
      "start": 44,
      "end": 57,
      "loc": {
        "start": {
          "line": 9,
          "column": 8
        },
        "end": {
          "line": 9,
          "column": 21
        }
      }
    },
    {
      "type": {
        "label": "}",
        "beforeExpr": false,
        "startsExpr": false,
        "rightAssociative": false,
        "isLoop": false,
        "isAssign": false,
        "prefix": false,
        "postfix": false,
        "binop": null
      },
      "start": 57,
      "end": 58,
      "loc": {
        "start": {
          "line": 9,
          "column": 21
        },
        "end": {
          "line": 9,
          "column": 22
        }
      }
    },
    {
      "type": {
        "label": "name",
        "beforeExpr": false,
        "startsExpr": true,
        "rightAssociative": false,
        "isLoop": false,
        "isAssign": false,
        "prefix": false,
        "postfix": false,
        "binop": null
      },
      "value": "from",
      "start": 59,
      "end": 63,
      "loc": {
        "start": {
          "line": 9,
          "column": 23
        },
        "end": {
          "line": 9,
          "column": 27
        }
      }
    },
    {
      "type": {
        "label": "string",
        "beforeExpr": false,
        "startsExpr": true,
        "rightAssociative": false,
        "isLoop": false,
        "isAssign": false,
        "prefix": false,
        "postfix": false,
        "binop": null,
        "updateContext": null
      },
      "value": "@colors",
      "start": 64,
      "end": 73,
      "loc": {
        "start": {
          "line": 9,
          "column": 28
        },
        "end": {
          "line": 9,
          "column": 37
        }
      }
    },
    {
      "type": {
        "label": ";",
        "beforeExpr": true,
        "startsExpr": false,
        "rightAssociative": false,
        "isLoop": false,
        "isAssign": false,
        "prefix": false,
        "postfix": false,
        "binop": null,
        "updateContext": null
      },
      "start": 73,
      "end": 74,
      "loc": {
        "start": {
          "line": 9,
          "column": 37
        },
        "end": {
          "line": 9,
          "column": 38
        }
      }
    },
    {
      "type": {
        "label": "export",
        "keyword": "export",
        "beforeExpr": false,
        "startsExpr": false,
        "rightAssociative": false,
        "isLoop": false,
        "isAssign": false,
        "prefix": false,
        "postfix": false,
        "binop": null,
        "updateContext": null
      },
      "value": "export",
      "start": 76,
      "end": 82,
      "loc": {
        "start": {
          "line": 11,
          "column": 0
        },
        "end": {
          "line": 11,
          "column": 6
        }
      }
    },
    {
      "type": {
        "label": "const",
        "keyword": "const",
        "beforeExpr": false,
        "startsExpr": false,
        "rightAssociative": false,
        "isLoop": false,
        "isAssign": false,
        "prefix": false,
        "postfix": false,
        "binop": null,
        "updateContext": null
      },
      "value": "const",
      "start": 83,
      "end": 88,
      "loc": {
        "start": {
          "line": 11,
          "column": 7
        },
        "end": {
          "line": 11,
          "column": 12
        }
      }
    },
    {
      "type": {
        "label": "name",
        "beforeExpr": false,
        "startsExpr": true,
        "rightAssociative": false,
        "isLoop": false,
        "isAssign": false,
        "prefix": false,
        "postfix": false,
        "binop": null
      },
      "value": "defaultColor",
      "start": 89,
      "end": 101,
      "loc": {
        "start": {
          "line": 11,
          "column": 13
        },
        "end": {
          "line": 11,
          "column": 25
        }
      }
    },
    {
      "type": {
        "label": "=",
        "beforeExpr": true,
        "startsExpr": false,
        "rightAssociative": false,
        "isLoop": false,
        "isAssign": true,
        "prefix": false,
        "postfix": false,
        "binop": null,
        "updateContext": null
      },
      "value": "=",
      "start": 102,
      "end": 103,
      "loc": {
        "start": {
          "line": 11,
          "column": 26
        },
        "end": {
          "line": 11,
          "column": 27
        }
      }
    },
    {
      "type": {
        "label": "name",
        "beforeExpr": false,
        "startsExpr": true,
        "rightAssociative": false,
        "isLoop": false,
        "isAssign": false,
        "prefix": false,
        "postfix": false,
        "binop": null
      },
      "value": "COLOR_AIA_RED",
      "start": 104,
      "end": 117,
      "loc": {
        "start": {
          "line": 11,
          "column": 28
        },
        "end": {
          "line": 11,
          "column": 41
        }
      }
    },
    {
      "type": {
        "label": ";",
        "beforeExpr": true,
        "startsExpr": false,
        "rightAssociative": false,
        "isLoop": false,
        "isAssign": false,
        "prefix": false,
        "postfix": false,
        "binop": null,
        "updateContext": null
      },
      "start": 117,
      "end": 118,
      "loc": {
        "start": {
          "line": 11,
          "column": 41
        },
        "end": {
          "line": 11,
          "column": 42
        }
      }
    },
    {
      "type": {
        "label": "export",
        "keyword": "export",
        "beforeExpr": false,
        "startsExpr": false,
        "rightAssociative": false,
        "isLoop": false,
        "isAssign": false,
        "prefix": false,
        "postfix": false,
        "binop": null,
        "updateContext": null
      },
      "value": "export",
      "start": 119,
      "end": 125,
      "loc": {
        "start": {
          "line": 12,
          "column": 0
        },
        "end": {
          "line": 12,
          "column": 6
        }
      }
    },
    {
      "type": {
        "label": "const",
        "keyword": "const",
        "beforeExpr": false,
        "startsExpr": false,
        "rightAssociative": false,
        "isLoop": false,
        "isAssign": false,
        "prefix": false,
        "postfix": false,
        "binop": null,
        "updateContext": null
      },
      "value": "const",
      "start": 126,
      "end": 131,
      "loc": {
        "start": {
          "line": 12,
          "column": 7
        },
        "end": {
          "line": 12,
          "column": 12
        }
      }
    },
    {
      "type": {
        "label": "name",
        "beforeExpr": false,
        "startsExpr": true,
        "rightAssociative": false,
        "isLoop": false,
        "isAssign": false,
        "prefix": false,
        "postfix": false,
        "binop": null
      },
      "value": "defaultSize",
      "start": 132,
      "end": 143,
      "loc": {
        "start": {
          "line": 12,
          "column": 13
        },
        "end": {
          "line": 12,
          "column": 24
        }
      }
    },
    {
      "type": {
        "label": "=",
        "beforeExpr": true,
        "startsExpr": false,
        "rightAssociative": false,
        "isLoop": false,
        "isAssign": true,
        "prefix": false,
        "postfix": false,
        "binop": null,
        "updateContext": null
      },
      "value": "=",
      "start": 144,
      "end": 145,
      "loc": {
        "start": {
          "line": 12,
          "column": 25
        },
        "end": {
          "line": 12,
          "column": 26
        }
      }
    },
    {
      "type": {
        "label": "string",
        "beforeExpr": false,
        "startsExpr": true,
        "rightAssociative": false,
        "isLoop": false,
        "isAssign": false,
        "prefix": false,
        "postfix": false,
        "binop": null,
        "updateContext": null
      },
      "value": "large",
      "start": 146,
      "end": 153,
      "loc": {
        "start": {
          "line": 12,
          "column": 27
        },
        "end": {
          "line": 12,
          "column": 34
        }
      }
    },
    {
      "type": {
        "label": ";",
        "beforeExpr": true,
        "startsExpr": false,
        "rightAssociative": false,
        "isLoop": false,
        "isAssign": false,
        "prefix": false,
        "postfix": false,
        "binop": null,
        "updateContext": null
      },
      "start": 153,
      "end": 154,
      "loc": {
        "start": {
          "line": 12,
          "column": 34
        },
        "end": {
          "line": 12,
          "column": 35
        }
      }
    },
    {
      "type": {
        "label": "eof",
        "beforeExpr": false,
        "startsExpr": false,
        "rightAssociative": false,
        "isLoop": false,
        "isAssign": false,
        "prefix": false,
        "postfix": false,
        "binop": null,
        "updateContext": null
      },
      "start": 155,
      "end": 155,
      "loc": {
        "start": {
          "line": 13,
          "column": 0
        },
        "end": {
          "line": 13,
          "column": 0
        }
      }
    }
  ]
}
