{
  "type": "File",
  "start": 0,
  "end": 249,
  "loc": {
    "start": {
      "line": 1,
      "column": 0
    },
    "end": {
      "line": 19,
      "column": 0
    }
  },
  "program": {
    "type": "Program",
    "start": 0,
    "end": 249,
    "loc": {
      "start": {
        "line": 1,
        "column": 0
      },
      "end": {
        "line": 19,
        "column": 0
      }
    },
    "sourceType": "module",
    "body": [
      {
        "type": "ImportDeclaration",
        "start": 36,
        "end": 76,
        "loc": {
          "start": {
            "line": 9,
            "column": 0
          },
          "end": {
            "line": 9,
            "column": 40
          }
        },
        "specifiers": [
          {
            "type": "ImportSpecifier",
            "start": 44,
            "end": 54,
            "loc": {
              "start": {
                "line": 9,
                "column": 8
              },
              "end": {
                "line": 9,
                "column": 18
              }
            },
            "imported": {
              "type": "Identifier",
              "start": 44,
              "end": 54,
              "loc": {
                "start": {
                  "line": 9,
                  "column": 8
                },
                "end": {
                  "line": 9,
                  "column": 18
                },
                "identifierName": "StyleSheet"
              },
              "name": "StyleSheet",
              "leadingComments": null
            },
            "importKind": null,
            "local": {
              "type": "Identifier",
              "start": 44,
              "end": 54,
              "loc": {
                "start": {
                  "line": 9,
                  "column": 8
                },
                "end": {
                  "line": 9,
                  "column": 18
                },
                "identifierName": "StyleSheet"
              },
              "name": "StyleSheet"
            },
            "leadingComments": null
          }
        ],
        "importKind": "value",
        "source": {
          "type": "StringLiteral",
          "start": 61,
          "end": 75,
          "loc": {
            "start": {
              "line": 9,
              "column": 25
            },
            "end": {
              "line": 9,
              "column": 39
            }
          },
          "extra": {
            "rawValue": "react-native",
            "raw": "'react-native'"
          },
          "value": "react-native"
        },
        "leadingComments": [
          {
            "type": "CommentBlock",
            "value": "*\n *\n * @format\n *\n ",
            "start": 0,
            "end": 24,
            "loc": {
              "start": {
                "line": 1,
                "column": 0
              },
              "end": {
                "line": 5,
                "column": 3
              }
            }
          },
          {
            "type": "CommentLine",
            "value": " @flow",
            "start": 26,
            "end": 34,
            "loc": {
              "start": {
                "line": 7,
                "column": 0
              },
              "end": {
                "line": 7,
                "column": 8
              }
            }
          }
        ]
      },
      {
        "type": "ImportDeclaration",
        "start": 77,
        "end": 134,
        "loc": {
          "start": {
            "line": 10,
            "column": 0
          },
          "end": {
            "line": 10,
            "column": 57
          }
        },
        "specifiers": [
          {
            "type": "ImportSpecifier",
            "start": 85,
            "end": 92,
            "loc": {
              "start": {
                "line": 10,
                "column": 8
              },
              "end": {
                "line": 10,
                "column": 15
              }
            },
            "imported": {
              "type": "Identifier",
              "start": 85,
              "end": 92,
              "loc": {
                "start": {
                  "line": 10,
                  "column": 8
                },
                "end": {
                  "line": 10,
                  "column": 15
                },
                "identifierName": "RFValue"
              },
              "name": "RFValue"
            },
            "importKind": null,
            "local": {
              "type": "Identifier",
              "start": 85,
              "end": 92,
              "loc": {
                "start": {
                  "line": 10,
                  "column": 8
                },
                "end": {
                  "line": 10,
                  "column": 15
                },
                "identifierName": "RFValue"
              },
              "name": "RFValue"
            }
          }
        ],
        "importKind": "value",
        "source": {
          "type": "StringLiteral",
          "start": 99,
          "end": 133,
          "loc": {
            "start": {
              "line": 10,
              "column": 22
            },
            "end": {
              "line": 10,
              "column": 56
            }
          },
          "extra": {
            "rawValue": "react-native-responsive-fontsize",
            "raw": "'react-native-responsive-fontsize'"
          },
          "value": "react-native-responsive-fontsize"
        }
      },
      {
        "type": "Identifier",
        "start": 136,
        "end": 220,
        "loc": {
          "start": {
            "line": 12,
            "column": 0
          },
          "end": {
            "line": 16,
            "column": 3
          }
        },
        "declarations": [
          {
            "type": "VariableDeclarator",
            "start": 142,
            "end": 219,
            "loc": {
              "start": {
                "line": 12,
                "column": 6
              },
              "end": {
                "line": 16,
                "column": 2
              }
            },
            "id": {
              "type": "Identifier",
              "start": 142,
              "end": 152,
              "loc": {
                "start": {
                  "line": 12,
                  "column": 6
                },
                "end": {
                  "line": 12,
                  "column": 16
                },
                "identifierName": "TextStyles"
              },
              "name": "TextStyles"
            },
            "init": {
              "type": "CallExpression",
              "start": 155,
              "end": 219,
              "loc": {
                "start": {
                  "line": 12,
                  "column": 19
                },
                "end": {
                  "line": 16,
                  "column": 2
                }
              },
              "callee": {
                "type": "MemberExpression",
                "start": 155,
                "end": 172,
                "loc": {
                  "start": {
                    "line": 12,
                    "column": 19
                  },
                  "end": {
                    "line": 12,
                    "column": 36
                  }
                },
                "object": {
                  "type": "Identifier",
                  "start": 155,
                  "end": 165,
                  "loc": {
                    "start": {
                      "line": 12,
                      "column": 19
                    },
                    "end": {
                      "line": 12,
                      "column": 29
                    },
                    "identifierName": "StyleSheet"
                  },
                  "name": "StyleSheet"
                },
                "property": {
                  "type": "Identifier",
                  "start": 166,
                  "end": 172,
                  "loc": {
                    "start": {
                      "line": 12,
                      "column": 30
                    },
                    "end": {
                      "line": 12,
                      "column": 36
                    },
                    "identifierName": "create"
                  },
                  "name": "create"
                },
                "computed": false
              },
              "arguments": [
                {
                  "type": "ObjectExpression",
                  "start": 173,
                  "end": 218,
                  "loc": {
                    "start": {
                      "line": 12,
                      "column": 37
                    },
                    "end": {
                      "line": 16,
                      "column": 1
                    }
                  },
                  "properties": [
                    {
                      "type": "ObjectProperty",
                      "start": 177,
                      "end": 215,
                      "loc": {
                        "start": {
                          "line": 13,
                          "column": 2
                        },
                        "end": {
                          "line": 15,
                          "column": 3
                        }
                      },
                      "method": false,
                      "shorthand": false,
                      "computed": false,
                      "key": {
                        "type": "Identifier",
                        "start": 177,
                        "end": 181,
                        "loc": {
                          "start": {
                            "line": 13,
                            "column": 2
                          },
                          "end": {
                            "line": 13,
                            "column": 6
                          },
                          "identifierName": "text"
                        },
                        "name": "text"
                      },
                      "value": {
                        "type": "ObjectExpression",
                        "start": 183,
                        "end": 215,
                        "loc": {
                          "start": {
                            "line": 13,
                            "column": 8
                          },
                          "end": {
                            "line": 15,
                            "column": 3
                          }
                        },
                        "properties": [
                          {
                            "type": "ObjectProperty",
                            "start": 189,
                            "end": 210,
                            "loc": {
                              "start": {
                                "line": 14,
                                "column": 4
                              },
                              "end": {
                                "line": 14,
                                "column": 25
                              }
                            },
                            "method": false,
                            "shorthand": false,
                            "computed": false,
                            "key": {
                              "type": "Identifier",
                              "start": 189,
                              "end": 197,
                              "loc": {
                                "start": {
                                  "line": 14,
                                  "column": 4
                                },
                                "end": {
                                  "line": 14,
                                  "column": 12
                                },
                                "identifierName": "fontSize"
                              },
                              "name": "fontSize"
                            },
                            "value": {
                              "type": "CallExpression",
                              "start": 199,
                              "end": 210,
                              "loc": {
                                "start": {
                                  "line": 14,
                                  "column": 14
                                },
                                "end": {
                                  "line": 14,
                                  "column": 25
                                }
                              },
                              "callee": {
                                "type": "Identifier",
                                "start": 199,
                                "end": 206,
                                "loc": {
                                  "start": {
                                    "line": 14,
                                    "column": 14
                                  },
                                  "end": {
                                    "line": 14,
                                    "column": 21
                                  },
                                  "identifierName": "RFValue"
                                },
                                "name": "RFValue"
                              },
                              "arguments": [
                                {
                                  "type": "NumericLiteral",
                                  "start": 207,
                                  "end": 209,
                                  "loc": {
                                    "start": {
                                      "line": 14,
                                      "column": 22
                                    },
                                    "end": {
                                      "line": 14,
                                      "column": 24
                                    }
                                  },
                                  "extra": {
                                    "rawValue": 16,
                                    "raw": "16"
                                  },
                                  "value": 16
                                }
                              ]
                            }
                          }
                        ]
                      }
                    }
                  ]
                }
              ]
            }
          }
        ],
        "kind": "const",
        "name": "_",
        "leadingComments": [],
        "trailingComments": []
      },
      {
        "type": "Identifier",
        "start": 222,
        "end": 248,
        "loc": {
          "start": {
            "line": 18,
            "column": 0
          },
          "end": {
            "line": 18,
            "column": 26
          }
        },
        "declaration": {
          "type": "Identifier",
          "start": 237,
          "end": 247,
          "loc": {
            "start": {
              "line": 18,
              "column": 15
            },
            "end": {
              "line": 18,
              "column": 25
            },
            "identifierName": "TextStyles"
          },
          "name": "TextStyles"
        },
        "name": "_",
        "leadingComments": [],
        "trailingComments": []
      },
      {
        "type": "ExportDefaultDeclaration",
        "start": 222,
        "end": 248,
        "loc": {
          "start": {
            "line": 18,
            "column": 0
          },
          "end": {
            "line": 18,
            "column": 26
          }
        },
        "declaration": {
          "type": "VariableDeclaration",
          "start": 136,
          "end": 220,
          "loc": {
            "start": {
              "line": 12,
              "column": 0
            },
            "end": {
              "line": 16,
              "column": 3
            }
          },
          "declarations": [
            {
              "type": "VariableDeclarator",
              "start": 142,
              "end": 219,
              "loc": {
                "start": {
                  "line": 12,
                  "column": 6
                },
                "end": {
                  "line": 16,
                  "column": 2
                }
              },
              "id": {
                "type": "Identifier",
                "start": 142,
                "end": 152,
                "loc": {
                  "start": {
                    "line": 12,
                    "column": 6
                  },
                  "end": {
                    "line": 12,
                    "column": 16
                  },
                  "identifierName": "TextStyles"
                },
                "name": "TextStyles"
              },
              "init": {
                "type": "CallExpression",
                "start": 155,
                "end": 219,
                "loc": {
                  "start": {
                    "line": 12,
                    "column": 19
                  },
                  "end": {
                    "line": 16,
                    "column": 2
                  }
                },
                "callee": {
                  "type": "MemberExpression",
                  "start": 155,
                  "end": 172,
                  "loc": {
                    "start": {
                      "line": 12,
                      "column": 19
                    },
                    "end": {
                      "line": 12,
                      "column": 36
                    }
                  },
                  "object": {
                    "type": "Identifier",
                    "start": 155,
                    "end": 165,
                    "loc": {
                      "start": {
                        "line": 12,
                        "column": 19
                      },
                      "end": {
                        "line": 12,
                        "column": 29
                      },
                      "identifierName": "StyleSheet"
                    },
                    "name": "StyleSheet"
                  },
                  "property": {
                    "type": "Identifier",
                    "start": 166,
                    "end": 172,
                    "loc": {
                      "start": {
                        "line": 12,
                        "column": 30
                      },
                      "end": {
                        "line": 12,
                        "column": 36
                      },
                      "identifierName": "create"
                    },
                    "name": "create"
                  },
                  "computed": false
                },
                "arguments": [
                  {
                    "type": "ObjectExpression",
                    "start": 173,
                    "end": 218,
                    "loc": {
                      "start": {
                        "line": 12,
                        "column": 37
                      },
                      "end": {
                        "line": 16,
                        "column": 1
                      }
                    },
                    "properties": [
                      {
                        "type": "ObjectProperty",
                        "start": 177,
                        "end": 215,
                        "loc": {
                          "start": {
                            "line": 13,
                            "column": 2
                          },
                          "end": {
                            "line": 15,
                            "column": 3
                          }
                        },
                        "method": false,
                        "shorthand": false,
                        "computed": false,
                        "key": {
                          "type": "Identifier",
                          "start": 177,
                          "end": 181,
                          "loc": {
                            "start": {
                              "line": 13,
                              "column": 2
                            },
                            "end": {
                              "line": 13,
                              "column": 6
                            },
                            "identifierName": "text"
                          },
                          "name": "text"
                        },
                        "value": {
                          "type": "ObjectExpression",
                          "start": 183,
                          "end": 215,
                          "loc": {
                            "start": {
                              "line": 13,
                              "column": 8
                            },
                            "end": {
                              "line": 15,
                              "column": 3
                            }
                          },
                          "properties": [
                            {
                              "type": "ObjectProperty",
                              "start": 189,
                              "end": 210,
                              "loc": {
                                "start": {
                                  "line": 14,
                                  "column": 4
                                },
                                "end": {
                                  "line": 14,
                                  "column": 25
                                }
                              },
                              "method": false,
                              "shorthand": false,
                              "computed": false,
                              "key": {
                                "type": "Identifier",
                                "start": 189,
                                "end": 197,
                                "loc": {
                                  "start": {
                                    "line": 14,
                                    "column": 4
                                  },
                                  "end": {
                                    "line": 14,
                                    "column": 12
                                  },
                                  "identifierName": "fontSize"
                                },
                                "name": "fontSize"
                              },
                              "value": {
                                "type": "CallExpression",
                                "start": 199,
                                "end": 210,
                                "loc": {
                                  "start": {
                                    "line": 14,
                                    "column": 14
                                  },
                                  "end": {
                                    "line": 14,
                                    "column": 25
                                  }
                                },
                                "callee": {
                                  "type": "Identifier",
                                  "start": 199,
                                  "end": 206,
                                  "loc": {
                                    "start": {
                                      "line": 14,
                                      "column": 14
                                    },
                                    "end": {
                                      "line": 14,
                                      "column": 21
                                    },
                                    "identifierName": "RFValue"
                                  },
                                  "name": "RFValue"
                                },
                                "arguments": [
                                  {
                                    "type": "NumericLiteral",
                                    "start": 207,
                                    "end": 209,
                                    "loc": {
                                      "start": {
                                        "line": 14,
                                        "column": 22
                                      },
                                      "end": {
                                        "line": 14,
                                        "column": 24
                                      }
                                    },
                                    "extra": {
                                      "rawValue": 16,
                                      "raw": "16"
                                    },
                                    "value": 16
                                  }
                                ]
                              }
                            }
                          ]
                        }
                      }
                    ]
                  }
                ]
              }
            }
          ],
          "kind": "const",
          "leadingComments": [],
          "trailingComments": []
        }
      }
    ],
    "directives": []
  },
  "comments": [
    {
      "type": "CommentBlock",
      "value": "*\n *\n * @format\n *\n ",
      "start": 0,
      "end": 24,
      "loc": {
        "start": {
          "line": 1,
          "column": 0
        },
        "end": {
          "line": 5,
          "column": 3
        }
      }
    },
    {
      "type": "CommentLine",
      "value": " @flow",
      "start": 26,
      "end": 34,
      "loc": {
        "start": {
          "line": 7,
          "column": 0
        },
        "end": {
          "line": 7,
          "column": 8
        }
      }
    }
  ],
  "tokens": [
    {
      "type": "CommentBlock",
      "value": "*\n *\n * @format\n *\n ",
      "start": 0,
      "end": 24,
      "loc": {
        "start": {
          "line": 1,
          "column": 0
        },
        "end": {
          "line": 5,
          "column": 3
        }
      }
    },
    {
      "type": "CommentLine",
      "value": " @flow",
      "start": 26,
      "end": 34,
      "loc": {
        "start": {
          "line": 7,
          "column": 0
        },
        "end": {
          "line": 7,
          "column": 8
        }
      }
    },
    {
      "type": {
        "label": "import",
        "keyword": "import",
        "beforeExpr": false,
        "startsExpr": true,
        "rightAssociative": false,
        "isLoop": false,
        "isAssign": false,
        "prefix": false,
        "postfix": false,
        "binop": null,
        "updateContext": null
      },
      "value": "import",
      "start": 36,
      "end": 42,
      "loc": {
        "start": {
          "line": 9,
          "column": 0
        },
        "end": {
          "line": 9,
          "column": 6
        }
      }
    },
    {
      "type": {
        "label": "{",
        "beforeExpr": true,
        "startsExpr": true,
        "rightAssociative": false,
        "isLoop": false,
        "isAssign": false,
        "prefix": false,
        "postfix": false,
        "binop": null
      },
      "start": 43,
      "end": 44,
      "loc": {
        "start": {
          "line": 9,
          "column": 7
        },
        "end": {
          "line": 9,
          "column": 8
        }
      }
    },
    {
      "type": {
        "label": "name",
        "beforeExpr": false,
        "startsExpr": true,
        "rightAssociative": false,
        "isLoop": false,
        "isAssign": false,
        "prefix": false,
        "postfix": false,
        "binop": null
      },
      "value": "StyleSheet",
      "start": 44,
      "end": 54,
      "loc": {
        "start": {
          "line": 9,
          "column": 8
        },
        "end": {
          "line": 9,
          "column": 18
        }
      }
    },
    {
      "type": {
        "label": "}",
        "beforeExpr": false,
        "startsExpr": false,
        "rightAssociative": false,
        "isLoop": false,
        "isAssign": false,
        "prefix": false,
        "postfix": false,
        "binop": null
      },
      "start": 54,
      "end": 55,
      "loc": {
        "start": {
          "line": 9,
          "column": 18
        },
        "end": {
          "line": 9,
          "column": 19
        }
      }
    },
    {
      "type": {
        "label": "name",
        "beforeExpr": false,
        "startsExpr": true,
        "rightAssociative": false,
        "isLoop": false,
        "isAssign": false,
        "prefix": false,
        "postfix": false,
        "binop": null
      },
      "value": "from",
      "start": 56,
      "end": 60,
      "loc": {
        "start": {
          "line": 9,
          "column": 20
        },
        "end": {
          "line": 9,
          "column": 24
        }
      }
    },
    {
      "type": {
        "label": "string",
        "beforeExpr": false,
        "startsExpr": true,
        "rightAssociative": false,
        "isLoop": false,
        "isAssign": false,
        "prefix": false,
        "postfix": false,
        "binop": null,
        "updateContext": null
      },
      "value": "react-native",
      "start": 61,
      "end": 75,
      "loc": {
        "start": {
          "line": 9,
          "column": 25
        },
        "end": {
          "line": 9,
          "column": 39
        }
      }
    },
    {
      "type": {
        "label": ";",
        "beforeExpr": true,
        "startsExpr": false,
        "rightAssociative": false,
        "isLoop": false,
        "isAssign": false,
        "prefix": false,
        "postfix": false,
        "binop": null,
        "updateContext": null
      },
      "start": 75,
      "end": 76,
      "loc": {
        "start": {
          "line": 9,
          "column": 39
        },
        "end": {
          "line": 9,
          "column": 40
        }
      }
    },
    {
      "type": {
        "label": "import",
        "keyword": "import",
        "beforeExpr": false,
        "startsExpr": true,
        "rightAssociative": false,
        "isLoop": false,
        "isAssign": false,
        "prefix": false,
        "postfix": false,
        "binop": null,
        "updateContext": null
      },
      "value": "import",
      "start": 77,
      "end": 83,
      "loc": {
        "start": {
          "line": 10,
          "column": 0
        },
        "end": {
          "line": 10,
          "column": 6
        }
      }
    },
    {
      "type": {
        "label": "{",
        "beforeExpr": true,
        "startsExpr": true,
        "rightAssociative": false,
        "isLoop": false,
        "isAssign": false,
        "prefix": false,
        "postfix": false,
        "binop": null
      },
      "start": 84,
      "end": 85,
      "loc": {
        "start": {
          "line": 10,
          "column": 7
        },
        "end": {
          "line": 10,
          "column": 8
        }
      }
    },
    {
      "type": {
        "label": "name",
        "beforeExpr": false,
        "startsExpr": true,
        "rightAssociative": false,
        "isLoop": false,
        "isAssign": false,
        "prefix": false,
        "postfix": false,
        "binop": null
      },
      "value": "RFValue",
      "start": 85,
      "end": 92,
      "loc": {
        "start": {
          "line": 10,
          "column": 8
        },
        "end": {
          "line": 10,
          "column": 15
        }
      }
    },
    {
      "type": {
        "label": "}",
        "beforeExpr": false,
        "startsExpr": false,
        "rightAssociative": false,
        "isLoop": false,
        "isAssign": false,
        "prefix": false,
        "postfix": false,
        "binop": null
      },
      "start": 92,
      "end": 93,
      "loc": {
        "start": {
          "line": 10,
          "column": 15
        },
        "end": {
          "line": 10,
          "column": 16
        }
      }
    },
    {
      "type": {
        "label": "name",
        "beforeExpr": false,
        "startsExpr": true,
        "rightAssociative": false,
        "isLoop": false,
        "isAssign": false,
        "prefix": false,
        "postfix": false,
        "binop": null
      },
      "value": "from",
      "start": 94,
      "end": 98,
      "loc": {
        "start": {
          "line": 10,
          "column": 17
        },
        "end": {
          "line": 10,
          "column": 21
        }
      }
    },
    {
      "type": {
        "label": "string",
        "beforeExpr": false,
        "startsExpr": true,
        "rightAssociative": false,
        "isLoop": false,
        "isAssign": false,
        "prefix": false,
        "postfix": false,
        "binop": null,
        "updateContext": null
      },
      "value": "react-native-responsive-fontsize",
      "start": 99,
      "end": 133,
      "loc": {
        "start": {
          "line": 10,
          "column": 22
        },
        "end": {
          "line": 10,
          "column": 56
        }
      }
    },
    {
      "type": {
        "label": ";",
        "beforeExpr": true,
        "startsExpr": false,
        "rightAssociative": false,
        "isLoop": false,
        "isAssign": false,
        "prefix": false,
        "postfix": false,
        "binop": null,
        "updateContext": null
      },
      "start": 133,
      "end": 134,
      "loc": {
        "start": {
          "line": 10,
          "column": 56
        },
        "end": {
          "line": 10,
          "column": 57
        }
      }
    },
    {
      "type": {
        "label": "const",
        "keyword": "const",
        "beforeExpr": false,
        "startsExpr": false,
        "rightAssociative": false,
        "isLoop": false,
        "isAssign": false,
        "prefix": false,
        "postfix": false,
        "binop": null,
        "updateContext": null
      },
      "value": "const",
      "start": 136,
      "end": 141,
      "loc": {
        "start": {
          "line": 12,
          "column": 0
        },
        "end": {
          "line": 12,
          "column": 5
        }
      }
    },
    {
      "type": {
        "label": "name",
        "beforeExpr": false,
        "startsExpr": true,
        "rightAssociative": false,
        "isLoop": false,
        "isAssign": false,
        "prefix": false,
        "postfix": false,
        "binop": null
      },
      "value": "TextStyles",
      "start": 142,
      "end": 152,
      "loc": {
        "start": {
          "line": 12,
          "column": 6
        },
        "end": {
          "line": 12,
          "column": 16
        }
      }
    },
    {
      "type": {
        "label": "=",
        "beforeExpr": true,
        "startsExpr": false,
        "rightAssociative": false,
        "isLoop": false,
        "isAssign": true,
        "prefix": false,
        "postfix": false,
        "binop": null,
        "updateContext": null
      },
      "value": "=",
      "start": 153,
      "end": 154,
      "loc": {
        "start": {
          "line": 12,
          "column": 17
        },
        "end": {
          "line": 12,
          "column": 18
        }
      }
    },
    {
      "type": {
        "label": "name",
        "beforeExpr": false,
        "startsExpr": true,
        "rightAssociative": false,
        "isLoop": false,
        "isAssign": false,
        "prefix": false,
        "postfix": false,
        "binop": null
      },
      "value": "StyleSheet",
      "start": 155,
      "end": 165,
      "loc": {
        "start": {
          "line": 12,
          "column": 19
        },
        "end": {
          "line": 12,
          "column": 29
        }
      }
    },
    {
      "type": {
        "label": ".",
        "beforeExpr": false,
        "startsExpr": false,
        "rightAssociative": false,
        "isLoop": false,
        "isAssign": false,
        "prefix": false,
        "postfix": false,
        "binop": null,
        "updateContext": null
      },
      "start": 165,
      "end": 166,
      "loc": {
        "start": {
          "line": 12,
          "column": 29
        },
        "end": {
          "line": 12,
          "column": 30
        }
      }
    },
    {
      "type": {
        "label": "name",
        "beforeExpr": false,
        "startsExpr": true,
        "rightAssociative": false,
        "isLoop": false,
        "isAssign": false,
        "prefix": false,
        "postfix": false,
        "binop": null
      },
      "value": "create",
      "start": 166,
      "end": 172,
      "loc": {
        "start": {
          "line": 12,
          "column": 30
        },
        "end": {
          "line": 12,
          "column": 36
        }
      }
    },
    {
      "type": {
        "label": "(",
        "beforeExpr": true,
        "startsExpr": true,
        "rightAssociative": false,
        "isLoop": false,
        "isAssign": false,
        "prefix": false,
        "postfix": false,
        "binop": null
      },
      "start": 172,
      "end": 173,
      "loc": {
        "start": {
          "line": 12,
          "column": 36
        },
        "end": {
          "line": 12,
          "column": 37
        }
      }
    },
    {
      "type": {
        "label": "{",
        "beforeExpr": true,
        "startsExpr": true,
        "rightAssociative": false,
        "isLoop": false,
        "isAssign": false,
        "prefix": false,
        "postfix": false,
        "binop": null
      },
      "start": 173,
      "end": 174,
      "loc": {
        "start": {
          "line": 12,
          "column": 37
        },
        "end": {
          "line": 12,
          "column": 38
        }
      }
    },
    {
      "type": {
        "label": "name",
        "beforeExpr": false,
        "startsExpr": true,
        "rightAssociative": false,
        "isLoop": false,
        "isAssign": false,
        "prefix": false,
        "postfix": false,
        "binop": null
      },
      "value": "text",
      "start": 177,
      "end": 181,
      "loc": {
        "start": {
          "line": 13,
          "column": 2
        },
        "end": {
          "line": 13,
          "column": 6
        }
      }
    },
    {
      "type": {
        "label": ":",
        "beforeExpr": true,
        "startsExpr": false,
        "rightAssociative": false,
        "isLoop": false,
        "isAssign": false,
        "prefix": false,
        "postfix": false,
        "binop": null,
        "updateContext": null
      },
      "start": 181,
      "end": 182,
      "loc": {
        "start": {
          "line": 13,
          "column": 6
        },
        "end": {
          "line": 13,
          "column": 7
        }
      }
    },
    {
      "type": {
        "label": "{",
        "beforeExpr": true,
        "startsExpr": true,
        "rightAssociative": false,
        "isLoop": false,
        "isAssign": false,
        "prefix": false,
        "postfix": false,
        "binop": null
      },
      "start": 183,
      "end": 184,
      "loc": {
        "start": {
          "line": 13,
          "column": 8
        },
        "end": {
          "line": 13,
          "column": 9
        }
      }
    },
    {
      "type": {
        "label": "name",
        "beforeExpr": false,
        "startsExpr": true,
        "rightAssociative": false,
        "isLoop": false,
        "isAssign": false,
        "prefix": false,
        "postfix": false,
        "binop": null
      },
      "value": "fontSize",
      "start": 189,
      "end": 197,
      "loc": {
        "start": {
          "line": 14,
          "column": 4
        },
        "end": {
          "line": 14,
          "column": 12
        }
      }
    },
    {
      "type": {
        "label": ":",
        "beforeExpr": true,
        "startsExpr": false,
        "rightAssociative": false,
        "isLoop": false,
        "isAssign": false,
        "prefix": false,
        "postfix": false,
        "binop": null,
        "updateContext": null
      },
      "start": 197,
      "end": 198,
      "loc": {
        "start": {
          "line": 14,
          "column": 12
        },
        "end": {
          "line": 14,
          "column": 13
        }
      }
    },
    {
      "type": {
        "label": "name",
        "beforeExpr": false,
        "startsExpr": true,
        "rightAssociative": false,
        "isLoop": false,
        "isAssign": false,
        "prefix": false,
        "postfix": false,
        "binop": null
      },
      "value": "RFValue",
      "start": 199,
      "end": 206,
      "loc": {
        "start": {
          "line": 14,
          "column": 14
        },
        "end": {
          "line": 14,
          "column": 21
        }
      }
    },
    {
      "type": {
        "label": "(",
        "beforeExpr": true,
        "startsExpr": true,
        "rightAssociative": false,
        "isLoop": false,
        "isAssign": false,
        "prefix": false,
        "postfix": false,
        "binop": null
      },
      "start": 206,
      "end": 207,
      "loc": {
        "start": {
          "line": 14,
          "column": 21
        },
        "end": {
          "line": 14,
          "column": 22
        }
      }
    },
    {
      "type": {
        "label": "num",
        "beforeExpr": false,
        "startsExpr": true,
        "rightAssociative": false,
        "isLoop": false,
        "isAssign": false,
        "prefix": false,
        "postfix": false,
        "binop": null,
        "updateContext": null
      },
      "value": 16,
      "start": 207,
      "end": 209,
      "loc": {
        "start": {
          "line": 14,
          "column": 22
        },
        "end": {
          "line": 14,
          "column": 24
        }
      }
    },
    {
      "type": {
        "label": ")",
        "beforeExpr": false,
        "startsExpr": false,
        "rightAssociative": false,
        "isLoop": false,
        "isAssign": false,
        "prefix": false,
        "postfix": false,
        "binop": null
      },
      "start": 209,
      "end": 210,
      "loc": {
        "start": {
          "line": 14,
          "column": 24
        },
        "end": {
          "line": 14,
          "column": 25
        }
      }
    },
    {
      "type": {
        "label": ",",
        "beforeExpr": true,
        "startsExpr": false,
        "rightAssociative": false,
        "isLoop": false,
        "isAssign": false,
        "prefix": false,
        "postfix": false,
        "binop": null,
        "updateContext": null
      },
      "start": 210,
      "end": 211,
      "loc": {
        "start": {
          "line": 14,
          "column": 25
        },
        "end": {
          "line": 14,
          "column": 26
        }
      }
    },
    {
      "type": {
        "label": "}",
        "beforeExpr": false,
        "startsExpr": false,
        "rightAssociative": false,
        "isLoop": false,
        "isAssign": false,
        "prefix": false,
        "postfix": false,
        "binop": null
      },
      "start": 214,
      "end": 215,
      "loc": {
        "start": {
          "line": 15,
          "column": 2
        },
        "end": {
          "line": 15,
          "column": 3
        }
      }
    },
    {
      "type": {
        "label": ",",
        "beforeExpr": true,
        "startsExpr": false,
        "rightAssociative": false,
        "isLoop": false,
        "isAssign": false,
        "prefix": false,
        "postfix": false,
        "binop": null,
        "updateContext": null
      },
      "start": 215,
      "end": 216,
      "loc": {
        "start": {
          "line": 15,
          "column": 3
        },
        "end": {
          "line": 15,
          "column": 4
        }
      }
    },
    {
      "type": {
        "label": "}",
        "beforeExpr": false,
        "startsExpr": false,
        "rightAssociative": false,
        "isLoop": false,
        "isAssign": false,
        "prefix": false,
        "postfix": false,
        "binop": null
      },
      "start": 217,
      "end": 218,
      "loc": {
        "start": {
          "line": 16,
          "column": 0
        },
        "end": {
          "line": 16,
          "column": 1
        }
      }
    },
    {
      "type": {
        "label": ")",
        "beforeExpr": false,
        "startsExpr": false,
        "rightAssociative": false,
        "isLoop": false,
        "isAssign": false,
        "prefix": false,
        "postfix": false,
        "binop": null
      },
      "start": 218,
      "end": 219,
      "loc": {
        "start": {
          "line": 16,
          "column": 1
        },
        "end": {
          "line": 16,
          "column": 2
        }
      }
    },
    {
      "type": {
        "label": ";",
        "beforeExpr": true,
        "startsExpr": false,
        "rightAssociative": false,
        "isLoop": false,
        "isAssign": false,
        "prefix": false,
        "postfix": false,
        "binop": null,
        "updateContext": null
      },
      "start": 219,
      "end": 220,
      "loc": {
        "start": {
          "line": 16,
          "column": 2
        },
        "end": {
          "line": 16,
          "column": 3
        }
      }
    },
    {
      "type": {
        "label": "export",
        "keyword": "export",
        "beforeExpr": false,
        "startsExpr": false,
        "rightAssociative": false,
        "isLoop": false,
        "isAssign": false,
        "prefix": false,
        "postfix": false,
        "binop": null,
        "updateContext": null
      },
      "value": "export",
      "start": 222,
      "end": 228,
      "loc": {
        "start": {
          "line": 18,
          "column": 0
        },
        "end": {
          "line": 18,
          "column": 6
        }
      }
    },
    {
      "type": {
        "label": "default",
        "keyword": "default",
        "beforeExpr": true,
        "startsExpr": false,
        "rightAssociative": false,
        "isLoop": false,
        "isAssign": false,
        "prefix": false,
        "postfix": false,
        "binop": null,
        "updateContext": null
      },
      "value": "default",
      "start": 229,
      "end": 236,
      "loc": {
        "start": {
          "line": 18,
          "column": 7
        },
        "end": {
          "line": 18,
          "column": 14
        }
      }
    },
    {
      "type": {
        "label": "name",
        "beforeExpr": false,
        "startsExpr": true,
        "rightAssociative": false,
        "isLoop": false,
        "isAssign": false,
        "prefix": false,
        "postfix": false,
        "binop": null
      },
      "value": "TextStyles",
      "start": 237,
      "end": 247,
      "loc": {
        "start": {
          "line": 18,
          "column": 15
        },
        "end": {
          "line": 18,
          "column": 25
        }
      }
    },
    {
      "type": {
        "label": ";",
        "beforeExpr": true,
        "startsExpr": false,
        "rightAssociative": false,
        "isLoop": false,
        "isAssign": false,
        "prefix": false,
        "postfix": false,
        "binop": null,
        "updateContext": null
      },
      "start": 247,
      "end": 248,
      "loc": {
        "start": {
          "line": 18,
          "column": 25
        },
        "end": {
          "line": 18,
          "column": 26
        }
      }
    },
    {
      "type": {
        "label": "eof",
        "beforeExpr": false,
        "startsExpr": false,
        "rightAssociative": false,
        "isLoop": false,
        "isAssign": false,
        "prefix": false,
        "postfix": false,
        "binop": null,
        "updateContext": null
      },
      "start": 249,
      "end": 249,
      "loc": {
        "start": {
          "line": 19,
          "column": 0
        },
        "end": {
          "line": 19,
          "column": 0
        }
      }
    }
  ]
}
