{
  "type": "File",
  "start": 0,
  "end": 347,
  "loc": {
    "start": {
      "line": 1,
      "column": 0
    },
    "end": {
      "line": 25,
      "column": 0
    }
  },
  "program": {
    "type": "Program",
    "start": 0,
    "end": 347,
    "loc": {
      "start": {
        "line": 1,
        "column": 0
      },
      "end": {
        "line": 25,
        "column": 0
      }
    },
    "sourceType": "module",
    "body": [
      {
        "type": "ImportDeclaration",
        "start": 36,
        "end": 68,
        "loc": {
          "start": {
            "line": 9,
            "column": 0
          },
          "end": {
            "line": 9,
            "column": 32
          }
        },
        "specifiers": [
          {
            "type": "ImportSpecifier",
            "start": 49,
            "end": 53,
            "loc": {
              "start": {
                "line": 9,
                "column": 13
              },
              "end": {
                "line": 9,
                "column": 17
              }
            },
            "imported": {
              "type": "Identifier",
              "start": 49,
              "end": 53,
              "loc": {
                "start": {
                  "line": 9,
                  "column": 13
                },
                "end": {
                  "line": 9,
                  "column": 17
                },
                "identifierName": "Node"
              },
              "name": "Node",
              "leadingComments": null
            },
            "importKind": null,
            "local": {
              "type": "Identifier",
              "start": 49,
              "end": 53,
              "loc": {
                "start": {
                  "line": 9,
                  "column": 13
                },
                "end": {
                  "line": 9,
                  "column": 17
                },
                "identifierName": "Node"
              },
              "name": "Node"
            },
            "leadingComments": null
          }
        ],
        "importKind": "type",
        "source": {
          "type": "StringLiteral",
          "start": 60,
          "end": 67,
          "loc": {
            "start": {
              "line": 9,
              "column": 24
            },
            "end": {
              "line": 9,
              "column": 31
            }
          },
          "extra": {
            "rawValue": "react",
            "raw": "'react'"
          },
          "value": "react"
        },
        "leadingComments": [
          {
            "type": "CommentBlock",
            "value": "*\n *\n * @format\n *\n ",
            "start": 0,
            "end": 24,
            "loc": {
              "start": {
                "line": 1,
                "column": 0
              },
              "end": {
                "line": 5,
                "column": 3
              }
            }
          },
          {
            "type": "CommentLine",
            "value": " @flow",
            "start": 26,
            "end": 34,
            "loc": {
              "start": {
                "line": 7,
                "column": 0
              },
              "end": {
                "line": 7,
                "column": 8
              }
            }
          }
        ]
      },
      {
        "type": "ExportNamedDeclaration",
        "start": 70,
        "end": 116,
        "loc": {
          "start": {
            "line": 11,
            "column": 0
          },
          "end": {
            "line": 13,
            "column": 2
          }
        },
        "specifiers": [],
        "source": null,
        "exportKind": "type",
        "declaration": {
          "type": "TypeAlias",
          "start": 77,
          "end": 116,
          "loc": {
            "start": {
              "line": 11,
              "column": 7
            },
            "end": {
              "line": 13,
              "column": 2
            }
          },
          "id": {
            "type": "Identifier",
            "start": 82,
            "end": 91,
            "loc": {
              "start": {
                "line": 11,
                "column": 12
              },
              "end": {
                "line": 11,
                "column": 21
              },
              "identifierName": "PropsType"
            },
            "name": "PropsType"
          },
          "typeParameters": null,
          "right": {
            "type": "ObjectTypeAnnotation",
            "start": 94,
            "end": 115,
            "loc": {
              "start": {
                "line": 11,
                "column": 24
              },
              "end": {
                "line": 13,
                "column": 1
              }
            },
            "callProperties": [],
            "properties": [
              {
                "type": "ObjectTypeProperty",
                "start": 98,
                "end": 113,
                "loc": {
                  "start": {
                    "line": 12,
                    "column": 2
                  },
                  "end": {
                    "line": 12,
                    "column": 17
                  }
                },
                "key": {
                  "type": "Identifier",
                  "start": 98,
                  "end": 106,
                  "loc": {
                    "start": {
                      "line": 12,
                      "column": 2
                    },
                    "end": {
                      "line": 12,
                      "column": 10
                    },
                    "identifierName": "children"
                  },
                  "name": "children"
                },
                "value": {
                  "type": "GenericTypeAnnotation",
                  "start": 108,
                  "end": 112,
                  "loc": {
                    "start": {
                      "line": 12,
                      "column": 12
                    },
                    "end": {
                      "line": 12,
                      "column": 16
                    }
                  },
                  "typeParameters": null,
                  "id": {
                    "type": "Identifier",
                    "start": 108,
                    "end": 112,
                    "loc": {
                      "start": {
                        "line": 12,
                        "column": 12
                      },
                      "end": {
                        "line": 12,
                        "column": 16
                      },
                      "identifierName": "Node"
                    },
                    "name": "Node"
                  }
                },
                "optional": false,
                "static": false,
                "variance": null
              }
            ],
            "indexers": [],
            "exact": false
          },
          "leadingComments": [],
          "trailingComments": []
        }
      },
      {
        "type": "ExportNamedDeclaration",
        "start": 118,
        "end": 346,
        "loc": {
          "start": {
            "line": 15,
            "column": 0
          },
          "end": {
            "line": 24,
            "column": 2
          }
        },
        "specifiers": [],
        "source": null,
        "exportKind": "type",
        "declaration": {
          "type": "TypeAlias",
          "start": 125,
          "end": 346,
          "loc": {
            "start": {
              "line": 15,
              "column": 7
            },
            "end": {
              "line": 24,
              "column": 2
            }
          },
          "id": {
            "type": "Identifier",
            "start": 130,
            "end": 142,
            "loc": {
              "start": {
                "line": 15,
                "column": 12
              },
              "end": {
                "line": 15,
                "column": 24
              },
              "identifierName": "UserInfoType"
            },
            "name": "UserInfoType"
          },
          "typeParameters": null,
          "right": {
            "type": "ObjectTypeAnnotation",
            "start": 145,
            "end": 345,
            "loc": {
              "start": {
                "line": 15,
                "column": 27
              },
              "end": {
                "line": 24,
                "column": 1
              }
            },
            "callProperties": [],
            "properties": [
              {
                "type": "ObjectTypeProperty",
                "start": 149,
                "end": 163,
                "loc": {
                  "start": {
                    "line": 16,
                    "column": 2
                  },
                  "end": {
                    "line": 16,
                    "column": 16
                  }
                },
                "key": {
                  "type": "Identifier",
                  "start": 149,
                  "end": 154,
                  "loc": {
                    "start": {
                      "line": 16,
                      "column": 2
                    },
                    "end": {
                      "line": 16,
                      "column": 7
                    },
                    "identifierName": "level"
                  },
                  "name": "level"
                },
                "value": {
                  "type": "StringTypeAnnotation",
                  "start": 156,
                  "end": 162,
                  "loc": {
                    "start": {
                      "line": 16,
                      "column": 9
                    },
                    "end": {
                      "line": 16,
                      "column": 15
                    }
                  }
                },
                "optional": false,
                "static": false,
                "variance": null
              },
              {
                "type": "ObjectTypeProperty",
                "start": 166,
                "end": 192,
                "loc": {
                  "start": {
                    "line": 17,
                    "column": 2
                  },
                  "end": {
                    "line": 17,
                    "column": 28
                  }
                },
                "key": {
                  "type": "Identifier",
                  "start": 166,
                  "end": 183,
                  "loc": {
                    "start": {
                      "line": 17,
                      "column": 2
                    },
                    "end": {
                      "line": 17,
                      "column": 19
                    },
                    "identifierName": "membershipEndDate"
                  },
                  "name": "membershipEndDate"
                },
                "value": {
                  "type": "StringTypeAnnotation",
                  "start": 185,
                  "end": 191,
                  "loc": {
                    "start": {
                      "line": 17,
                      "column": 21
                    },
                    "end": {
                      "line": 17,
                      "column": 27
                    }
                  }
                },
                "optional": false,
                "static": false,
                "variance": null
              },
              {
                "type": "ObjectTypeProperty",
                "start": 195,
                "end": 220,
                "loc": {
                  "start": {
                    "line": 18,
                    "column": 2
                  },
                  "end": {
                    "line": 18,
                    "column": 27
                  }
                },
                "key": {
                  "type": "Identifier",
                  "start": 195,
                  "end": 211,
                  "loc": {
                    "start": {
                      "line": 18,
                      "column": 2
                    },
                    "end": {
                      "line": 18,
                      "column": 18
                    },
                    "identifierName": "membershipNumber"
                  },
                  "name": "membershipNumber"
                },
                "value": {
                  "type": "StringTypeAnnotation",
                  "start": 213,
                  "end": 219,
                  "loc": {
                    "start": {
                      "line": 18,
                      "column": 20
                    },
                    "end": {
                      "line": 18,
                      "column": 26
                    }
                  }
                },
                "optional": false,
                "static": false,
                "variance": null
              },
              {
                "type": "ObjectTypeProperty",
                "start": 223,
                "end": 241,
                "loc": {
                  "start": {
                    "line": 19,
                    "column": 2
                  },
                  "end": {
                    "line": 19,
                    "column": 20
                  }
                },
                "key": {
                  "type": "Identifier",
                  "start": 223,
                  "end": 232,
                  "loc": {
                    "start": {
                      "line": 19,
                      "column": 2
                    },
                    "end": {
                      "line": 19,
                      "column": 11
                    },
                    "identifierName": "nextLevel"
                  },
                  "name": "nextLevel"
                },
                "value": {
                  "type": "StringTypeAnnotation",
                  "start": 234,
                  "end": 240,
                  "loc": {
                    "start": {
                      "line": 19,
                      "column": 13
                    },
                    "end": {
                      "line": 19,
                      "column": 19
                    }
                  }
                },
                "optional": false,
                "static": false,
                "variance": null
              },
              {
                "type": "ObjectTypeProperty",
                "start": 244,
                "end": 259,
                "loc": {
                  "start": {
                    "line": 20,
                    "column": 2
                  },
                  "end": {
                    "line": 20,
                    "column": 17
                  }
                },
                "key": {
                  "type": "Identifier",
                  "start": 244,
                  "end": 250,
                  "loc": {
                    "start": {
                      "line": 20,
                      "column": 2
                    },
                    "end": {
                      "line": 20,
                      "column": 8
                    },
                    "identifierName": "points"
                  },
                  "name": "points"
                },
                "value": {
                  "type": "NumberTypeAnnotation",
                  "start": 252,
                  "end": 258,
                  "loc": {
                    "start": {
                      "line": 20,
                      "column": 10
                    },
                    "end": {
                      "line": 20,
                      "column": 16
                    }
                  }
                },
                "optional": false,
                "static": false,
                "variance": null
              },
              {
                "type": "ObjectTypeProperty",
                "start": 262,
                "end": 293,
                "loc": {
                  "start": {
                    "line": 21,
                    "column": 2
                  },
                  "end": {
                    "line": 21,
                    "column": 33
                  }
                },
                "key": {
                  "type": "Identifier",
                  "start": 262,
                  "end": 284,
                  "loc": {
                    "start": {
                      "line": 21,
                      "column": 2
                    },
                    "end": {
                      "line": 21,
                      "column": 24
                    },
                    "identifierName": "pointsToMaintainStatus"
                  },
                  "name": "pointsToMaintainStatus"
                },
                "value": {
                  "type": "NumberTypeAnnotation",
                  "start": 286,
                  "end": 292,
                  "loc": {
                    "start": {
                      "line": 21,
                      "column": 26
                    },
                    "end": {
                      "line": 21,
                      "column": 32
                    }
                  }
                },
                "optional": false,
                "static": false,
                "variance": null
              },
              {
                "type": "ObjectTypeProperty",
                "start": 296,
                "end": 323,
                "loc": {
                  "start": {
                    "line": 22,
                    "column": 2
                  },
                  "end": {
                    "line": 22,
                    "column": 29
                  }
                },
                "key": {
                  "type": "Identifier",
                  "start": 296,
                  "end": 314,
                  "loc": {
                    "start": {
                      "line": 22,
                      "column": 2
                    },
                    "end": {
                      "line": 22,
                      "column": 20
                    },
                    "identifierName": "pointsToNextStatus"
                  },
                  "name": "pointsToNextStatus"
                },
                "value": {
                  "type": "NumberTypeAnnotation",
                  "start": 316,
                  "end": 322,
                  "loc": {
                    "start": {
                      "line": 22,
                      "column": 22
                    },
                    "end": {
                      "line": 22,
                      "column": 28
                    }
                  }
                },
                "optional": false,
                "static": false,
                "variance": null
              },
              {
                "type": "ObjectTypeProperty",
                "start": 326,
                "end": 343,
                "loc": {
                  "start": {
                    "line": 23,
                    "column": 2
                  },
                  "end": {
                    "line": 23,
                    "column": 19
                  }
                },
                "key": {
                  "type": "Identifier",
                  "start": 326,
                  "end": 334,
                  "loc": {
                    "start": {
                      "line": 23,
                      "column": 2
                    },
                    "end": {
                      "line": 23,
                      "column": 10
                    },
                    "identifierName": "username"
                  },
                  "name": "username"
                },
                "value": {
                  "type": "StringTypeAnnotation",
                  "start": 336,
                  "end": 342,
                  "loc": {
                    "start": {
                      "line": 23,
                      "column": 12
                    },
                    "end": {
                      "line": 23,
                      "column": 18
                    }
                  }
                },
                "optional": false,
                "static": false,
                "variance": null
              }
            ],
            "indexers": [],
            "exact": false
          },
          "leadingComments": [],
          "trailingComments": []
        }
      }
    ],
    "directives": []
  },
  "comments": [
    {
      "type": "CommentBlock",
      "value": "*\n *\n * @format\n *\n ",
      "start": 0,
      "end": 24,
      "loc": {
        "start": {
          "line": 1,
          "column": 0
        },
        "end": {
          "line": 5,
          "column": 3
        }
      }
    },
    {
      "type": "CommentLine",
      "value": " @flow",
      "start": 26,
      "end": 34,
      "loc": {
        "start": {
          "line": 7,
          "column": 0
        },
        "end": {
          "line": 7,
          "column": 8
        }
      }
    }
  ],
  "tokens": [
    {
      "type": "CommentBlock",
      "value": "*\n *\n * @format\n *\n ",
      "start": 0,
      "end": 24,
      "loc": {
        "start": {
          "line": 1,
          "column": 0
        },
        "end": {
          "line": 5,
          "column": 3
        }
      }
    },
    {
      "type": "CommentLine",
      "value": " @flow",
      "start": 26,
      "end": 34,
      "loc": {
        "start": {
          "line": 7,
          "column": 0
        },
        "end": {
          "line": 7,
          "column": 8
        }
      }
    },
    {
      "type": {
        "label": "import",
        "keyword": "import",
        "beforeExpr": false,
        "startsExpr": true,
        "rightAssociative": false,
        "isLoop": false,
        "isAssign": false,
        "prefix": false,
        "postfix": false,
        "binop": null,
        "updateContext": null
      },
      "value": "import",
      "start": 36,
      "end": 42,
      "loc": {
        "start": {
          "line": 9,
          "column": 0
        },
        "end": {
          "line": 9,
          "column": 6
        }
      }
    },
    {
      "type": {
        "label": "name",
        "beforeExpr": false,
        "startsExpr": true,
        "rightAssociative": false,
        "isLoop": false,
        "isAssign": false,
        "prefix": false,
        "postfix": false,
        "binop": null
      },
      "value": "type",
      "start": 43,
      "end": 47,
      "loc": {
        "start": {
          "line": 9,
          "column": 7
        },
        "end": {
          "line": 9,
          "column": 11
        }
      }
    },
    {
      "type": {
        "label": "{",
        "beforeExpr": true,
        "startsExpr": true,
        "rightAssociative": false,
        "isLoop": false,
        "isAssign": false,
        "prefix": false,
        "postfix": false,
        "binop": null
      },
      "start": 48,
      "end": 49,
      "loc": {
        "start": {
          "line": 9,
          "column": 12
        },
        "end": {
          "line": 9,
          "column": 13
        }
      }
    },
    {
      "type": {
        "label": "name",
        "beforeExpr": false,
        "startsExpr": true,
        "rightAssociative": false,
        "isLoop": false,
        "isAssign": false,
        "prefix": false,
        "postfix": false,
        "binop": null
      },
      "value": "Node",
      "start": 49,
      "end": 53,
      "loc": {
        "start": {
          "line": 9,
          "column": 13
        },
        "end": {
          "line": 9,
          "column": 17
        }
      }
    },
    {
      "type": {
        "label": "}",
        "beforeExpr": false,
        "startsExpr": false,
        "rightAssociative": false,
        "isLoop": false,
        "isAssign": false,
        "prefix": false,
        "postfix": false,
        "binop": null
      },
      "start": 53,
      "end": 54,
      "loc": {
        "start": {
          "line": 9,
          "column": 17
        },
        "end": {
          "line": 9,
          "column": 18
        }
      }
    },
    {
      "type": {
        "label": "name",
        "beforeExpr": false,
        "startsExpr": true,
        "rightAssociative": false,
        "isLoop": false,
        "isAssign": false,
        "prefix": false,
        "postfix": false,
        "binop": null
      },
      "value": "from",
      "start": 55,
      "end": 59,
      "loc": {
        "start": {
          "line": 9,
          "column": 19
        },
        "end": {
          "line": 9,
          "column": 23
        }
      }
    },
    {
      "type": {
        "label": "string",
        "beforeExpr": false,
        "startsExpr": true,
        "rightAssociative": false,
        "isLoop": false,
        "isAssign": false,
        "prefix": false,
        "postfix": false,
        "binop": null,
        "updateContext": null
      },
      "value": "react",
      "start": 60,
      "end": 67,
      "loc": {
        "start": {
          "line": 9,
          "column": 24
        },
        "end": {
          "line": 9,
          "column": 31
        }
      }
    },
    {
      "type": {
        "label": ";",
        "beforeExpr": true,
        "startsExpr": false,
        "rightAssociative": false,
        "isLoop": false,
        "isAssign": false,
        "prefix": false,
        "postfix": false,
        "binop": null,
        "updateContext": null
      },
      "start": 67,
      "end": 68,
      "loc": {
        "start": {
          "line": 9,
          "column": 31
        },
        "end": {
          "line": 9,
          "column": 32
        }
      }
    },
    {
      "type": {
        "label": "export",
        "keyword": "export",
        "beforeExpr": false,
        "startsExpr": false,
        "rightAssociative": false,
        "isLoop": false,
        "isAssign": false,
        "prefix": false,
        "postfix": false,
        "binop": null,
        "updateContext": null
      },
      "value": "export",
      "start": 70,
      "end": 76,
      "loc": {
        "start": {
          "line": 11,
          "column": 0
        },
        "end": {
          "line": 11,
          "column": 6
        }
      }
    },
    {
      "type": {
        "label": "name",
        "beforeExpr": false,
        "startsExpr": true,
        "rightAssociative": false,
        "isLoop": false,
        "isAssign": false,
        "prefix": false,
        "postfix": false,
        "binop": null
      },
      "value": "type",
      "start": 77,
      "end": 81,
      "loc": {
        "start": {
          "line": 11,
          "column": 7
        },
        "end": {
          "line": 11,
          "column": 11
        }
      }
    },
    {
      "type": {
        "label": "name",
        "beforeExpr": false,
        "startsExpr": true,
        "rightAssociative": false,
        "isLoop": false,
        "isAssign": false,
        "prefix": false,
        "postfix": false,
        "binop": null
      },
      "value": "PropsType",
      "start": 82,
      "end": 91,
      "loc": {
        "start": {
          "line": 11,
          "column": 12
        },
        "end": {
          "line": 11,
          "column": 21
        }
      }
    },
    {
      "type": {
        "label": "=",
        "beforeExpr": true,
        "startsExpr": false,
        "rightAssociative": false,
        "isLoop": false,
        "isAssign": true,
        "prefix": false,
        "postfix": false,
        "binop": null,
        "updateContext": null
      },
      "value": "=",
      "start": 92,
      "end": 93,
      "loc": {
        "start": {
          "line": 11,
          "column": 22
        },
        "end": {
          "line": 11,
          "column": 23
        }
      }
    },
    {
      "type": {
        "label": "{",
        "beforeExpr": true,
        "startsExpr": true,
        "rightAssociative": false,
        "isLoop": false,
        "isAssign": false,
        "prefix": false,
        "postfix": false,
        "binop": null
      },
      "start": 94,
      "end": 95,
      "loc": {
        "start": {
          "line": 11,
          "column": 24
        },
        "end": {
          "line": 11,
          "column": 25
        }
      }
    },
    {
      "type": {
        "label": "name",
        "beforeExpr": false,
        "startsExpr": true,
        "rightAssociative": false,
        "isLoop": false,
        "isAssign": false,
        "prefix": false,
        "postfix": false,
        "binop": null
      },
      "value": "children",
      "start": 98,
      "end": 106,
      "loc": {
        "start": {
          "line": 12,
          "column": 2
        },
        "end": {
          "line": 12,
          "column": 10
        }
      }
    },
    {
      "type": {
        "label": ":",
        "beforeExpr": true,
        "startsExpr": false,
        "rightAssociative": false,
        "isLoop": false,
        "isAssign": false,
        "prefix": false,
        "postfix": false,
        "binop": null,
        "updateContext": null
      },
      "start": 106,
      "end": 107,
      "loc": {
        "start": {
          "line": 12,
          "column": 10
        },
        "end": {
          "line": 12,
          "column": 11
        }
      }
    },
    {
      "type": {
        "label": "name",
        "beforeExpr": false,
        "startsExpr": true,
        "rightAssociative": false,
        "isLoop": false,
        "isAssign": false,
        "prefix": false,
        "postfix": false,
        "binop": null
      },
      "value": "Node",
      "start": 108,
      "end": 112,
      "loc": {
        "start": {
          "line": 12,
          "column": 12
        },
        "end": {
          "line": 12,
          "column": 16
        }
      }
    },
    {
      "type": {
        "label": ",",
        "beforeExpr": true,
        "startsExpr": false,
        "rightAssociative": false,
        "isLoop": false,
        "isAssign": false,
        "prefix": false,
        "postfix": false,
        "binop": null,
        "updateContext": null
      },
      "start": 112,
      "end": 113,
      "loc": {
        "start": {
          "line": 12,
          "column": 16
        },
        "end": {
          "line": 12,
          "column": 17
        }
      }
    },
    {
      "type": {
        "label": "}",
        "beforeExpr": false,
        "startsExpr": false,
        "rightAssociative": false,
        "isLoop": false,
        "isAssign": false,
        "prefix": false,
        "postfix": false,
        "binop": null
      },
      "start": 114,
      "end": 115,
      "loc": {
        "start": {
          "line": 13,
          "column": 0
        },
        "end": {
          "line": 13,
          "column": 1
        }
      }
    },
    {
      "type": {
        "label": ";",
        "beforeExpr": true,
        "startsExpr": false,
        "rightAssociative": false,
        "isLoop": false,
        "isAssign": false,
        "prefix": false,
        "postfix": false,
        "binop": null,
        "updateContext": null
      },
      "start": 115,
      "end": 116,
      "loc": {
        "start": {
          "line": 13,
          "column": 1
        },
        "end": {
          "line": 13,
          "column": 2
        }
      }
    },
    {
      "type": {
        "label": "export",
        "keyword": "export",
        "beforeExpr": false,
        "startsExpr": false,
        "rightAssociative": false,
        "isLoop": false,
        "isAssign": false,
        "prefix": false,
        "postfix": false,
        "binop": null,
        "updateContext": null
      },
      "value": "export",
      "start": 118,
      "end": 124,
      "loc": {
        "start": {
          "line": 15,
          "column": 0
        },
        "end": {
          "line": 15,
          "column": 6
        }
      }
    },
    {
      "type": {
        "label": "name",
        "beforeExpr": false,
        "startsExpr": true,
        "rightAssociative": false,
        "isLoop": false,
        "isAssign": false,
        "prefix": false,
        "postfix": false,
        "binop": null
      },
      "value": "type",
      "start": 125,
      "end": 129,
      "loc": {
        "start": {
          "line": 15,
          "column": 7
        },
        "end": {
          "line": 15,
          "column": 11
        }
      }
    },
    {
      "type": {
        "label": "name",
        "beforeExpr": false,
        "startsExpr": true,
        "rightAssociative": false,
        "isLoop": false,
        "isAssign": false,
        "prefix": false,
        "postfix": false,
        "binop": null
      },
      "value": "UserInfoType",
      "start": 130,
      "end": 142,
      "loc": {
        "start": {
          "line": 15,
          "column": 12
        },
        "end": {
          "line": 15,
          "column": 24
        }
      }
    },
    {
      "type": {
        "label": "=",
        "beforeExpr": true,
        "startsExpr": false,
        "rightAssociative": false,
        "isLoop": false,
        "isAssign": true,
        "prefix": false,
        "postfix": false,
        "binop": null,
        "updateContext": null
      },
      "value": "=",
      "start": 143,
      "end": 144,
      "loc": {
        "start": {
          "line": 15,
          "column": 25
        },
        "end": {
          "line": 15,
          "column": 26
        }
      }
    },
    {
      "type": {
        "label": "{",
        "beforeExpr": true,
        "startsExpr": true,
        "rightAssociative": false,
        "isLoop": false,
        "isAssign": false,
        "prefix": false,
        "postfix": false,
        "binop": null
      },
      "start": 145,
      "end": 146,
      "loc": {
        "start": {
          "line": 15,
          "column": 27
        },
        "end": {
          "line": 15,
          "column": 28
        }
      }
    },
    {
      "type": {
        "label": "name",
        "beforeExpr": false,
        "startsExpr": true,
        "rightAssociative": false,
        "isLoop": false,
        "isAssign": false,
        "prefix": false,
        "postfix": false,
        "binop": null
      },
      "value": "level",
      "start": 149,
      "end": 154,
      "loc": {
        "start": {
          "line": 16,
          "column": 2
        },
        "end": {
          "line": 16,
          "column": 7
        }
      }
    },
    {
      "type": {
        "label": ":",
        "beforeExpr": true,
        "startsExpr": false,
        "rightAssociative": false,
        "isLoop": false,
        "isAssign": false,
        "prefix": false,
        "postfix": false,
        "binop": null,
        "updateContext": null
      },
      "start": 154,
      "end": 155,
      "loc": {
        "start": {
          "line": 16,
          "column": 7
        },
        "end": {
          "line": 16,
          "column": 8
        }
      }
    },
    {
      "type": {
        "label": "name",
        "beforeExpr": false,
        "startsExpr": true,
        "rightAssociative": false,
        "isLoop": false,
        "isAssign": false,
        "prefix": false,
        "postfix": false,
        "binop": null
      },
      "value": "string",
      "start": 156,
      "end": 162,
      "loc": {
        "start": {
          "line": 16,
          "column": 9
        },
        "end": {
          "line": 16,
          "column": 15
        }
      }
    },
    {
      "type": {
        "label": ",",
        "beforeExpr": true,
        "startsExpr": false,
        "rightAssociative": false,
        "isLoop": false,
        "isAssign": false,
        "prefix": false,
        "postfix": false,
        "binop": null,
        "updateContext": null
      },
      "start": 162,
      "end": 163,
      "loc": {
        "start": {
          "line": 16,
          "column": 15
        },
        "end": {
          "line": 16,
          "column": 16
        }
      }
    },
    {
      "type": {
        "label": "name",
        "beforeExpr": false,
        "startsExpr": true,
        "rightAssociative": false,
        "isLoop": false,
        "isAssign": false,
        "prefix": false,
        "postfix": false,
        "binop": null
      },
      "value": "membershipEndDate",
      "start": 166,
      "end": 183,
      "loc": {
        "start": {
          "line": 17,
          "column": 2
        },
        "end": {
          "line": 17,
          "column": 19
        }
      }
    },
    {
      "type": {
        "label": ":",
        "beforeExpr": true,
        "startsExpr": false,
        "rightAssociative": false,
        "isLoop": false,
        "isAssign": false,
        "prefix": false,
        "postfix": false,
        "binop": null,
        "updateContext": null
      },
      "start": 183,
      "end": 184,
      "loc": {
        "start": {
          "line": 17,
          "column": 19
        },
        "end": {
          "line": 17,
          "column": 20
        }
      }
    },
    {
      "type": {
        "label": "name",
        "beforeExpr": false,
        "startsExpr": true,
        "rightAssociative": false,
        "isLoop": false,
        "isAssign": false,
        "prefix": false,
        "postfix": false,
        "binop": null
      },
      "value": "string",
      "start": 185,
      "end": 191,
      "loc": {
        "start": {
          "line": 17,
          "column": 21
        },
        "end": {
          "line": 17,
          "column": 27
        }
      }
    },
    {
      "type": {
        "label": ",",
        "beforeExpr": true,
        "startsExpr": false,
        "rightAssociative": false,
        "isLoop": false,
        "isAssign": false,
        "prefix": false,
        "postfix": false,
        "binop": null,
        "updateContext": null
      },
      "start": 191,
      "end": 192,
      "loc": {
        "start": {
          "line": 17,
          "column": 27
        },
        "end": {
          "line": 17,
          "column": 28
        }
      }
    },
    {
      "type": {
        "label": "name",
        "beforeExpr": false,
        "startsExpr": true,
        "rightAssociative": false,
        "isLoop": false,
        "isAssign": false,
        "prefix": false,
        "postfix": false,
        "binop": null
      },
      "value": "membershipNumber",
      "start": 195,
      "end": 211,
      "loc": {
        "start": {
          "line": 18,
          "column": 2
        },
        "end": {
          "line": 18,
          "column": 18
        }
      }
    },
    {
      "type": {
        "label": ":",
        "beforeExpr": true,
        "startsExpr": false,
        "rightAssociative": false,
        "isLoop": false,
        "isAssign": false,
        "prefix": false,
        "postfix": false,
        "binop": null,
        "updateContext": null
      },
      "start": 211,
      "end": 212,
      "loc": {
        "start": {
          "line": 18,
          "column": 18
        },
        "end": {
          "line": 18,
          "column": 19
        }
      }
    },
    {
      "type": {
        "label": "name",
        "beforeExpr": false,
        "startsExpr": true,
        "rightAssociative": false,
        "isLoop": false,
        "isAssign": false,
        "prefix": false,
        "postfix": false,
        "binop": null
      },
      "value": "string",
      "start": 213,
      "end": 219,
      "loc": {
        "start": {
          "line": 18,
          "column": 20
        },
        "end": {
          "line": 18,
          "column": 26
        }
      }
    },
    {
      "type": {
        "label": ",",
        "beforeExpr": true,
        "startsExpr": false,
        "rightAssociative": false,
        "isLoop": false,
        "isAssign": false,
        "prefix": false,
        "postfix": false,
        "binop": null,
        "updateContext": null
      },
      "start": 219,
      "end": 220,
      "loc": {
        "start": {
          "line": 18,
          "column": 26
        },
        "end": {
          "line": 18,
          "column": 27
        }
      }
    },
    {
      "type": {
        "label": "name",
        "beforeExpr": false,
        "startsExpr": true,
        "rightAssociative": false,
        "isLoop": false,
        "isAssign": false,
        "prefix": false,
        "postfix": false,
        "binop": null
      },
      "value": "nextLevel",
      "start": 223,
      "end": 232,
      "loc": {
        "start": {
          "line": 19,
          "column": 2
        },
        "end": {
          "line": 19,
          "column": 11
        }
      }
    },
    {
      "type": {
        "label": ":",
        "beforeExpr": true,
        "startsExpr": false,
        "rightAssociative": false,
        "isLoop": false,
        "isAssign": false,
        "prefix": false,
        "postfix": false,
        "binop": null,
        "updateContext": null
      },
      "start": 232,
      "end": 233,
      "loc": {
        "start": {
          "line": 19,
          "column": 11
        },
        "end": {
          "line": 19,
          "column": 12
        }
      }
    },
    {
      "type": {
        "label": "name",
        "beforeExpr": false,
        "startsExpr": true,
        "rightAssociative": false,
        "isLoop": false,
        "isAssign": false,
        "prefix": false,
        "postfix": false,
        "binop": null
      },
      "value": "string",
      "start": 234,
      "end": 240,
      "loc": {
        "start": {
          "line": 19,
          "column": 13
        },
        "end": {
          "line": 19,
          "column": 19
        }
      }
    },
    {
      "type": {
        "label": ",",
        "beforeExpr": true,
        "startsExpr": false,
        "rightAssociative": false,
        "isLoop": false,
        "isAssign": false,
        "prefix": false,
        "postfix": false,
        "binop": null,
        "updateContext": null
      },
      "start": 240,
      "end": 241,
      "loc": {
        "start": {
          "line": 19,
          "column": 19
        },
        "end": {
          "line": 19,
          "column": 20
        }
      }
    },
    {
      "type": {
        "label": "name",
        "beforeExpr": false,
        "startsExpr": true,
        "rightAssociative": false,
        "isLoop": false,
        "isAssign": false,
        "prefix": false,
        "postfix": false,
        "binop": null
      },
      "value": "points",
      "start": 244,
      "end": 250,
      "loc": {
        "start": {
          "line": 20,
          "column": 2
        },
        "end": {
          "line": 20,
          "column": 8
        }
      }
    },
    {
      "type": {
        "label": ":",
        "beforeExpr": true,
        "startsExpr": false,
        "rightAssociative": false,
        "isLoop": false,
        "isAssign": false,
        "prefix": false,
        "postfix": false,
        "binop": null,
        "updateContext": null
      },
      "start": 250,
      "end": 251,
      "loc": {
        "start": {
          "line": 20,
          "column": 8
        },
        "end": {
          "line": 20,
          "column": 9
        }
      }
    },
    {
      "type": {
        "label": "name",
        "beforeExpr": false,
        "startsExpr": true,
        "rightAssociative": false,
        "isLoop": false,
        "isAssign": false,
        "prefix": false,
        "postfix": false,
        "binop": null
      },
      "value": "number",
      "start": 252,
      "end": 258,
      "loc": {
        "start": {
          "line": 20,
          "column": 10
        },
        "end": {
          "line": 20,
          "column": 16
        }
      }
    },
    {
      "type": {
        "label": ",",
        "beforeExpr": true,
        "startsExpr": false,
        "rightAssociative": false,
        "isLoop": false,
        "isAssign": false,
        "prefix": false,
        "postfix": false,
        "binop": null,
        "updateContext": null
      },
      "start": 258,
      "end": 259,
      "loc": {
        "start": {
          "line": 20,
          "column": 16
        },
        "end": {
          "line": 20,
          "column": 17
        }
      }
    },
    {
      "type": {
        "label": "name",
        "beforeExpr": false,
        "startsExpr": true,
        "rightAssociative": false,
        "isLoop": false,
        "isAssign": false,
        "prefix": false,
        "postfix": false,
        "binop": null
      },
      "value": "pointsToMaintainStatus",
      "start": 262,
      "end": 284,
      "loc": {
        "start": {
          "line": 21,
          "column": 2
        },
        "end": {
          "line": 21,
          "column": 24
        }
      }
    },
    {
      "type": {
        "label": ":",
        "beforeExpr": true,
        "startsExpr": false,
        "rightAssociative": false,
        "isLoop": false,
        "isAssign": false,
        "prefix": false,
        "postfix": false,
        "binop": null,
        "updateContext": null
      },
      "start": 284,
      "end": 285,
      "loc": {
        "start": {
          "line": 21,
          "column": 24
        },
        "end": {
          "line": 21,
          "column": 25
        }
      }
    },
    {
      "type": {
        "label": "name",
        "beforeExpr": false,
        "startsExpr": true,
        "rightAssociative": false,
        "isLoop": false,
        "isAssign": false,
        "prefix": false,
        "postfix": false,
        "binop": null
      },
      "value": "number",
      "start": 286,
      "end": 292,
      "loc": {
        "start": {
          "line": 21,
          "column": 26
        },
        "end": {
          "line": 21,
          "column": 32
        }
      }
    },
    {
      "type": {
        "label": ",",
        "beforeExpr": true,
        "startsExpr": false,
        "rightAssociative": false,
        "isLoop": false,
        "isAssign": false,
        "prefix": false,
        "postfix": false,
        "binop": null,
        "updateContext": null
      },
      "start": 292,
      "end": 293,
      "loc": {
        "start": {
          "line": 21,
          "column": 32
        },
        "end": {
          "line": 21,
          "column": 33
        }
      }
    },
    {
      "type": {
        "label": "name",
        "beforeExpr": false,
        "startsExpr": true,
        "rightAssociative": false,
        "isLoop": false,
        "isAssign": false,
        "prefix": false,
        "postfix": false,
        "binop": null
      },
      "value": "pointsToNextStatus",
      "start": 296,
      "end": 314,
      "loc": {
        "start": {
          "line": 22,
          "column": 2
        },
        "end": {
          "line": 22,
          "column": 20
        }
      }
    },
    {
      "type": {
        "label": ":",
        "beforeExpr": true,
        "startsExpr": false,
        "rightAssociative": false,
        "isLoop": false,
        "isAssign": false,
        "prefix": false,
        "postfix": false,
        "binop": null,
        "updateContext": null
      },
      "start": 314,
      "end": 315,
      "loc": {
        "start": {
          "line": 22,
          "column": 20
        },
        "end": {
          "line": 22,
          "column": 21
        }
      }
    },
    {
      "type": {
        "label": "name",
        "beforeExpr": false,
        "startsExpr": true,
        "rightAssociative": false,
        "isLoop": false,
        "isAssign": false,
        "prefix": false,
        "postfix": false,
        "binop": null
      },
      "value": "number",
      "start": 316,
      "end": 322,
      "loc": {
        "start": {
          "line": 22,
          "column": 22
        },
        "end": {
          "line": 22,
          "column": 28
        }
      }
    },
    {
      "type": {
        "label": ",",
        "beforeExpr": true,
        "startsExpr": false,
        "rightAssociative": false,
        "isLoop": false,
        "isAssign": false,
        "prefix": false,
        "postfix": false,
        "binop": null,
        "updateContext": null
      },
      "start": 322,
      "end": 323,
      "loc": {
        "start": {
          "line": 22,
          "column": 28
        },
        "end": {
          "line": 22,
          "column": 29
        }
      }
    },
    {
      "type": {
        "label": "name",
        "beforeExpr": false,
        "startsExpr": true,
        "rightAssociative": false,
        "isLoop": false,
        "isAssign": false,
        "prefix": false,
        "postfix": false,
        "binop": null
      },
      "value": "username",
      "start": 326,
      "end": 334,
      "loc": {
        "start": {
          "line": 23,
          "column": 2
        },
        "end": {
          "line": 23,
          "column": 10
        }
      }
    },
    {
      "type": {
        "label": ":",
        "beforeExpr": true,
        "startsExpr": false,
        "rightAssociative": false,
        "isLoop": false,
        "isAssign": false,
        "prefix": false,
        "postfix": false,
        "binop": null,
        "updateContext": null
      },
      "start": 334,
      "end": 335,
      "loc": {
        "start": {
          "line": 23,
          "column": 10
        },
        "end": {
          "line": 23,
          "column": 11
        }
      }
    },
    {
      "type": {
        "label": "name",
        "beforeExpr": false,
        "startsExpr": true,
        "rightAssociative": false,
        "isLoop": false,
        "isAssign": false,
        "prefix": false,
        "postfix": false,
        "binop": null
      },
      "value": "string",
      "start": 336,
      "end": 342,
      "loc": {
        "start": {
          "line": 23,
          "column": 12
        },
        "end": {
          "line": 23,
          "column": 18
        }
      }
    },
    {
      "type": {
        "label": ",",
        "beforeExpr": true,
        "startsExpr": false,
        "rightAssociative": false,
        "isLoop": false,
        "isAssign": false,
        "prefix": false,
        "postfix": false,
        "binop": null,
        "updateContext": null
      },
      "start": 342,
      "end": 343,
      "loc": {
        "start": {
          "line": 23,
          "column": 18
        },
        "end": {
          "line": 23,
          "column": 19
        }
      }
    },
    {
      "type": {
        "label": "}",
        "beforeExpr": false,
        "startsExpr": false,
        "rightAssociative": false,
        "isLoop": false,
        "isAssign": false,
        "prefix": false,
        "postfix": false,
        "binop": null
      },
      "start": 344,
      "end": 345,
      "loc": {
        "start": {
          "line": 24,
          "column": 0
        },
        "end": {
          "line": 24,
          "column": 1
        }
      }
    },
    {
      "type": {
        "label": ";",
        "beforeExpr": true,
        "startsExpr": false,
        "rightAssociative": false,
        "isLoop": false,
        "isAssign": false,
        "prefix": false,
        "postfix": false,
        "binop": null,
        "updateContext": null
      },
      "start": 345,
      "end": 346,
      "loc": {
        "start": {
          "line": 24,
          "column": 1
        },
        "end": {
          "line": 24,
          "column": 2
        }
      }
    },
    {
      "type": {
        "label": "eof",
        "beforeExpr": false,
        "startsExpr": false,
        "rightAssociative": false,
        "isLoop": false,
        "isAssign": false,
        "prefix": false,
        "postfix": false,
        "binop": null,
        "updateContext": null
      },
      "start": 347,
      "end": 347,
      "loc": {
        "start": {
          "line": 25,
          "column": 0
        },
        "end": {
          "line": 25,
          "column": 0
        }
      }
    }
  ]
}
