<?xml version="1.0" encoding="UTF-8"?>
<svg width="19px" height="22px" viewBox="0 0 19 22" version="1.1" xmlns="http://www.w3.org/2000/svg" xmlns:xlink="http://www.w3.org/1999/xlink">
    <!-- Generator: sketchtool 64 (101010) - https://sketch.com -->
    <title>EA57EB8D-99BE-490A-9F7D-EA3ABBA29367</title>
    <desc>Created with sketchtool.</desc>
    <defs>
        <linearGradient x1="15.2771918%" y1="0%" x2="84.7228082%" y2="100%" id="linearGradient-1">
            <stop stop-color="#00A3AD" offset="0%"></stop>
            <stop stop-color="#00A3E0" offset="62.3521959%"></stop>
            <stop stop-color="#0957C3" offset="100%"></stop>
        </linearGradient>
    </defs>
    <g id="Assessments" stroke="none" stroke-width="1" fill="none" fill-rule="evenodd">
        <g id="5a-Assessments" transform="translate(-103.000000, -742.000000)" fill="url(#linearGradient-1)">
            <g id="Navigation-Copy" transform="translate(0.000000, 727.000000)">
                <g id="Shortcut-Grid-Item-Copy-24" transform="translate(81.750000, 15.500000)">
                    <g id="Icons/Green/Watch" transform="translate(20.333333, 0.000000)">
                        <path d="M10.4149305,1.0658141e-14 C11.5893377,1.0658141e-14 12.6764768,0.620071058 13.2743297,1.63091436 C13.3114794,1.69561825 13.3802771,1.73564002 13.4548867,1.73594997 L13.4548867,1.73594997 L17.7952011,1.73594997 C18.514328,1.73594997 19.0972955,2.31891746 19.0972955,3.03804429 L19.0972955,3.03804429 L19.0972955,19.531239 C19.0972955,20.2503658 18.514328,20.8333333 17.7952011,20.8333333 L17.7952011,20.8333333 L3.03813219,20.8333333 C2.31900535,20.8333333 1.73603787,20.2503658 1.73603787,19.531239 L1.73603787,19.531239 L1.73603787,3.03804429 C1.73603787,2.31891746 2.31900535,1.73594997 3.03813219,1.73594997 L3.03813219,1.73594997 L7.37844659,1.73594997 C7.45181094,1.73441838 7.51900947,1.69456043 7.55553141,1.63091436 C8.15338432,0.620071058 9.24052334,1.0658141e-14 10.4149305,1.0658141e-14 Z M16.0590754,4.34013861 L4.77425795,4.34013861 C4.534549,4.34013861 4.34022651,4.53446111 4.34022651,4.77417005 L4.34022651,4.77417005 L4.34022651,17.7942452 C4.34022651,18.0339541 4.534549,18.2282772 4.77425795,18.2282772 L4.77425795,18.2282772 L12.657137,18.2282772 C13.2912203,18.2287525 13.893795,17.9518853 14.3064564,17.4704577 L14.3064564,17.4704577 L15.9722691,15.5259969 C16.3086328,15.1326637 16.4933536,14.6320703 16.4931071,14.1145266 L16.4931071,14.1145266 L16.4931071,4.77417005 C16.4931071,4.53446111 16.2987843,4.34013861 16.0590754,4.34013861 L16.0590754,4.34013861 Z M10.8506981,13.2369151 C11.2102615,13.2369151 11.5017453,13.5283988 11.5017453,13.8879622 C11.5017453,14.2475256 11.2102615,14.5390094 10.8506981,14.5390094 L10.8506981,14.5390094 L6.94441515,14.5390094 C6.58485173,14.5390094 6.29336799,14.2475256 6.29336799,13.8879622 C6.29336799,13.5283988 6.58485173,13.2369151 6.94441515,13.2369151 L6.94441515,13.2369151 Z M13.8889182,10.198695 C14.2484816,10.198695 14.5399653,10.4901787 14.5399653,10.8497422 C14.5399653,11.2093056 14.2484816,11.5007893 13.8889182,11.5007893 L13.8889182,11.5007893 L6.94441515,11.5007893 C6.58485173,11.5007893 6.29336799,11.2093056 6.29336799,10.8497422 C6.29336799,10.4901787 6.58485173,10.198695 6.94441515,10.198695 L6.94441515,10.198695 Z M13.8889182,7.16047491 C14.2484816,7.16047491 14.5399653,7.45195865 14.5399653,7.81152207 C14.5399653,8.17108549 14.2484816,8.46256923 13.8889182,8.46256923 L13.8889182,8.46256923 L6.94441515,8.46256923 C6.58485173,8.46256923 6.29336799,8.17108549 6.29336799,7.81152207 C6.29336799,7.45195865 6.58485173,7.16047491 6.94441515,7.16047491 L6.94441515,7.16047491 Z" id="Combined-Shape"></path>
                    </g>
                </g>
            </g>
        </g>
    </g>
</svg>