<?xml version="1.0" encoding="UTF-8"?>
<svg width="21px" height="22px" viewBox="0 0 21 22" version="1.1" xmlns="http://www.w3.org/2000/svg" xmlns:xlink="http://www.w3.org/1999/xlink">
    <!-- Generator: sketchtool 64 (101010) - https://sketch.com -->
    <title>8F34C479-52AC-4F51-9D90-D3099705F348</title>
    <desc>Created with sketchtool.</desc>
    <g id="Dashboard" stroke="none" stroke-width="1" fill="none" fill-rule="evenodd">
        <g id="1a-Dasboard" transform="translate(-177.000000, -742.000000)" fill="#7A8999">
            <g id="Navigation" transform="translate(0.000000, 727.000000)">
                <g id="Shortcut-Grid-Item-Copy-25" transform="translate(160.750000, 15.500000)">
                    <g id="Icons/Green/Watch" transform="translate(16.333333, 0.000000)">
                        <path d="M0.651041667,0 C1.00002675,0 1.28487848,0.274587471 1.30133258,0.61949811 L1.30208333,0.651041667 L1.302,1.302 L11.0677083,1.30208333 C12.1309798,1.30208333 12.9958075,2.15172153 13.0202999,3.20910614 L13.02,5.208 L19.53125,5.20833333 C20.0447291,5.20833333 20.5102544,5.51011604 20.7198753,5.97885684 C20.9231423,6.43338946 20.8489726,6.96260339 20.533598,7.34161882 L20.5033261,7.37670462 L17.0306901,11.2877604 C16.8187625,11.5259845 16.8114546,11.8809743 17.0089244,12.1274287 L17.0308654,12.153409 L20.5032978,16.0598955 C20.8435211,16.4430215 20.9274212,16.9900636 20.7176554,17.4575417 C20.5138829,17.9116633 20.0697903,18.2086805 19.5742361,18.225783 L19.5303819,18.2265625 L8.50510133,18.2278616 C8.49135945,18.2287273 8.47750187,18.2291667 8.46354167,18.2291667 L8.422,18.226 L7.8125,18.2265625 C6.74922858,18.2265625 5.88440079,17.3769243 5.85990842,16.3195397 L5.859,14.322 L1.302,14.322 L1.30208333,20.1822917 C1.30208333,20.5418521 1.01060205,20.8333333 0.651041667,20.8333333 C0.302056588,20.8333333 0.0172048498,20.5587459 0.00075075536,20.2138352 L3.02227379e-15,0.651041667 C3.02227379e-15,0.291481283 0.291481283,0 0.651041667,0 Z M9.18132719,14.3219592 L7.161,14.322 L7.16145833,16.2734375 C7.16145833,16.6224226 7.4360458,16.9072743 7.78095644,16.9237284 L7.8125,16.9244792 L7.85905587,16.9242633 C8.00465419,15.9108935 8.48365465,15.0052154 9.18132719,14.3219592 Z M13.0208333,13.671875 C13.0208333,13.7402553 13.0102912,13.8061734 12.9907435,13.8680927 C12.9877497,13.877579 12.9845226,13.8870312 12.981087,13.8963828 C12.9739117,13.9159141 12.9658263,13.9350078 12.9568827,13.9536109 C12.948708,13.9706183 12.9397877,13.9872637 12.9301855,14.0034571 C12.9242527,14.0134774 12.9178249,14.0236745 12.9111274,14.0336756 C12.9028493,14.0460097 12.8945771,14.0575055 12.8859481,14.0687124 C12.8740171,14.0842436 12.8609127,14.0997491 12.8471228,14.1146096 C12.8396879,14.1226049 12.8325631,14.1299159 12.8252711,14.1370567 C12.8115558,14.1505114 12.7968057,14.1637257 12.7814738,14.1762549 C12.7716254,14.1842901 12.7619596,14.1917364 12.7520843,14.198912 C12.7361841,14.2104824 12.7193494,14.2215833 12.7019943,14.2319004 C12.6913846,14.2382046 12.6807024,14.2441524 12.6698409,14.2498029 C12.6531099,14.258513 12.6357855,14.2665872 12.6180678,14.273902 C12.605639,14.2790273 12.5932725,14.2836914 12.5807334,14.2879834 C12.5649037,14.2934166 12.5482773,14.298391 12.5313868,14.3027048 C12.5142344,14.3070751 12.4971798,14.3107011 12.4798929,14.3136456 C12.468393,14.3156116 12.4563975,14.3173213 12.4443013,14.3186995 C12.4298993,14.3203333 12.415678,14.3214817 12.4013352,14.3221659 L12.3697917,14.3229167 L12.3697917,14.3229167 C10.7960105,14.3229167 9.48307815,15.4397431 9.18031041,16.9240801 L19.5294643,16.9244048 L16.0578515,13.0186632 C15.4107153,12.2912288 15.3995578,11.2008751 16.0239863,10.4613682 L16.0574378,10.4227745 L19.5309524,6.51041667 L13.02,6.51 L13.0208333,13.671875 L13.0208333,13.671875 Z M11.0992519,2.60491742 L1.302,2.604 L1.302,13.02 L6.482974,13.0187971 C6.49207456,13.0184197 6.50122336,13.0182292 6.51041667,13.0182292 L6.535,13.02 L11.71875,13.0208333 L11.71875,3.25520833 C11.71875,2.90622325 11.4441625,2.62137152 11.0992519,2.60491742 Z" id="Combined-Shape"></path>
                    </g>
                </g>
            </g>
        </g>
    </g>
</svg>