<?xml version="1.0" encoding="UTF-8"?>
<svg width="30px" height="31px" viewBox="0 0 30 31" version="1.1" xmlns="http://www.w3.org/2000/svg" xmlns:xlink="http://www.w3.org/1999/xlink">
    <title>418F9AE9-B462-4340-BB3E-FCCF73DBAA41</title>
    <defs>
        <linearGradient x1="0%" y1="11.7196209%" x2="100%" y2="88.2803791%" id="linearGradient-1">
            <stop stop-color="#00A3AD" offset="0%"></stop>
            <stop stop-color="#00A3E0" offset="62.3521959%"></stop>
            <stop stop-color="#0957C3" offset="100%"></stop>
        </linearGradient>
    </defs>
    <g id="Challenges" stroke="none" stroke-width="1" fill="none" fill-rule="evenodd">
        <g id="3c1h-Challenges---Weekly-Challenge" transform="translate(-20.000000, -404.000000)" fill="url(#linearGradient-1)">
            <g id="Group-29" transform="translate(20.000000, 265.000000)">
                <g id="Group-26-Copy" transform="translate(0.000000, 136.500000)">
                    <g id="Icons/Nutrition" transform="translate(0.000000, 3.000000)">
                        <path d="M16.3801823,4.12704496 C18.2027855,2.37383937 20.7449156,1.57580665 23.2463503,1.97697236 C25.7856856,2.38421633 27.9784097,3.97841162 29.1511001,6.272645 C30.699591,9.340595 30.0904492,13.0573344 27.6436517,15.4704908 L27.6436517,15.4704908 L15.6734503,27.8393152 C15.3165469,28.208093 14.7325346,28.2196607 14.3613845,27.8739849 L14.3613845,27.8739849 L14.326146,27.8394172 L2.34599324,15.4645733 L2.28299362,15.4014571 C-0.078818275,13.0112046 -0.672653458,9.3877037 0.804530215,6.36480434 L0.804530215,6.36480434 L0.850397369,6.27245616 C2.02011268,3.98185141 4.2124549,2.38673628 6.75185718,1.97864301 C9.29125945,1.57054974 11.872991,2.39844994 13.7014953,4.20722742 L13.680955,4.18725706 L13.685,4.1921493 L14.9997314,5.39074225 L16.3127217,4.19261446 Z M22.9494286,3.82840243 C21.0006364,3.51586635 19.0196594,4.15174496 17.616847,5.54012068 L17.616847,5.54012068 L17.5892989,5.5663015 L15.6317068,7.35263553 C15.273723,7.67930154 14.7257747,7.67930154 14.3677908,7.35263553 L14.3677908,7.35263553 L12.4101987,5.5663015 L12.3097228,5.46915878 C10.9112353,4.13052763 8.96461772,3.52218933 7.04937487,3.8299774 C5.10053126,4.14316525 3.41803607,5.36732338 2.52234738,7.12129033 C1.3408554,9.4621231 1.80562803,12.2979794 3.67252404,14.1392074 L3.67252404,14.1392074 L14.9995171,25.8390613 L26.3116112,14.1509653 L26.3922815,14.0700622 C28.2045779,12.2275723 28.6447678,9.43088391 27.4793175,7.12180693 C26.5810091,5.3643907 24.8982208,4.1409385 22.9494286,3.82840243 Z M16.86451,9.11284261 C17.3984277,9.09095433 17.8968708,9.37339659 18.1533562,9.83841809 L18.1790176,9.88717006 L19.3330066,12.1864905 L23.4376458,12.1866009 C23.9402079,12.1866009 24.3504137,12.5820255 24.3741087,13.0787202 L24.3751899,13.124145 C24.3751899,13.6267072 23.9797653,14.036913 23.4830706,14.060608 L23.4376458,14.0616891 L19.0452397,14.0616891 C18.531555,14.0618538 18.0601623,13.7823605 17.8126634,13.3345896 L17.7870107,13.2859753 L16.9703955,11.6591086 L14.38177,18.1310427 C14.1820383,18.6266782 13.7195263,18.9647637 13.1899976,19.0072054 L13.1349877,19.0105356 C12.6010699,19.0324239 12.1026268,18.7499817 11.8455486,18.2837768 L11.8198237,18.2348982 L9.7331979,14.0615787 L6.56185188,14.0616891 C6.05928972,14.0616891 5.64908392,13.6662646 5.62538891,13.1695699 L5.62430777,13.124145 C5.62430777,12.6215829 6.01973233,12.2113771 6.51642702,12.1876821 L6.56185188,12.1866009 L10.0217141,12.186601 C10.5353988,12.1864363 11.0067915,12.4659295 11.254881,12.9148795 L11.2805994,12.9636247 L13.0297101,16.4621202 L15.6177277,9.99233552 C15.8174594,9.49670001 16.2799714,9.15861457 16.8095001,9.11617286 L16.86451,9.11284261 Z" id="Combined-Shape"></path>
                    </g>
                </g>
            </g>
        </g>
    </g>
</svg>