// Jest Snapshot v1, https://goo.gl/fbAQLP

exports[`Test FlexibleText  1`] = `
<View
  style={
    Array [
      Object {
        "alignItems": "flex-start",
        "flex": 1,
        "flexDirection": "column",
        "flexWrap": "wrap",
        "justifyContent": "flex-start",
        "marginBottom": 0,
      },
      Object {
        "flexDirection": "row",
      },
    ]
  }
>
  <Text
    ellipsizeMode="tail"
    numberOfLines={1}
    style={
      Array [
        Object {
          "color": "#000000",
          "fontFamily": "System",
          "fontWeight": "400",
          "textAlign": "left",
        },
        Array [
          Object {
            "fontSize": 31,
          },
          Object {
            "color": "#fff",
            "fontSize": 47,
            "fontWeight": "300",
          },
        ],
      ]
    }
  >
    Hi
  </Text>
  <Text
    ellipsizeMode="tail"
    numberOfLines={1}
    style={
      Array [
        Object {
          "color": "#000000",
          "fontFamily": "System",
          "fontWeight": "400",
          "textAlign": "left",
        },
        Array [
          Object {
            "fontSize": 31,
          },
          Object {
            "color": "#fff",
            "fontSize": 47,
            "fontWeight": "900",
          },
        ],
      ]
    }
  >
    Testing
  </Text>
</View>
`;
