<?xml version="1.0" encoding="UTF-8"?>
<svg width="26px" height="20px" viewBox="0 0 26 20" version="1.1" xmlns="http://www.w3.org/2000/svg" xmlns:xlink="http://www.w3.org/1999/xlink">
    <!-- Generator: sketchtool 64 (101010) - https://sketch.com -->
    <title>9C57A6A6-3C9E-4643-9DEA-BAB14882C1EC</title>
    <desc>Created with sketchtool.</desc>
    <defs>
        <linearGradient x1="0%" y1="21.875%" x2="100%" y2="78.125%" id="linearGradient-1">
            <stop stop-color="#00A3AD" offset="0%"></stop>
            <stop stop-color="#00A3E0" offset="62.3521959%"></stop>
            <stop stop-color="#0957C3" offset="100%"></stop>
        </linearGradient>
    </defs>
    <g id="Dashboard" stroke="none" stroke-width="1" fill="none" fill-rule="evenodd">
        <g id="1c-Dasboard" transform="translate(-214.000000, -205.000000)" fill="url(#linearGradient-1)">
            <g id="Group-58-Copy-2" transform="translate(20.000000, 120.500000)">
                <g id="Shortcut-Grid-Item-Copy-22" transform="translate(190.375000, 82.000000)">
                    <g id="Icons/Green/Watch" transform="translate(4.000000, 0.000000)">
                        <path d="M22.65625,3.125 C23.9489583,3.125 25,4.17604167 25,5.46875 L25,19.53125 C25,20.8239583 23.9489583,21.875 22.65625,21.875 L2.34375,21.875 C1.05104167,21.875 0,20.8239583 0,19.53125 L0,5.46875 C0,4.17604167 1.05104167,3.125 2.34375,3.125 L22.65625,3.125 Z M23.4375,9.375 L1.5625,9.375 L1.5625,19.53125 C1.5625,19.9625 1.9125,20.3125 2.34375,20.3125 L22.65625,20.3125 C23.0875,20.3125 23.4375,19.9625 23.4375,19.53125 L23.4375,9.375 Z M10.9375,15.625 C11.36875,15.625 11.71875,15.975 11.71875,16.40625 C11.71875,16.8375 11.36875,17.1875 10.9375,17.1875 L5.46875,17.1875 C5.0375,17.1875 4.6875,16.8375 4.6875,16.40625 C4.6875,15.975 5.0375,15.625 5.46875,15.625 L10.9375,15.625 Z M14.0625,12.5 C14.49375,12.5 14.84375,12.85 14.84375,13.28125 C14.84375,13.7125 14.49375,14.0625 14.0625,14.0625 L5.46875,14.0625 C5.0375,14.0625 4.6875,13.7125 4.6875,13.28125 C4.6875,12.85 5.0375,12.5 5.46875,12.5 L14.0625,12.5 Z M22.65625,4.6875 L2.34375,4.6875 C1.9125,4.6875 1.5625,5.0375 1.5625,5.46875 L1.5625,7.8125 L23.4375,7.8125 L23.4375,5.46875 C23.4375,5.0375 23.0875,4.6875 22.65625,4.6875 Z" id="Combined-Shape"></path>
                    </g>
                </g>
            </g>
        </g>
    </g>
</svg>