<?xml version="1.0" encoding="UTF-8"?>
<svg width="26px" height="26px" viewBox="0 0 26 26" version="1.1" xmlns="http://www.w3.org/2000/svg" xmlns:xlink="http://www.w3.org/1999/xlink">
    <!-- Generator: sketchtool 64 (101010) - https://sketch.com -->
    <title>9BA811A4-58AD-42DF-9607-794404F57904</title>
    <desc>Created with sketchtool.</desc>
    <defs>
        <linearGradient x1="0%" y1="0.0313932747%" x2="100%" y2="99.9686067%" id="linearGradient-1">
            <stop stop-color="#00A3AD" offset="0%"></stop>
            <stop stop-color="#00A3E0" offset="62.3521959%"></stop>
            <stop stop-color="#0957C3" offset="100%"></stop>
        </linearGradient>
    </defs>
    <g id="Dashboard" stroke="none" stroke-width="1" fill="none" fill-rule="evenodd">
        <g id="1c-Dasboard" transform="translate(-135.000000, -140.000000)" fill="url(#linearGradient-1)">
            <g id="Group-58-Copy-2" transform="translate(20.000000, 120.500000)">
                <g id="Shortcut-Grid-Item-Copy-21" transform="translate(100.625000, 20.000000)">
                    <g id="Icons/Green/Watch" transform="translate(15.000000, 0.000000)">
                        <path d="M17.969844,10.9357633 C21.8527956,10.9357633 25,14.0829677 25,17.9659193 C25,21.8488708 21.8527956,24.9960752 17.969844,24.9960752 C14.0868925,24.9960752 10.9396881,21.8488708 10.9396881,17.9659193 C10.9396881,14.0829677 14.0868925,10.9357633 17.969844,10.9357633 Z M13.9064143,0.803477628 L13.95866,0.898041109 L17.244956,7.41465027 L23.5133646,8.03581638 C23.8546146,8.06440277 24.1768508,8.20059405 24.43465,8.42232041 L24.5282154,8.50943414 C25.131361,9.11643367 25.1535958,10.081932 24.5976425,10.7162017 L24.5182472,10.8005752 L24.2287089,11.086989 C23.9220089,11.3903793 23.427433,11.3876962 23.1240427,11.0809962 C22.8408784,10.7947429 22.8243381,10.3448288 23.0727496,10.0394449 L23.1300355,9.97633003 L23.4192099,9.69027646 C23.441461,9.66823657 23.4416136,9.6323239 23.4197424,9.61031283 C23.412861,9.60338044 23.4046926,9.59832132 23.3925887,9.59507029 L23.3711501,9.59154166 L16.6638605,8.92706173 C16.4274022,8.90363621 16.2161883,8.77417448 16.0876322,8.57805886 L16.0434104,8.50146802 L12.5656735,1.60530122 C12.5477816,1.57029925 12.5044955,1.5563316 12.4682425,1.57490711 L12.4514346,1.58713329 L12.4399346,1.60191959 L8.95506029,8.50188748 C8.84800501,8.71385438 8.65125921,8.8641217 8.422145,8.91339506 L8.33482185,8.92706173 L1.6155388,9.59263654 C1.58379748,9.59528762 1.55989779,9.62351843 1.56237888,9.65407947 L1.56749653,9.67365186 L1.5796477,9.69045006 L7.09962202,15.1614737 C7.27759151,15.3378649 7.3588092,15.5873286 7.32233657,15.8315319 L7.3031017,15.9227086 L5.26763354,23.3506053 C5.258271,23.3859387 5.27892275,23.421529 5.31404473,23.4308356 L5.33856266,23.4325197 L5.36462854,23.4243671 L9.25673118,21.4965421 C9.64331325,21.3050614 10.1119257,21.4632223 10.3034064,21.8498044 C10.4829196,22.2122251 10.3551306,22.6467428 10.0199219,22.8574171 L9.95014416,22.8964796 L6.06066629,24.8229984 C5.70505961,25.0008017 5.29705997,25.0427554 4.91343517,24.9408549 C4.07776843,24.7194225 3.56753629,23.886986 3.73574377,23.0451205 L3.75920777,22.9440899 L5.67550644,15.9495721 L0.48150684,10.8016333 C0.236621428,10.5603228 0.0765289056,10.2485827 0.0212094432,9.9104893 L0.00541490568,9.78255507 C-0.0641779811,8.92617593 0.545015362,8.1704848 1.37312195,8.04846221 L1.47351609,8.03689522 L7.75330809,7.41465027 L11.0486209,0.891396039 C11.1862027,0.62494018 11.3930781,0.401560348 11.6460576,0.246180632 L11.7572325,0.183825263 C12.5281835,-0.21123918 13.467234,0.0660218044 13.9064143,0.803477628 Z M17.969844,12.4980202 C14.9497032,12.4980202 12.5019449,14.9457784 12.5019449,17.9659193 C12.5019449,20.9860601 14.9497032,23.4338183 17.969844,23.4338183 C20.9899849,23.4338183 23.4377431,20.9860601 23.4377431,17.9659193 C23.4377431,14.9457784 20.9899849,12.4980202 17.969844,12.4980202 Z M17.969844,14.060277 C18.3742865,14.060277 18.706938,14.3676509 18.7469396,14.7615396 L18.7509725,14.8414055 L18.75,17.1839248 L21.0943578,17.1847908 C21.5257631,17.1847908 21.8754862,17.5345139 21.8754862,17.9659193 C21.8754862,18.3703617 21.5681124,18.7030132 21.1742236,18.7430148 L21.0943578,18.7470477 L18.75,18.7469248 L18.7509725,21.090433 C18.7509725,21.5218383 18.4012494,21.8715615 17.969844,21.8715615 C17.5654015,21.8715615 17.23275,21.5641876 17.1927485,21.1702989 L17.1887156,21.090433 L17.188,18.7469248 L14.8453303,18.7470477 C14.4139249,18.7470477 14.0642018,18.3973246 14.0642018,17.9659193 C14.0642018,17.5614768 14.3715757,17.2288253 14.7654644,17.1888237 L14.8453303,17.1847908 L17.188,17.1839248 L17.1887156,14.8414055 C17.1887156,14.4100002 17.5384387,14.060277 17.969844,14.060277 Z" id="Combined-Shape"></path>
                    </g>
                </g>
            </g>
        </g>
    </g>
</svg>