<?xml version="1.0" encoding="UTF-8"?>
<svg width="26px" height="26px" viewBox="0 0 26 26" version="1.1" xmlns="http://www.w3.org/2000/svg" xmlns:xlink="http://www.w3.org/1999/xlink">
    <!-- Generator: sketchtool 64 (101010) - https://sketch.com -->
    <title>A1E61FDB-307C-442E-AB92-CF4287472E38</title>
    <desc>Created with sketchtool.</desc>
    <defs>
        <linearGradient x1="0%" y1="0.142510959%" x2="100%" y2="99.857489%" id="linearGradient-1">
            <stop stop-color="#00A3AD" offset="0%"></stop>
            <stop stop-color="#00A3E0" offset="62.3521959%"></stop>
            <stop stop-color="#0957C3" offset="100%"></stop>
        </linearGradient>
    </defs>
    <g id="Dashboard" stroke="none" stroke-width="1" fill="none" fill-rule="evenodd">
        <g id="1c-Dasboard" transform="translate(-135.000000, -202.000000)" fill="url(#linearGradient-1)">
            <g id="Group-58-Copy-2" transform="translate(20.000000, 120.500000)">
                <g id="Shortcut-Grid-Item-Copy-16" transform="translate(107.625000, 82.000000)">
                    <g id="Icons/Green/Watch" transform="translate(8.000000, 0.000000)">
                        <path d="M8.61714739,0.0178265813 C9.04800451,0.0178265813 9.39728323,0.367105293 9.39728323,0.79796242 C9.39728323,1.20189098 9.09029998,1.53411975 8.69691175,1.57407051 L8.61714739,1.57809826 L4.71646819,1.57809826 C4.31295616,1.57809826 3.98036293,1.88547199 3.94036499,2.27854296 L3.93633236,2.3582341 L3.93631536,5.72722571 C5.09343092,5.06651388 6.43715827,4.69176297 7.8714455,4.69919911 C8.16239252,4.71216323 8.45241948,4.7411629 8.73834063,4.78612631 C9.16396701,4.85305949 9.4547453,5.2523579 9.38781212,5.67798428 C9.32087894,6.10361066 8.92158052,6.39438895 8.49595414,6.32745576 C8.26771417,6.29156319 8.03561649,6.26835584 7.83305432,6.25881011 C6.29449602,6.2510057 4.88317879,6.80063734 3.79049898,7.71819837 C3.72391365,7.81447484 3.63527164,7.89370124 3.53246856,7.95041068 C2.32569092,9.08019869 1.56958787,10.6851296 1.5604555,12.4685911 C1.55129368,14.2747484 2.31033876,15.9055534 3.53098767,17.0513645 C3.63557248,17.1064421 3.72452052,17.1860551 3.79247041,17.2816373 C4.86774139,18.1861508 6.25446173,18.7334243 7.77010339,18.7411827 C10.9614149,18.7568264 13.6497821,16.3645744 14.003863,13.1935625 C14.0516761,12.7653666 14.4375577,12.4570054 14.8657537,12.5048185 C15.2939496,12.5526316 15.6023108,12.9385132 15.5544977,13.3667092 C15.349994,15.1981654 14.522547,16.8218215 13.2980001,18.0367984 L13.2979624,22.6417659 C13.2979624,23.8922115 12.3162222,24.9142887 11.0818112,24.978928 L10.9575549,24.9821734 L4.71646819,24.9821734 C3.46602262,24.9821734 2.44394542,24.0004332 2.37930614,22.7660222 L2.37606068,22.6417659 L2.376113,18.1060164 C0.901450746,16.6785417 -0.0110783484,14.6750309 0.000101565546,12.4606391 C0.0113376725,10.2764875 0.918848462,8.30653247 2.37625563,6.89778078 L2.37606068,2.3582341 C2.37606068,1.10778852 3.35780093,0.085711319 4.59221187,0.0210720462 L4.71646819,0.0178265813 L8.61714739,0.0178265813 Z M7.76228584,20.3015302 C6.36997925,20.2943723 5.06471208,19.9230084 3.9363458,19.2781896 L3.93633236,22.6417659 C3.93633236,23.0452779 4.24370609,23.3778712 4.63677705,23.4178691 L4.71646819,23.4219017 L10.9575549,23.4219017 C11.3610669,23.4219017 11.6936602,23.114528 11.7336581,22.721457 L11.7376907,22.6417659 L11.7378043,19.2364924 C10.5672919,19.921381 9.20594129,20.3085724 7.76228584,20.3015302 Z M22.6595925,0.0178265813 C23.9517196,0.0178265813 25,1.066107 25,2.3582341 L25,2.3582341 L25,8.59932081 C25,9.8914479 23.9517196,10.9397283 22.6595925,10.9397283 L22.6595925,10.9397283 L13.2979624,10.9397283 C12.0058353,10.9397283 10.9575549,9.8914479 10.9575549,8.59932081 L10.9575549,8.59932081 L10.9575549,2.3582341 C10.9575549,1.066107 12.0058353,0.0178265813 13.2979624,0.0178265813 L13.2979624,0.0178265813 Z M19.7743381,4.89835639 L18.7188793,8.06588558 C18.5168919,8.67184779 17.7228961,8.78333105 17.3552665,8.28854609 L17.3098165,8.22056155 L15.7007808,5.53869188 L15.5560088,5.82766481 C15.4370749,6.06553261 15.2063744,6.22454964 14.9460087,6.25397437 L14.8582341,6.25891329 L12.517,6.25882658 L12.5178266,8.59932081 C12.5178266,8.99386591 12.811691,9.32060913 13.1921959,9.37232644 L13.2979624,9.37945665 L22.6595925,9.37945665 C23.0900053,9.37945665 23.4397283,9.02973365 23.4397283,8.59932081 L23.4397283,8.59932081 L23.439,6.25882658 L21.0993208,6.25891329 C20.8674622,6.25891329 20.6492396,6.15591154 20.5019888,5.98059323 L20.4502086,5.91151895 L19.7743381,4.89835639 Z M22.6595925,1.57809826 L13.2979624,1.57809826 C12.8675496,1.57809826 12.5178266,1.92782126 12.5178266,2.3582341 L12.5178266,2.3582341 L12.517,4.69782658 L14.375174,4.69864161 L14.9405952,3.56961842 C15.203385,3.04403879 15.9212122,2.99303953 16.2613926,3.44859973 L16.3073309,3.5171292 L17.7746939,5.96308578 L18.7989473,2.89166932 C18.995313,2.30257207 19.7575893,2.17601992 20.1386504,2.63885012 L20.1881614,2.70562843 L21.5168495,4.69864161 L23.439,4.69782658 L23.4397283,2.3582341 C23.4397283,1.96368899 23.1458639,1.63694577 22.765359,1.58522846 L22.6595925,1.57809826 Z" id="Combined-Shape"></path>
                    </g>
                </g>
            </g>
        </g>
    </g>
</svg>