{
  "type": "File",
  "start": 0,
  "end": 434,
  "loc": {
    "start": {
      "line": 1,
      "column": 0
    },
    "end": {
      "line": 29,
      "column": 0
    }
  },
  "program": {
    "type": "Program",
    "start": 0,
    "end": 434,
    "loc": {
      "start": {
        "line": 1,
        "column": 0
      },
      "end": {
        "line": 29,
        "column": 0
      }
    },
    "sourceType": "module",
    "body": [
      {
        "type": "ImportDeclaration",
        "start": 36,
        "end": 76,
        "loc": {
          "start": {
            "line": 9,
            "column": 0
          },
          "end": {
            "line": 9,
            "column": 40
          }
        },
        "specifiers": [
          {
            "type": "ImportSpecifier",
            "start": 44,
            "end": 54,
            "loc": {
              "start": {
                "line": 9,
                "column": 8
              },
              "end": {
                "line": 9,
                "column": 18
              }
            },
            "imported": {
              "type": "Identifier",
              "start": 44,
              "end": 54,
              "loc": {
                "start": {
                  "line": 9,
                  "column": 8
                },
                "end": {
                  "line": 9,
                  "column": 18
                },
                "identifierName": "StyleSheet"
              },
              "name": "StyleSheet",
              "leadingComments": null
            },
            "importKind": null,
            "local": {
              "type": "Identifier",
              "start": 44,
              "end": 54,
              "loc": {
                "start": {
                  "line": 9,
                  "column": 8
                },
                "end": {
                  "line": 9,
                  "column": 18
                },
                "identifierName": "StyleSheet"
              },
              "name": "StyleSheet"
            },
            "leadingComments": null
          }
        ],
        "importKind": "value",
        "source": {
          "type": "StringLiteral",
          "start": 61,
          "end": 75,
          "loc": {
            "start": {
              "line": 9,
              "column": 25
            },
            "end": {
              "line": 9,
              "column": 39
            }
          },
          "extra": {
            "rawValue": "react-native",
            "raw": "'react-native'"
          },
          "value": "react-native"
        },
        "leadingComments": [
          {
            "type": "CommentBlock",
            "value": "*\n *\n * @format\n *\n ",
            "start": 0,
            "end": 24,
            "loc": {
              "start": {
                "line": 1,
                "column": 0
              },
              "end": {
                "line": 5,
                "column": 3
              }
            }
          },
          {
            "type": "CommentLine",
            "value": " @flow",
            "start": 26,
            "end": 34,
            "loc": {
              "start": {
                "line": 7,
                "column": 0
              },
              "end": {
                "line": 7,
                "column": 8
              }
            }
          }
        ]
      },
      {
        "type": "ImportDeclaration",
        "start": 77,
        "end": 134,
        "loc": {
          "start": {
            "line": 10,
            "column": 0
          },
          "end": {
            "line": 10,
            "column": 57
          }
        },
        "specifiers": [
          {
            "type": "ImportSpecifier",
            "start": 85,
            "end": 92,
            "loc": {
              "start": {
                "line": 10,
                "column": 8
              },
              "end": {
                "line": 10,
                "column": 15
              }
            },
            "imported": {
              "type": "Identifier",
              "start": 85,
              "end": 92,
              "loc": {
                "start": {
                  "line": 10,
                  "column": 8
                },
                "end": {
                  "line": 10,
                  "column": 15
                },
                "identifierName": "RFValue"
              },
              "name": "RFValue"
            },
            "importKind": null,
            "local": {
              "type": "Identifier",
              "start": 85,
              "end": 92,
              "loc": {
                "start": {
                  "line": 10,
                  "column": 8
                },
                "end": {
                  "line": 10,
                  "column": 15
                },
                "identifierName": "RFValue"
              },
              "name": "RFValue"
            }
          }
        ],
        "importKind": "value",
        "source": {
          "type": "StringLiteral",
          "start": 99,
          "end": 133,
          "loc": {
            "start": {
              "line": 10,
              "column": 22
            },
            "end": {
              "line": 10,
              "column": 56
            }
          },
          "extra": {
            "rawValue": "react-native-responsive-fontsize",
            "raw": "'react-native-responsive-fontsize'"
          },
          "value": "react-native-responsive-fontsize"
        }
      },
      {
        "type": "Identifier",
        "start": 136,
        "end": 400,
        "loc": {
          "start": {
            "line": 12,
            "column": 0
          },
          "end": {
            "line": 26,
            "column": 3
          }
        },
        "declarations": [
          {
            "type": "VariableDeclarator",
            "start": 142,
            "end": 399,
            "loc": {
              "start": {
                "line": 12,
                "column": 6
              },
              "end": {
                "line": 26,
                "column": 2
              }
            },
            "id": {
              "type": "Identifier",
              "start": 142,
              "end": 157,
              "loc": {
                "start": {
                  "line": 12,
                  "column": 6
                },
                "end": {
                  "line": 12,
                  "column": 21
                },
                "identifierName": "SedentaryStyles"
              },
              "name": "SedentaryStyles"
            },
            "init": {
              "type": "CallExpression",
              "start": 160,
              "end": 399,
              "loc": {
                "start": {
                  "line": 12,
                  "column": 24
                },
                "end": {
                  "line": 26,
                  "column": 2
                }
              },
              "callee": {
                "type": "MemberExpression",
                "start": 160,
                "end": 177,
                "loc": {
                  "start": {
                    "line": 12,
                    "column": 24
                  },
                  "end": {
                    "line": 12,
                    "column": 41
                  }
                },
                "object": {
                  "type": "Identifier",
                  "start": 160,
                  "end": 170,
                  "loc": {
                    "start": {
                      "line": 12,
                      "column": 24
                    },
                    "end": {
                      "line": 12,
                      "column": 34
                    },
                    "identifierName": "StyleSheet"
                  },
                  "name": "StyleSheet"
                },
                "property": {
                  "type": "Identifier",
                  "start": 171,
                  "end": 177,
                  "loc": {
                    "start": {
                      "line": 12,
                      "column": 35
                    },
                    "end": {
                      "line": 12,
                      "column": 41
                    },
                    "identifierName": "create"
                  },
                  "name": "create"
                },
                "computed": false
              },
              "arguments": [
                {
                  "type": "ObjectExpression",
                  "start": 178,
                  "end": 398,
                  "loc": {
                    "start": {
                      "line": 12,
                      "column": 42
                    },
                    "end": {
                      "line": 26,
                      "column": 1
                    }
                  },
                  "properties": [
                    {
                      "type": "ObjectProperty",
                      "start": 182,
                      "end": 226,
                      "loc": {
                        "start": {
                          "line": 13,
                          "column": 2
                        },
                        "end": {
                          "line": 15,
                          "column": 3
                        }
                      },
                      "method": false,
                      "shorthand": false,
                      "computed": false,
                      "key": {
                        "type": "Identifier",
                        "start": 182,
                        "end": 199,
                        "loc": {
                          "start": {
                            "line": 13,
                            "column": 2
                          },
                          "end": {
                            "line": 13,
                            "column": 19
                          },
                          "identifierName": "exerciseContainer"
                        },
                        "name": "exerciseContainer"
                      },
                      "value": {
                        "type": "ObjectExpression",
                        "start": 201,
                        "end": 226,
                        "loc": {
                          "start": {
                            "line": 13,
                            "column": 21
                          },
                          "end": {
                            "line": 15,
                            "column": 3
                          }
                        },
                        "properties": [
                          {
                            "type": "ObjectProperty",
                            "start": 207,
                            "end": 221,
                            "loc": {
                              "start": {
                                "line": 14,
                                "column": 4
                              },
                              "end": {
                                "line": 14,
                                "column": 18
                              }
                            },
                            "method": false,
                            "shorthand": false,
                            "computed": false,
                            "key": {
                              "type": "Identifier",
                              "start": 207,
                              "end": 217,
                              "loc": {
                                "start": {
                                  "line": 14,
                                  "column": 4
                                },
                                "end": {
                                  "line": 14,
                                  "column": 14
                                },
                                "identifierName": "paddingTop"
                              },
                              "name": "paddingTop"
                            },
                            "value": {
                              "type": "NumericLiteral",
                              "start": 219,
                              "end": 221,
                              "loc": {
                                "start": {
                                  "line": 14,
                                  "column": 16
                                },
                                "end": {
                                  "line": 14,
                                  "column": 18
                                }
                              },
                              "extra": {
                                "rawValue": 20,
                                "raw": "20"
                              },
                              "value": 20
                            }
                          }
                        ]
                      }
                    },
                    {
                      "type": "ObjectProperty",
                      "start": 230,
                      "end": 276,
                      "loc": {
                        "start": {
                          "line": 16,
                          "column": 2
                        },
                        "end": {
                          "line": 18,
                          "column": 3
                        }
                      },
                      "method": false,
                      "shorthand": false,
                      "computed": false,
                      "key": {
                        "type": "Identifier",
                        "start": 230,
                        "end": 242,
                        "loc": {
                          "start": {
                            "line": 16,
                            "column": 2
                          },
                          "end": {
                            "line": 16,
                            "column": 14
                          },
                          "identifierName": "exerciseText"
                        },
                        "name": "exerciseText"
                      },
                      "value": {
                        "type": "ObjectExpression",
                        "start": 244,
                        "end": 276,
                        "loc": {
                          "start": {
                            "line": 16,
                            "column": 16
                          },
                          "end": {
                            "line": 18,
                            "column": 3
                          }
                        },
                        "properties": [
                          {
                            "type": "ObjectProperty",
                            "start": 250,
                            "end": 271,
                            "loc": {
                              "start": {
                                "line": 17,
                                "column": 4
                              },
                              "end": {
                                "line": 17,
                                "column": 25
                              }
                            },
                            "method": false,
                            "shorthand": false,
                            "computed": false,
                            "key": {
                              "type": "Identifier",
                              "start": 250,
                              "end": 258,
                              "loc": {
                                "start": {
                                  "line": 17,
                                  "column": 4
                                },
                                "end": {
                                  "line": 17,
                                  "column": 12
                                },
                                "identifierName": "fontSize"
                              },
                              "name": "fontSize"
                            },
                            "value": {
                              "type": "CallExpression",
                              "start": 260,
                              "end": 271,
                              "loc": {
                                "start": {
                                  "line": 17,
                                  "column": 14
                                },
                                "end": {
                                  "line": 17,
                                  "column": 25
                                }
                              },
                              "callee": {
                                "type": "Identifier",
                                "start": 260,
                                "end": 267,
                                "loc": {
                                  "start": {
                                    "line": 17,
                                    "column": 14
                                  },
                                  "end": {
                                    "line": 17,
                                    "column": 21
                                  },
                                  "identifierName": "RFValue"
                                },
                                "name": "RFValue"
                              },
                              "arguments": [
                                {
                                  "type": "NumericLiteral",
                                  "start": 268,
                                  "end": 270,
                                  "loc": {
                                    "start": {
                                      "line": 17,
                                      "column": 22
                                    },
                                    "end": {
                                      "line": 17,
                                      "column": 24
                                    }
                                  },
                                  "extra": {
                                    "rawValue": 24,
                                    "raw": "24"
                                  },
                                  "value": 24
                                }
                              ]
                            }
                          }
                        ]
                      }
                    },
                    {
                      "type": "ObjectProperty",
                      "start": 280,
                      "end": 325,
                      "loc": {
                        "start": {
                          "line": 19,
                          "column": 2
                        },
                        "end": {
                          "line": 21,
                          "column": 3
                        }
                      },
                      "method": false,
                      "shorthand": false,
                      "computed": false,
                      "key": {
                        "type": "Identifier",
                        "start": 280,
                        "end": 298,
                        "loc": {
                          "start": {
                            "line": 19,
                            "column": 2
                          },
                          "end": {
                            "line": 19,
                            "column": 20
                          },
                          "identifierName": "sedentaryContainer"
                        },
                        "name": "sedentaryContainer"
                      },
                      "value": {
                        "type": "ObjectExpression",
                        "start": 300,
                        "end": 325,
                        "loc": {
                          "start": {
                            "line": 19,
                            "column": 22
                          },
                          "end": {
                            "line": 21,
                            "column": 3
                          }
                        },
                        "properties": [
                          {
                            "type": "ObjectProperty",
                            "start": 306,
                            "end": 320,
                            "loc": {
                              "start": {
                                "line": 20,
                                "column": 4
                              },
                              "end": {
                                "line": 20,
                                "column": 18
                              }
                            },
                            "method": false,
                            "shorthand": false,
                            "computed": false,
                            "key": {
                              "type": "Identifier",
                              "start": 306,
                              "end": 316,
                              "loc": {
                                "start": {
                                  "line": 20,
                                  "column": 4
                                },
                                "end": {
                                  "line": 20,
                                  "column": 14
                                },
                                "identifierName": "paddingTop"
                              },
                              "name": "paddingTop"
                            },
                            "value": {
                              "type": "NumericLiteral",
                              "start": 318,
                              "end": 320,
                              "loc": {
                                "start": {
                                  "line": 20,
                                  "column": 16
                                },
                                "end": {
                                  "line": 20,
                                  "column": 18
                                }
                              },
                              "extra": {
                                "rawValue": 20,
                                "raw": "20"
                              },
                              "value": 20
                            }
                          }
                        ]
                      }
                    },
                    {
                      "type": "ObjectProperty",
                      "start": 329,
                      "end": 395,
                      "loc": {
                        "start": {
                          "line": 22,
                          "column": 2
                        },
                        "end": {
                          "line": 25,
                          "column": 3
                        }
                      },
                      "method": false,
                      "shorthand": false,
                      "computed": false,
                      "key": {
                        "type": "Identifier",
                        "start": 329,
                        "end": 342,
                        "loc": {
                          "start": {
                            "line": 22,
                            "column": 2
                          },
                          "end": {
                            "line": 22,
                            "column": 15
                          },
                          "identifierName": "sedentaryText"
                        },
                        "name": "sedentaryText"
                      },
                      "value": {
                        "type": "ObjectExpression",
                        "start": 344,
                        "end": 395,
                        "loc": {
                          "start": {
                            "line": 22,
                            "column": 17
                          },
                          "end": {
                            "line": 25,
                            "column": 3
                          }
                        },
                        "properties": [
                          {
                            "type": "ObjectProperty",
                            "start": 350,
                            "end": 371,
                            "loc": {
                              "start": {
                                "line": 23,
                                "column": 4
                              },
                              "end": {
                                "line": 23,
                                "column": 25
                              }
                            },
                            "method": false,
                            "shorthand": false,
                            "computed": false,
                            "key": {
                              "type": "Identifier",
                              "start": 350,
                              "end": 358,
                              "loc": {
                                "start": {
                                  "line": 23,
                                  "column": 4
                                },
                                "end": {
                                  "line": 23,
                                  "column": 12
                                },
                                "identifierName": "fontSize"
                              },
                              "name": "fontSize"
                            },
                            "value": {
                              "type": "CallExpression",
                              "start": 360,
                              "end": 371,
                              "loc": {
                                "start": {
                                  "line": 23,
                                  "column": 14
                                },
                                "end": {
                                  "line": 23,
                                  "column": 25
                                }
                              },
                              "callee": {
                                "type": "Identifier",
                                "start": 360,
                                "end": 367,
                                "loc": {
                                  "start": {
                                    "line": 23,
                                    "column": 14
                                  },
                                  "end": {
                                    "line": 23,
                                    "column": 21
                                  },
                                  "identifierName": "RFValue"
                                },
                                "name": "RFValue"
                              },
                              "arguments": [
                                {
                                  "type": "NumericLiteral",
                                  "start": 368,
                                  "end": 370,
                                  "loc": {
                                    "start": {
                                      "line": 23,
                                      "column": 22
                                    },
                                    "end": {
                                      "line": 23,
                                      "column": 24
                                    }
                                  },
                                  "extra": {
                                    "rawValue": 16,
                                    "raw": "16"
                                  },
                                  "value": 16
                                }
                              ]
                            }
                          },
                          {
                            "type": "ObjectProperty",
                            "start": 377,
                            "end": 390,
                            "loc": {
                              "start": {
                                "line": 24,
                                "column": 4
                              },
                              "end": {
                                "line": 24,
                                "column": 17
                              }
                            },
                            "method": false,
                            "shorthand": false,
                            "computed": false,
                            "key": {
                              "type": "Identifier",
                              "start": 377,
                              "end": 382,
                              "loc": {
                                "start": {
                                  "line": 24,
                                  "column": 4
                                },
                                "end": {
                                  "line": 24,
                                  "column": 9
                                },
                                "identifierName": "color"
                              },
                              "name": "color"
                            },
                            "value": {
                              "type": "StringLiteral",
                              "start": 384,
                              "end": 390,
                              "loc": {
                                "start": {
                                  "line": 24,
                                  "column": 11
                                },
                                "end": {
                                  "line": 24,
                                  "column": 17
                                }
                              },
                              "extra": {
                                "rawValue": "gray",
                                "raw": "'gray'"
                              },
                              "value": "gray"
                            }
                          }
                        ]
                      }
                    }
                  ]
                }
              ]
            }
          }
        ],
        "kind": "const",
        "name": "_",
        "leadingComments": [],
        "trailingComments": []
      },
      {
        "type": "Identifier",
        "start": 402,
        "end": 433,
        "loc": {
          "start": {
            "line": 28,
            "column": 0
          },
          "end": {
            "line": 28,
            "column": 31
          }
        },
        "declaration": {
          "type": "Identifier",
          "start": 417,
          "end": 432,
          "loc": {
            "start": {
              "line": 28,
              "column": 15
            },
            "end": {
              "line": 28,
              "column": 30
            },
            "identifierName": "SedentaryStyles"
          },
          "name": "SedentaryStyles"
        },
        "name": "_",
        "leadingComments": [],
        "trailingComments": []
      },
      {
        "type": "ExportDefaultDeclaration",
        "start": 402,
        "end": 433,
        "loc": {
          "start": {
            "line": 28,
            "column": 0
          },
          "end": {
            "line": 28,
            "column": 31
          }
        },
        "declaration": {
          "type": "VariableDeclaration",
          "start": 136,
          "end": 400,
          "loc": {
            "start": {
              "line": 12,
              "column": 0
            },
            "end": {
              "line": 26,
              "column": 3
            }
          },
          "declarations": [
            {
              "type": "VariableDeclarator",
              "start": 142,
              "end": 399,
              "loc": {
                "start": {
                  "line": 12,
                  "column": 6
                },
                "end": {
                  "line": 26,
                  "column": 2
                }
              },
              "id": {
                "type": "Identifier",
                "start": 142,
                "end": 157,
                "loc": {
                  "start": {
                    "line": 12,
                    "column": 6
                  },
                  "end": {
                    "line": 12,
                    "column": 21
                  },
                  "identifierName": "SedentaryStyles"
                },
                "name": "SedentaryStyles"
              },
              "init": {
                "type": "CallExpression",
                "start": 160,
                "end": 399,
                "loc": {
                  "start": {
                    "line": 12,
                    "column": 24
                  },
                  "end": {
                    "line": 26,
                    "column": 2
                  }
                },
                "callee": {
                  "type": "MemberExpression",
                  "start": 160,
                  "end": 177,
                  "loc": {
                    "start": {
                      "line": 12,
                      "column": 24
                    },
                    "end": {
                      "line": 12,
                      "column": 41
                    }
                  },
                  "object": {
                    "type": "Identifier",
                    "start": 160,
                    "end": 170,
                    "loc": {
                      "start": {
                        "line": 12,
                        "column": 24
                      },
                      "end": {
                        "line": 12,
                        "column": 34
                      },
                      "identifierName": "StyleSheet"
                    },
                    "name": "StyleSheet"
                  },
                  "property": {
                    "type": "Identifier",
                    "start": 171,
                    "end": 177,
                    "loc": {
                      "start": {
                        "line": 12,
                        "column": 35
                      },
                      "end": {
                        "line": 12,
                        "column": 41
                      },
                      "identifierName": "create"
                    },
                    "name": "create"
                  },
                  "computed": false
                },
                "arguments": [
                  {
                    "type": "ObjectExpression",
                    "start": 178,
                    "end": 398,
                    "loc": {
                      "start": {
                        "line": 12,
                        "column": 42
                      },
                      "end": {
                        "line": 26,
                        "column": 1
                      }
                    },
                    "properties": [
                      {
                        "type": "ObjectProperty",
                        "start": 182,
                        "end": 226,
                        "loc": {
                          "start": {
                            "line": 13,
                            "column": 2
                          },
                          "end": {
                            "line": 15,
                            "column": 3
                          }
                        },
                        "method": false,
                        "shorthand": false,
                        "computed": false,
                        "key": {
                          "type": "Identifier",
                          "start": 182,
                          "end": 199,
                          "loc": {
                            "start": {
                              "line": 13,
                              "column": 2
                            },
                            "end": {
                              "line": 13,
                              "column": 19
                            },
                            "identifierName": "exerciseContainer"
                          },
                          "name": "exerciseContainer"
                        },
                        "value": {
                          "type": "ObjectExpression",
                          "start": 201,
                          "end": 226,
                          "loc": {
                            "start": {
                              "line": 13,
                              "column": 21
                            },
                            "end": {
                              "line": 15,
                              "column": 3
                            }
                          },
                          "properties": [
                            {
                              "type": "ObjectProperty",
                              "start": 207,
                              "end": 221,
                              "loc": {
                                "start": {
                                  "line": 14,
                                  "column": 4
                                },
                                "end": {
                                  "line": 14,
                                  "column": 18
                                }
                              },
                              "method": false,
                              "shorthand": false,
                              "computed": false,
                              "key": {
                                "type": "Identifier",
                                "start": 207,
                                "end": 217,
                                "loc": {
                                  "start": {
                                    "line": 14,
                                    "column": 4
                                  },
                                  "end": {
                                    "line": 14,
                                    "column": 14
                                  },
                                  "identifierName": "paddingTop"
                                },
                                "name": "paddingTop"
                              },
                              "value": {
                                "type": "NumericLiteral",
                                "start": 219,
                                "end": 221,
                                "loc": {
                                  "start": {
                                    "line": 14,
                                    "column": 16
                                  },
                                  "end": {
                                    "line": 14,
                                    "column": 18
                                  }
                                },
                                "extra": {
                                  "rawValue": 20,
                                  "raw": "20"
                                },
                                "value": 20
                              }
                            }
                          ]
                        }
                      },
                      {
                        "type": "ObjectProperty",
                        "start": 230,
                        "end": 276,
                        "loc": {
                          "start": {
                            "line": 16,
                            "column": 2
                          },
                          "end": {
                            "line": 18,
                            "column": 3
                          }
                        },
                        "method": false,
                        "shorthand": false,
                        "computed": false,
                        "key": {
                          "type": "Identifier",
                          "start": 230,
                          "end": 242,
                          "loc": {
                            "start": {
                              "line": 16,
                              "column": 2
                            },
                            "end": {
                              "line": 16,
                              "column": 14
                            },
                            "identifierName": "exerciseText"
                          },
                          "name": "exerciseText"
                        },
                        "value": {
                          "type": "ObjectExpression",
                          "start": 244,
                          "end": 276,
                          "loc": {
                            "start": {
                              "line": 16,
                              "column": 16
                            },
                            "end": {
                              "line": 18,
                              "column": 3
                            }
                          },
                          "properties": [
                            {
                              "type": "ObjectProperty",
                              "start": 250,
                              "end": 271,
                              "loc": {
                                "start": {
                                  "line": 17,
                                  "column": 4
                                },
                                "end": {
                                  "line": 17,
                                  "column": 25
                                }
                              },
                              "method": false,
                              "shorthand": false,
                              "computed": false,
                              "key": {
                                "type": "Identifier",
                                "start": 250,
                                "end": 258,
                                "loc": {
                                  "start": {
                                    "line": 17,
                                    "column": 4
                                  },
                                  "end": {
                                    "line": 17,
                                    "column": 12
                                  },
                                  "identifierName": "fontSize"
                                },
                                "name": "fontSize"
                              },
                              "value": {
                                "type": "CallExpression",
                                "start": 260,
                                "end": 271,
                                "loc": {
                                  "start": {
                                    "line": 17,
                                    "column": 14
                                  },
                                  "end": {
                                    "line": 17,
                                    "column": 25
                                  }
                                },
                                "callee": {
                                  "type": "Identifier",
                                  "start": 260,
                                  "end": 267,
                                  "loc": {
                                    "start": {
                                      "line": 17,
                                      "column": 14
                                    },
                                    "end": {
                                      "line": 17,
                                      "column": 21
                                    },
                                    "identifierName": "RFValue"
                                  },
                                  "name": "RFValue"
                                },
                                "arguments": [
                                  {
                                    "type": "NumericLiteral",
                                    "start": 268,
                                    "end": 270,
                                    "loc": {
                                      "start": {
                                        "line": 17,
                                        "column": 22
                                      },
                                      "end": {
                                        "line": 17,
                                        "column": 24
                                      }
                                    },
                                    "extra": {
                                      "rawValue": 24,
                                      "raw": "24"
                                    },
                                    "value": 24
                                  }
                                ]
                              }
                            }
                          ]
                        }
                      },
                      {
                        "type": "ObjectProperty",
                        "start": 280,
                        "end": 325,
                        "loc": {
                          "start": {
                            "line": 19,
                            "column": 2
                          },
                          "end": {
                            "line": 21,
                            "column": 3
                          }
                        },
                        "method": false,
                        "shorthand": false,
                        "computed": false,
                        "key": {
                          "type": "Identifier",
                          "start": 280,
                          "end": 298,
                          "loc": {
                            "start": {
                              "line": 19,
                              "column": 2
                            },
                            "end": {
                              "line": 19,
                              "column": 20
                            },
                            "identifierName": "sedentaryContainer"
                          },
                          "name": "sedentaryContainer"
                        },
                        "value": {
                          "type": "ObjectExpression",
                          "start": 300,
                          "end": 325,
                          "loc": {
                            "start": {
                              "line": 19,
                              "column": 22
                            },
                            "end": {
                              "line": 21,
                              "column": 3
                            }
                          },
                          "properties": [
                            {
                              "type": "ObjectProperty",
                              "start": 306,
                              "end": 320,
                              "loc": {
                                "start": {
                                  "line": 20,
                                  "column": 4
                                },
                                "end": {
                                  "line": 20,
                                  "column": 18
                                }
                              },
                              "method": false,
                              "shorthand": false,
                              "computed": false,
                              "key": {
                                "type": "Identifier",
                                "start": 306,
                                "end": 316,
                                "loc": {
                                  "start": {
                                    "line": 20,
                                    "column": 4
                                  },
                                  "end": {
                                    "line": 20,
                                    "column": 14
                                  },
                                  "identifierName": "paddingTop"
                                },
                                "name": "paddingTop"
                              },
                              "value": {
                                "type": "NumericLiteral",
                                "start": 318,
                                "end": 320,
                                "loc": {
                                  "start": {
                                    "line": 20,
                                    "column": 16
                                  },
                                  "end": {
                                    "line": 20,
                                    "column": 18
                                  }
                                },
                                "extra": {
                                  "rawValue": 20,
                                  "raw": "20"
                                },
                                "value": 20
                              }
                            }
                          ]
                        }
                      },
                      {
                        "type": "ObjectProperty",
                        "start": 329,
                        "end": 395,
                        "loc": {
                          "start": {
                            "line": 22,
                            "column": 2
                          },
                          "end": {
                            "line": 25,
                            "column": 3
                          }
                        },
                        "method": false,
                        "shorthand": false,
                        "computed": false,
                        "key": {
                          "type": "Identifier",
                          "start": 329,
                          "end": 342,
                          "loc": {
                            "start": {
                              "line": 22,
                              "column": 2
                            },
                            "end": {
                              "line": 22,
                              "column": 15
                            },
                            "identifierName": "sedentaryText"
                          },
                          "name": "sedentaryText"
                        },
                        "value": {
                          "type": "ObjectExpression",
                          "start": 344,
                          "end": 395,
                          "loc": {
                            "start": {
                              "line": 22,
                              "column": 17
                            },
                            "end": {
                              "line": 25,
                              "column": 3
                            }
                          },
                          "properties": [
                            {
                              "type": "ObjectProperty",
                              "start": 350,
                              "end": 371,
                              "loc": {
                                "start": {
                                  "line": 23,
                                  "column": 4
                                },
                                "end": {
                                  "line": 23,
                                  "column": 25
                                }
                              },
                              "method": false,
                              "shorthand": false,
                              "computed": false,
                              "key": {
                                "type": "Identifier",
                                "start": 350,
                                "end": 358,
                                "loc": {
                                  "start": {
                                    "line": 23,
                                    "column": 4
                                  },
                                  "end": {
                                    "line": 23,
                                    "column": 12
                                  },
                                  "identifierName": "fontSize"
                                },
                                "name": "fontSize"
                              },
                              "value": {
                                "type": "CallExpression",
                                "start": 360,
                                "end": 371,
                                "loc": {
                                  "start": {
                                    "line": 23,
                                    "column": 14
                                  },
                                  "end": {
                                    "line": 23,
                                    "column": 25
                                  }
                                },
                                "callee": {
                                  "type": "Identifier",
                                  "start": 360,
                                  "end": 367,
                                  "loc": {
                                    "start": {
                                      "line": 23,
                                      "column": 14
                                    },
                                    "end": {
                                      "line": 23,
                                      "column": 21
                                    },
                                    "identifierName": "RFValue"
                                  },
                                  "name": "RFValue"
                                },
                                "arguments": [
                                  {
                                    "type": "NumericLiteral",
                                    "start": 368,
                                    "end": 370,
                                    "loc": {
                                      "start": {
                                        "line": 23,
                                        "column": 22
                                      },
                                      "end": {
                                        "line": 23,
                                        "column": 24
                                      }
                                    },
                                    "extra": {
                                      "rawValue": 16,
                                      "raw": "16"
                                    },
                                    "value": 16
                                  }
                                ]
                              }
                            },
                            {
                              "type": "ObjectProperty",
                              "start": 377,
                              "end": 390,
                              "loc": {
                                "start": {
                                  "line": 24,
                                  "column": 4
                                },
                                "end": {
                                  "line": 24,
                                  "column": 17
                                }
                              },
                              "method": false,
                              "shorthand": false,
                              "computed": false,
                              "key": {
                                "type": "Identifier",
                                "start": 377,
                                "end": 382,
                                "loc": {
                                  "start": {
                                    "line": 24,
                                    "column": 4
                                  },
                                  "end": {
                                    "line": 24,
                                    "column": 9
                                  },
                                  "identifierName": "color"
                                },
                                "name": "color"
                              },
                              "value": {
                                "type": "StringLiteral",
                                "start": 384,
                                "end": 390,
                                "loc": {
                                  "start": {
                                    "line": 24,
                                    "column": 11
                                  },
                                  "end": {
                                    "line": 24,
                                    "column": 17
                                  }
                                },
                                "extra": {
                                  "rawValue": "gray",
                                  "raw": "'gray'"
                                },
                                "value": "gray"
                              }
                            }
                          ]
                        }
                      }
                    ]
                  }
                ]
              }
            }
          ],
          "kind": "const",
          "leadingComments": [],
          "trailingComments": []
        }
      }
    ],
    "directives": []
  },
  "comments": [
    {
      "type": "CommentBlock",
      "value": "*\n *\n * @format\n *\n ",
      "start": 0,
      "end": 24,
      "loc": {
        "start": {
          "line": 1,
          "column": 0
        },
        "end": {
          "line": 5,
          "column": 3
        }
      }
    },
    {
      "type": "CommentLine",
      "value": " @flow",
      "start": 26,
      "end": 34,
      "loc": {
        "start": {
          "line": 7,
          "column": 0
        },
        "end": {
          "line": 7,
          "column": 8
        }
      }
    }
  ],
  "tokens": [
    {
      "type": "CommentBlock",
      "value": "*\n *\n * @format\n *\n ",
      "start": 0,
      "end": 24,
      "loc": {
        "start": {
          "line": 1,
          "column": 0
        },
        "end": {
          "line": 5,
          "column": 3
        }
      }
    },
    {
      "type": "CommentLine",
      "value": " @flow",
      "start": 26,
      "end": 34,
      "loc": {
        "start": {
          "line": 7,
          "column": 0
        },
        "end": {
          "line": 7,
          "column": 8
        }
      }
    },
    {
      "type": {
        "label": "import",
        "keyword": "import",
        "beforeExpr": false,
        "startsExpr": true,
        "rightAssociative": false,
        "isLoop": false,
        "isAssign": false,
        "prefix": false,
        "postfix": false,
        "binop": null,
        "updateContext": null
      },
      "value": "import",
      "start": 36,
      "end": 42,
      "loc": {
        "start": {
          "line": 9,
          "column": 0
        },
        "end": {
          "line": 9,
          "column": 6
        }
      }
    },
    {
      "type": {
        "label": "{",
        "beforeExpr": true,
        "startsExpr": true,
        "rightAssociative": false,
        "isLoop": false,
        "isAssign": false,
        "prefix": false,
        "postfix": false,
        "binop": null
      },
      "start": 43,
      "end": 44,
      "loc": {
        "start": {
          "line": 9,
          "column": 7
        },
        "end": {
          "line": 9,
          "column": 8
        }
      }
    },
    {
      "type": {
        "label": "name",
        "beforeExpr": false,
        "startsExpr": true,
        "rightAssociative": false,
        "isLoop": false,
        "isAssign": false,
        "prefix": false,
        "postfix": false,
        "binop": null
      },
      "value": "StyleSheet",
      "start": 44,
      "end": 54,
      "loc": {
        "start": {
          "line": 9,
          "column": 8
        },
        "end": {
          "line": 9,
          "column": 18
        }
      }
    },
    {
      "type": {
        "label": "}",
        "beforeExpr": false,
        "startsExpr": false,
        "rightAssociative": false,
        "isLoop": false,
        "isAssign": false,
        "prefix": false,
        "postfix": false,
        "binop": null
      },
      "start": 54,
      "end": 55,
      "loc": {
        "start": {
          "line": 9,
          "column": 18
        },
        "end": {
          "line": 9,
          "column": 19
        }
      }
    },
    {
      "type": {
        "label": "name",
        "beforeExpr": false,
        "startsExpr": true,
        "rightAssociative": false,
        "isLoop": false,
        "isAssign": false,
        "prefix": false,
        "postfix": false,
        "binop": null
      },
      "value": "from",
      "start": 56,
      "end": 60,
      "loc": {
        "start": {
          "line": 9,
          "column": 20
        },
        "end": {
          "line": 9,
          "column": 24
        }
      }
    },
    {
      "type": {
        "label": "string",
        "beforeExpr": false,
        "startsExpr": true,
        "rightAssociative": false,
        "isLoop": false,
        "isAssign": false,
        "prefix": false,
        "postfix": false,
        "binop": null,
        "updateContext": null
      },
      "value": "react-native",
      "start": 61,
      "end": 75,
      "loc": {
        "start": {
          "line": 9,
          "column": 25
        },
        "end": {
          "line": 9,
          "column": 39
        }
      }
    },
    {
      "type": {
        "label": ";",
        "beforeExpr": true,
        "startsExpr": false,
        "rightAssociative": false,
        "isLoop": false,
        "isAssign": false,
        "prefix": false,
        "postfix": false,
        "binop": null,
        "updateContext": null
      },
      "start": 75,
      "end": 76,
      "loc": {
        "start": {
          "line": 9,
          "column": 39
        },
        "end": {
          "line": 9,
          "column": 40
        }
      }
    },
    {
      "type": {
        "label": "import",
        "keyword": "import",
        "beforeExpr": false,
        "startsExpr": true,
        "rightAssociative": false,
        "isLoop": false,
        "isAssign": false,
        "prefix": false,
        "postfix": false,
        "binop": null,
        "updateContext": null
      },
      "value": "import",
      "start": 77,
      "end": 83,
      "loc": {
        "start": {
          "line": 10,
          "column": 0
        },
        "end": {
          "line": 10,
          "column": 6
        }
      }
    },
    {
      "type": {
        "label": "{",
        "beforeExpr": true,
        "startsExpr": true,
        "rightAssociative": false,
        "isLoop": false,
        "isAssign": false,
        "prefix": false,
        "postfix": false,
        "binop": null
      },
      "start": 84,
      "end": 85,
      "loc": {
        "start": {
          "line": 10,
          "column": 7
        },
        "end": {
          "line": 10,
          "column": 8
        }
      }
    },
    {
      "type": {
        "label": "name",
        "beforeExpr": false,
        "startsExpr": true,
        "rightAssociative": false,
        "isLoop": false,
        "isAssign": false,
        "prefix": false,
        "postfix": false,
        "binop": null
      },
      "value": "RFValue",
      "start": 85,
      "end": 92,
      "loc": {
        "start": {
          "line": 10,
          "column": 8
        },
        "end": {
          "line": 10,
          "column": 15
        }
      }
    },
    {
      "type": {
        "label": "}",
        "beforeExpr": false,
        "startsExpr": false,
        "rightAssociative": false,
        "isLoop": false,
        "isAssign": false,
        "prefix": false,
        "postfix": false,
        "binop": null
      },
      "start": 92,
      "end": 93,
      "loc": {
        "start": {
          "line": 10,
          "column": 15
        },
        "end": {
          "line": 10,
          "column": 16
        }
      }
    },
    {
      "type": {
        "label": "name",
        "beforeExpr": false,
        "startsExpr": true,
        "rightAssociative": false,
        "isLoop": false,
        "isAssign": false,
        "prefix": false,
        "postfix": false,
        "binop": null
      },
      "value": "from",
      "start": 94,
      "end": 98,
      "loc": {
        "start": {
          "line": 10,
          "column": 17
        },
        "end": {
          "line": 10,
          "column": 21
        }
      }
    },
    {
      "type": {
        "label": "string",
        "beforeExpr": false,
        "startsExpr": true,
        "rightAssociative": false,
        "isLoop": false,
        "isAssign": false,
        "prefix": false,
        "postfix": false,
        "binop": null,
        "updateContext": null
      },
      "value": "react-native-responsive-fontsize",
      "start": 99,
      "end": 133,
      "loc": {
        "start": {
          "line": 10,
          "column": 22
        },
        "end": {
          "line": 10,
          "column": 56
        }
      }
    },
    {
      "type": {
        "label": ";",
        "beforeExpr": true,
        "startsExpr": false,
        "rightAssociative": false,
        "isLoop": false,
        "isAssign": false,
        "prefix": false,
        "postfix": false,
        "binop": null,
        "updateContext": null
      },
      "start": 133,
      "end": 134,
      "loc": {
        "start": {
          "line": 10,
          "column": 56
        },
        "end": {
          "line": 10,
          "column": 57
        }
      }
    },
    {
      "type": {
        "label": "const",
        "keyword": "const",
        "beforeExpr": false,
        "startsExpr": false,
        "rightAssociative": false,
        "isLoop": false,
        "isAssign": false,
        "prefix": false,
        "postfix": false,
        "binop": null,
        "updateContext": null
      },
      "value": "const",
      "start": 136,
      "end": 141,
      "loc": {
        "start": {
          "line": 12,
          "column": 0
        },
        "end": {
          "line": 12,
          "column": 5
        }
      }
    },
    {
      "type": {
        "label": "name",
        "beforeExpr": false,
        "startsExpr": true,
        "rightAssociative": false,
        "isLoop": false,
        "isAssign": false,
        "prefix": false,
        "postfix": false,
        "binop": null
      },
      "value": "SedentaryStyles",
      "start": 142,
      "end": 157,
      "loc": {
        "start": {
          "line": 12,
          "column": 6
        },
        "end": {
          "line": 12,
          "column": 21
        }
      }
    },
    {
      "type": {
        "label": "=",
        "beforeExpr": true,
        "startsExpr": false,
        "rightAssociative": false,
        "isLoop": false,
        "isAssign": true,
        "prefix": false,
        "postfix": false,
        "binop": null,
        "updateContext": null
      },
      "value": "=",
      "start": 158,
      "end": 159,
      "loc": {
        "start": {
          "line": 12,
          "column": 22
        },
        "end": {
          "line": 12,
          "column": 23
        }
      }
    },
    {
      "type": {
        "label": "name",
        "beforeExpr": false,
        "startsExpr": true,
        "rightAssociative": false,
        "isLoop": false,
        "isAssign": false,
        "prefix": false,
        "postfix": false,
        "binop": null
      },
      "value": "StyleSheet",
      "start": 160,
      "end": 170,
      "loc": {
        "start": {
          "line": 12,
          "column": 24
        },
        "end": {
          "line": 12,
          "column": 34
        }
      }
    },
    {
      "type": {
        "label": ".",
        "beforeExpr": false,
        "startsExpr": false,
        "rightAssociative": false,
        "isLoop": false,
        "isAssign": false,
        "prefix": false,
        "postfix": false,
        "binop": null,
        "updateContext": null
      },
      "start": 170,
      "end": 171,
      "loc": {
        "start": {
          "line": 12,
          "column": 34
        },
        "end": {
          "line": 12,
          "column": 35
        }
      }
    },
    {
      "type": {
        "label": "name",
        "beforeExpr": false,
        "startsExpr": true,
        "rightAssociative": false,
        "isLoop": false,
        "isAssign": false,
        "prefix": false,
        "postfix": false,
        "binop": null
      },
      "value": "create",
      "start": 171,
      "end": 177,
      "loc": {
        "start": {
          "line": 12,
          "column": 35
        },
        "end": {
          "line": 12,
          "column": 41
        }
      }
    },
    {
      "type": {
        "label": "(",
        "beforeExpr": true,
        "startsExpr": true,
        "rightAssociative": false,
        "isLoop": false,
        "isAssign": false,
        "prefix": false,
        "postfix": false,
        "binop": null
      },
      "start": 177,
      "end": 178,
      "loc": {
        "start": {
          "line": 12,
          "column": 41
        },
        "end": {
          "line": 12,
          "column": 42
        }
      }
    },
    {
      "type": {
        "label": "{",
        "beforeExpr": true,
        "startsExpr": true,
        "rightAssociative": false,
        "isLoop": false,
        "isAssign": false,
        "prefix": false,
        "postfix": false,
        "binop": null
      },
      "start": 178,
      "end": 179,
      "loc": {
        "start": {
          "line": 12,
          "column": 42
        },
        "end": {
          "line": 12,
          "column": 43
        }
      }
    },
    {
      "type": {
        "label": "name",
        "beforeExpr": false,
        "startsExpr": true,
        "rightAssociative": false,
        "isLoop": false,
        "isAssign": false,
        "prefix": false,
        "postfix": false,
        "binop": null
      },
      "value": "exerciseContainer",
      "start": 182,
      "end": 199,
      "loc": {
        "start": {
          "line": 13,
          "column": 2
        },
        "end": {
          "line": 13,
          "column": 19
        }
      }
    },
    {
      "type": {
        "label": ":",
        "beforeExpr": true,
        "startsExpr": false,
        "rightAssociative": false,
        "isLoop": false,
        "isAssign": false,
        "prefix": false,
        "postfix": false,
        "binop": null,
        "updateContext": null
      },
      "start": 199,
      "end": 200,
      "loc": {
        "start": {
          "line": 13,
          "column": 19
        },
        "end": {
          "line": 13,
          "column": 20
        }
      }
    },
    {
      "type": {
        "label": "{",
        "beforeExpr": true,
        "startsExpr": true,
        "rightAssociative": false,
        "isLoop": false,
        "isAssign": false,
        "prefix": false,
        "postfix": false,
        "binop": null
      },
      "start": 201,
      "end": 202,
      "loc": {
        "start": {
          "line": 13,
          "column": 21
        },
        "end": {
          "line": 13,
          "column": 22
        }
      }
    },
    {
      "type": {
        "label": "name",
        "beforeExpr": false,
        "startsExpr": true,
        "rightAssociative": false,
        "isLoop": false,
        "isAssign": false,
        "prefix": false,
        "postfix": false,
        "binop": null
      },
      "value": "paddingTop",
      "start": 207,
      "end": 217,
      "loc": {
        "start": {
          "line": 14,
          "column": 4
        },
        "end": {
          "line": 14,
          "column": 14
        }
      }
    },
    {
      "type": {
        "label": ":",
        "beforeExpr": true,
        "startsExpr": false,
        "rightAssociative": false,
        "isLoop": false,
        "isAssign": false,
        "prefix": false,
        "postfix": false,
        "binop": null,
        "updateContext": null
      },
      "start": 217,
      "end": 218,
      "loc": {
        "start": {
          "line": 14,
          "column": 14
        },
        "end": {
          "line": 14,
          "column": 15
        }
      }
    },
    {
      "type": {
        "label": "num",
        "beforeExpr": false,
        "startsExpr": true,
        "rightAssociative": false,
        "isLoop": false,
        "isAssign": false,
        "prefix": false,
        "postfix": false,
        "binop": null,
        "updateContext": null
      },
      "value": 20,
      "start": 219,
      "end": 221,
      "loc": {
        "start": {
          "line": 14,
          "column": 16
        },
        "end": {
          "line": 14,
          "column": 18
        }
      }
    },
    {
      "type": {
        "label": ",",
        "beforeExpr": true,
        "startsExpr": false,
        "rightAssociative": false,
        "isLoop": false,
        "isAssign": false,
        "prefix": false,
        "postfix": false,
        "binop": null,
        "updateContext": null
      },
      "start": 221,
      "end": 222,
      "loc": {
        "start": {
          "line": 14,
          "column": 18
        },
        "end": {
          "line": 14,
          "column": 19
        }
      }
    },
    {
      "type": {
        "label": "}",
        "beforeExpr": false,
        "startsExpr": false,
        "rightAssociative": false,
        "isLoop": false,
        "isAssign": false,
        "prefix": false,
        "postfix": false,
        "binop": null
      },
      "start": 225,
      "end": 226,
      "loc": {
        "start": {
          "line": 15,
          "column": 2
        },
        "end": {
          "line": 15,
          "column": 3
        }
      }
    },
    {
      "type": {
        "label": ",",
        "beforeExpr": true,
        "startsExpr": false,
        "rightAssociative": false,
        "isLoop": false,
        "isAssign": false,
        "prefix": false,
        "postfix": false,
        "binop": null,
        "updateContext": null
      },
      "start": 226,
      "end": 227,
      "loc": {
        "start": {
          "line": 15,
          "column": 3
        },
        "end": {
          "line": 15,
          "column": 4
        }
      }
    },
    {
      "type": {
        "label": "name",
        "beforeExpr": false,
        "startsExpr": true,
        "rightAssociative": false,
        "isLoop": false,
        "isAssign": false,
        "prefix": false,
        "postfix": false,
        "binop": null
      },
      "value": "exerciseText",
      "start": 230,
      "end": 242,
      "loc": {
        "start": {
          "line": 16,
          "column": 2
        },
        "end": {
          "line": 16,
          "column": 14
        }
      }
    },
    {
      "type": {
        "label": ":",
        "beforeExpr": true,
        "startsExpr": false,
        "rightAssociative": false,
        "isLoop": false,
        "isAssign": false,
        "prefix": false,
        "postfix": false,
        "binop": null,
        "updateContext": null
      },
      "start": 242,
      "end": 243,
      "loc": {
        "start": {
          "line": 16,
          "column": 14
        },
        "end": {
          "line": 16,
          "column": 15
        }
      }
    },
    {
      "type": {
        "label": "{",
        "beforeExpr": true,
        "startsExpr": true,
        "rightAssociative": false,
        "isLoop": false,
        "isAssign": false,
        "prefix": false,
        "postfix": false,
        "binop": null
      },
      "start": 244,
      "end": 245,
      "loc": {
        "start": {
          "line": 16,
          "column": 16
        },
        "end": {
          "line": 16,
          "column": 17
        }
      }
    },
    {
      "type": {
        "label": "name",
        "beforeExpr": false,
        "startsExpr": true,
        "rightAssociative": false,
        "isLoop": false,
        "isAssign": false,
        "prefix": false,
        "postfix": false,
        "binop": null
      },
      "value": "fontSize",
      "start": 250,
      "end": 258,
      "loc": {
        "start": {
          "line": 17,
          "column": 4
        },
        "end": {
          "line": 17,
          "column": 12
        }
      }
    },
    {
      "type": {
        "label": ":",
        "beforeExpr": true,
        "startsExpr": false,
        "rightAssociative": false,
        "isLoop": false,
        "isAssign": false,
        "prefix": false,
        "postfix": false,
        "binop": null,
        "updateContext": null
      },
      "start": 258,
      "end": 259,
      "loc": {
        "start": {
          "line": 17,
          "column": 12
        },
        "end": {
          "line": 17,
          "column": 13
        }
      }
    },
    {
      "type": {
        "label": "name",
        "beforeExpr": false,
        "startsExpr": true,
        "rightAssociative": false,
        "isLoop": false,
        "isAssign": false,
        "prefix": false,
        "postfix": false,
        "binop": null
      },
      "value": "RFValue",
      "start": 260,
      "end": 267,
      "loc": {
        "start": {
          "line": 17,
          "column": 14
        },
        "end": {
          "line": 17,
          "column": 21
        }
      }
    },
    {
      "type": {
        "label": "(",
        "beforeExpr": true,
        "startsExpr": true,
        "rightAssociative": false,
        "isLoop": false,
        "isAssign": false,
        "prefix": false,
        "postfix": false,
        "binop": null
      },
      "start": 267,
      "end": 268,
      "loc": {
        "start": {
          "line": 17,
          "column": 21
        },
        "end": {
          "line": 17,
          "column": 22
        }
      }
    },
    {
      "type": {
        "label": "num",
        "beforeExpr": false,
        "startsExpr": true,
        "rightAssociative": false,
        "isLoop": false,
        "isAssign": false,
        "prefix": false,
        "postfix": false,
        "binop": null,
        "updateContext": null
      },
      "value": 24,
      "start": 268,
      "end": 270,
      "loc": {
        "start": {
          "line": 17,
          "column": 22
        },
        "end": {
          "line": 17,
          "column": 24
        }
      }
    },
    {
      "type": {
        "label": ")",
        "beforeExpr": false,
        "startsExpr": false,
        "rightAssociative": false,
        "isLoop": false,
        "isAssign": false,
        "prefix": false,
        "postfix": false,
        "binop": null
      },
      "start": 270,
      "end": 271,
      "loc": {
        "start": {
          "line": 17,
          "column": 24
        },
        "end": {
          "line": 17,
          "column": 25
        }
      }
    },
    {
      "type": {
        "label": ",",
        "beforeExpr": true,
        "startsExpr": false,
        "rightAssociative": false,
        "isLoop": false,
        "isAssign": false,
        "prefix": false,
        "postfix": false,
        "binop": null,
        "updateContext": null
      },
      "start": 271,
      "end": 272,
      "loc": {
        "start": {
          "line": 17,
          "column": 25
        },
        "end": {
          "line": 17,
          "column": 26
        }
      }
    },
    {
      "type": {
        "label": "}",
        "beforeExpr": false,
        "startsExpr": false,
        "rightAssociative": false,
        "isLoop": false,
        "isAssign": false,
        "prefix": false,
        "postfix": false,
        "binop": null
      },
      "start": 275,
      "end": 276,
      "loc": {
        "start": {
          "line": 18,
          "column": 2
        },
        "end": {
          "line": 18,
          "column": 3
        }
      }
    },
    {
      "type": {
        "label": ",",
        "beforeExpr": true,
        "startsExpr": false,
        "rightAssociative": false,
        "isLoop": false,
        "isAssign": false,
        "prefix": false,
        "postfix": false,
        "binop": null,
        "updateContext": null
      },
      "start": 276,
      "end": 277,
      "loc": {
        "start": {
          "line": 18,
          "column": 3
        },
        "end": {
          "line": 18,
          "column": 4
        }
      }
    },
    {
      "type": {
        "label": "name",
        "beforeExpr": false,
        "startsExpr": true,
        "rightAssociative": false,
        "isLoop": false,
        "isAssign": false,
        "prefix": false,
        "postfix": false,
        "binop": null
      },
      "value": "sedentaryContainer",
      "start": 280,
      "end": 298,
      "loc": {
        "start": {
          "line": 19,
          "column": 2
        },
        "end": {
          "line": 19,
          "column": 20
        }
      }
    },
    {
      "type": {
        "label": ":",
        "beforeExpr": true,
        "startsExpr": false,
        "rightAssociative": false,
        "isLoop": false,
        "isAssign": false,
        "prefix": false,
        "postfix": false,
        "binop": null,
        "updateContext": null
      },
      "start": 298,
      "end": 299,
      "loc": {
        "start": {
          "line": 19,
          "column": 20
        },
        "end": {
          "line": 19,
          "column": 21
        }
      }
    },
    {
      "type": {
        "label": "{",
        "beforeExpr": true,
        "startsExpr": true,
        "rightAssociative": false,
        "isLoop": false,
        "isAssign": false,
        "prefix": false,
        "postfix": false,
        "binop": null
      },
      "start": 300,
      "end": 301,
      "loc": {
        "start": {
          "line": 19,
          "column": 22
        },
        "end": {
          "line": 19,
          "column": 23
        }
      }
    },
    {
      "type": {
        "label": "name",
        "beforeExpr": false,
        "startsExpr": true,
        "rightAssociative": false,
        "isLoop": false,
        "isAssign": false,
        "prefix": false,
        "postfix": false,
        "binop": null
      },
      "value": "paddingTop",
      "start": 306,
      "end": 316,
      "loc": {
        "start": {
          "line": 20,
          "column": 4
        },
        "end": {
          "line": 20,
          "column": 14
        }
      }
    },
    {
      "type": {
        "label": ":",
        "beforeExpr": true,
        "startsExpr": false,
        "rightAssociative": false,
        "isLoop": false,
        "isAssign": false,
        "prefix": false,
        "postfix": false,
        "binop": null,
        "updateContext": null
      },
      "start": 316,
      "end": 317,
      "loc": {
        "start": {
          "line": 20,
          "column": 14
        },
        "end": {
          "line": 20,
          "column": 15
        }
      }
    },
    {
      "type": {
        "label": "num",
        "beforeExpr": false,
        "startsExpr": true,
        "rightAssociative": false,
        "isLoop": false,
        "isAssign": false,
        "prefix": false,
        "postfix": false,
        "binop": null,
        "updateContext": null
      },
      "value": 20,
      "start": 318,
      "end": 320,
      "loc": {
        "start": {
          "line": 20,
          "column": 16
        },
        "end": {
          "line": 20,
          "column": 18
        }
      }
    },
    {
      "type": {
        "label": ",",
        "beforeExpr": true,
        "startsExpr": false,
        "rightAssociative": false,
        "isLoop": false,
        "isAssign": false,
        "prefix": false,
        "postfix": false,
        "binop": null,
        "updateContext": null
      },
      "start": 320,
      "end": 321,
      "loc": {
        "start": {
          "line": 20,
          "column": 18
        },
        "end": {
          "line": 20,
          "column": 19
        }
      }
    },
    {
      "type": {
        "label": "}",
        "beforeExpr": false,
        "startsExpr": false,
        "rightAssociative": false,
        "isLoop": false,
        "isAssign": false,
        "prefix": false,
        "postfix": false,
        "binop": null
      },
      "start": 324,
      "end": 325,
      "loc": {
        "start": {
          "line": 21,
          "column": 2
        },
        "end": {
          "line": 21,
          "column": 3
        }
      }
    },
    {
      "type": {
        "label": ",",
        "beforeExpr": true,
        "startsExpr": false,
        "rightAssociative": false,
        "isLoop": false,
        "isAssign": false,
        "prefix": false,
        "postfix": false,
        "binop": null,
        "updateContext": null
      },
      "start": 325,
      "end": 326,
      "loc": {
        "start": {
          "line": 21,
          "column": 3
        },
        "end": {
          "line": 21,
          "column": 4
        }
      }
    },
    {
      "type": {
        "label": "name",
        "beforeExpr": false,
        "startsExpr": true,
        "rightAssociative": false,
        "isLoop": false,
        "isAssign": false,
        "prefix": false,
        "postfix": false,
        "binop": null
      },
      "value": "sedentaryText",
      "start": 329,
      "end": 342,
      "loc": {
        "start": {
          "line": 22,
          "column": 2
        },
        "end": {
          "line": 22,
          "column": 15
        }
      }
    },
    {
      "type": {
        "label": ":",
        "beforeExpr": true,
        "startsExpr": false,
        "rightAssociative": false,
        "isLoop": false,
        "isAssign": false,
        "prefix": false,
        "postfix": false,
        "binop": null,
        "updateContext": null
      },
      "start": 342,
      "end": 343,
      "loc": {
        "start": {
          "line": 22,
          "column": 15
        },
        "end": {
          "line": 22,
          "column": 16
        }
      }
    },
    {
      "type": {
        "label": "{",
        "beforeExpr": true,
        "startsExpr": true,
        "rightAssociative": false,
        "isLoop": false,
        "isAssign": false,
        "prefix": false,
        "postfix": false,
        "binop": null
      },
      "start": 344,
      "end": 345,
      "loc": {
        "start": {
          "line": 22,
          "column": 17
        },
        "end": {
          "line": 22,
          "column": 18
        }
      }
    },
    {
      "type": {
        "label": "name",
        "beforeExpr": false,
        "startsExpr": true,
        "rightAssociative": false,
        "isLoop": false,
        "isAssign": false,
        "prefix": false,
        "postfix": false,
        "binop": null
      },
      "value": "fontSize",
      "start": 350,
      "end": 358,
      "loc": {
        "start": {
          "line": 23,
          "column": 4
        },
        "end": {
          "line": 23,
          "column": 12
        }
      }
    },
    {
      "type": {
        "label": ":",
        "beforeExpr": true,
        "startsExpr": false,
        "rightAssociative": false,
        "isLoop": false,
        "isAssign": false,
        "prefix": false,
        "postfix": false,
        "binop": null,
        "updateContext": null
      },
      "start": 358,
      "end": 359,
      "loc": {
        "start": {
          "line": 23,
          "column": 12
        },
        "end": {
          "line": 23,
          "column": 13
        }
      }
    },
    {
      "type": {
        "label": "name",
        "beforeExpr": false,
        "startsExpr": true,
        "rightAssociative": false,
        "isLoop": false,
        "isAssign": false,
        "prefix": false,
        "postfix": false,
        "binop": null
      },
      "value": "RFValue",
      "start": 360,
      "end": 367,
      "loc": {
        "start": {
          "line": 23,
          "column": 14
        },
        "end": {
          "line": 23,
          "column": 21
        }
      }
    },
    {
      "type": {
        "label": "(",
        "beforeExpr": true,
        "startsExpr": true,
        "rightAssociative": false,
        "isLoop": false,
        "isAssign": false,
        "prefix": false,
        "postfix": false,
        "binop": null
      },
      "start": 367,
      "end": 368,
      "loc": {
        "start": {
          "line": 23,
          "column": 21
        },
        "end": {
          "line": 23,
          "column": 22
        }
      }
    },
    {
      "type": {
        "label": "num",
        "beforeExpr": false,
        "startsExpr": true,
        "rightAssociative": false,
        "isLoop": false,
        "isAssign": false,
        "prefix": false,
        "postfix": false,
        "binop": null,
        "updateContext": null
      },
      "value": 16,
      "start": 368,
      "end": 370,
      "loc": {
        "start": {
          "line": 23,
          "column": 22
        },
        "end": {
          "line": 23,
          "column": 24
        }
      }
    },
    {
      "type": {
        "label": ")",
        "beforeExpr": false,
        "startsExpr": false,
        "rightAssociative": false,
        "isLoop": false,
        "isAssign": false,
        "prefix": false,
        "postfix": false,
        "binop": null
      },
      "start": 370,
      "end": 371,
      "loc": {
        "start": {
          "line": 23,
          "column": 24
        },
        "end": {
          "line": 23,
          "column": 25
        }
      }
    },
    {
      "type": {
        "label": ",",
        "beforeExpr": true,
        "startsExpr": false,
        "rightAssociative": false,
        "isLoop": false,
        "isAssign": false,
        "prefix": false,
        "postfix": false,
        "binop": null,
        "updateContext": null
      },
      "start": 371,
      "end": 372,
      "loc": {
        "start": {
          "line": 23,
          "column": 25
        },
        "end": {
          "line": 23,
          "column": 26
        }
      }
    },
    {
      "type": {
        "label": "name",
        "beforeExpr": false,
        "startsExpr": true,
        "rightAssociative": false,
        "isLoop": false,
        "isAssign": false,
        "prefix": false,
        "postfix": false,
        "binop": null
      },
      "value": "color",
      "start": 377,
      "end": 382,
      "loc": {
        "start": {
          "line": 24,
          "column": 4
        },
        "end": {
          "line": 24,
          "column": 9
        }
      }
    },
    {
      "type": {
        "label": ":",
        "beforeExpr": true,
        "startsExpr": false,
        "rightAssociative": false,
        "isLoop": false,
        "isAssign": false,
        "prefix": false,
        "postfix": false,
        "binop": null,
        "updateContext": null
      },
      "start": 382,
      "end": 383,
      "loc": {
        "start": {
          "line": 24,
          "column": 9
        },
        "end": {
          "line": 24,
          "column": 10
        }
      }
    },
    {
      "type": {
        "label": "string",
        "beforeExpr": false,
        "startsExpr": true,
        "rightAssociative": false,
        "isLoop": false,
        "isAssign": false,
        "prefix": false,
        "postfix": false,
        "binop": null,
        "updateContext": null
      },
      "value": "gray",
      "start": 384,
      "end": 390,
      "loc": {
        "start": {
          "line": 24,
          "column": 11
        },
        "end": {
          "line": 24,
          "column": 17
        }
      }
    },
    {
      "type": {
        "label": ",",
        "beforeExpr": true,
        "startsExpr": false,
        "rightAssociative": false,
        "isLoop": false,
        "isAssign": false,
        "prefix": false,
        "postfix": false,
        "binop": null,
        "updateContext": null
      },
      "start": 390,
      "end": 391,
      "loc": {
        "start": {
          "line": 24,
          "column": 17
        },
        "end": {
          "line": 24,
          "column": 18
        }
      }
    },
    {
      "type": {
        "label": "}",
        "beforeExpr": false,
        "startsExpr": false,
        "rightAssociative": false,
        "isLoop": false,
        "isAssign": false,
        "prefix": false,
        "postfix": false,
        "binop": null
      },
      "start": 394,
      "end": 395,
      "loc": {
        "start": {
          "line": 25,
          "column": 2
        },
        "end": {
          "line": 25,
          "column": 3
        }
      }
    },
    {
      "type": {
        "label": ",",
        "beforeExpr": true,
        "startsExpr": false,
        "rightAssociative": false,
        "isLoop": false,
        "isAssign": false,
        "prefix": false,
        "postfix": false,
        "binop": null,
        "updateContext": null
      },
      "start": 395,
      "end": 396,
      "loc": {
        "start": {
          "line": 25,
          "column": 3
        },
        "end": {
          "line": 25,
          "column": 4
        }
      }
    },
    {
      "type": {
        "label": "}",
        "beforeExpr": false,
        "startsExpr": false,
        "rightAssociative": false,
        "isLoop": false,
        "isAssign": false,
        "prefix": false,
        "postfix": false,
        "binop": null
      },
      "start": 397,
      "end": 398,
      "loc": {
        "start": {
          "line": 26,
          "column": 0
        },
        "end": {
          "line": 26,
          "column": 1
        }
      }
    },
    {
      "type": {
        "label": ")",
        "beforeExpr": false,
        "startsExpr": false,
        "rightAssociative": false,
        "isLoop": false,
        "isAssign": false,
        "prefix": false,
        "postfix": false,
        "binop": null
      },
      "start": 398,
      "end": 399,
      "loc": {
        "start": {
          "line": 26,
          "column": 1
        },
        "end": {
          "line": 26,
          "column": 2
        }
      }
    },
    {
      "type": {
        "label": ";",
        "beforeExpr": true,
        "startsExpr": false,
        "rightAssociative": false,
        "isLoop": false,
        "isAssign": false,
        "prefix": false,
        "postfix": false,
        "binop": null,
        "updateContext": null
      },
      "start": 399,
      "end": 400,
      "loc": {
        "start": {
          "line": 26,
          "column": 2
        },
        "end": {
          "line": 26,
          "column": 3
        }
      }
    },
    {
      "type": {
        "label": "export",
        "keyword": "export",
        "beforeExpr": false,
        "startsExpr": false,
        "rightAssociative": false,
        "isLoop": false,
        "isAssign": false,
        "prefix": false,
        "postfix": false,
        "binop": null,
        "updateContext": null
      },
      "value": "export",
      "start": 402,
      "end": 408,
      "loc": {
        "start": {
          "line": 28,
          "column": 0
        },
        "end": {
          "line": 28,
          "column": 6
        }
      }
    },
    {
      "type": {
        "label": "default",
        "keyword": "default",
        "beforeExpr": true,
        "startsExpr": false,
        "rightAssociative": false,
        "isLoop": false,
        "isAssign": false,
        "prefix": false,
        "postfix": false,
        "binop": null,
        "updateContext": null
      },
      "value": "default",
      "start": 409,
      "end": 416,
      "loc": {
        "start": {
          "line": 28,
          "column": 7
        },
        "end": {
          "line": 28,
          "column": 14
        }
      }
    },
    {
      "type": {
        "label": "name",
        "beforeExpr": false,
        "startsExpr": true,
        "rightAssociative": false,
        "isLoop": false,
        "isAssign": false,
        "prefix": false,
        "postfix": false,
        "binop": null
      },
      "value": "SedentaryStyles",
      "start": 417,
      "end": 432,
      "loc": {
        "start": {
          "line": 28,
          "column": 15
        },
        "end": {
          "line": 28,
          "column": 30
        }
      }
    },
    {
      "type": {
        "label": ";",
        "beforeExpr": true,
        "startsExpr": false,
        "rightAssociative": false,
        "isLoop": false,
        "isAssign": false,
        "prefix": false,
        "postfix": false,
        "binop": null,
        "updateContext": null
      },
      "start": 432,
      "end": 433,
      "loc": {
        "start": {
          "line": 28,
          "column": 30
        },
        "end": {
          "line": 28,
          "column": 31
        }
      }
    },
    {
      "type": {
        "label": "eof",
        "beforeExpr": false,
        "startsExpr": false,
        "rightAssociative": false,
        "isLoop": false,
        "isAssign": false,
        "prefix": false,
        "postfix": false,
        "binop": null,
        "updateContext": null
      },
      "start": 434,
      "end": 434,
      "loc": {
        "start": {
          "line": 29,
          "column": 0
        },
        "end": {
          "line": 29,
          "column": 0
        }
      }
    }
  ]
}
