// Jest Snapshot v1, https://goo.gl/fbAQLP

exports[`ArrowControl 1`] = `
<View
  style={
    Array [
      Object {
        "flexDirection": "row",
      },
      Object {
        "alignItems": "center",
      },
      Object {
        "justifyContent": "space-between",
      },
    ]
  }
>
  <View
    accessible={true}
    focusable={true}
    onClick={[Function]}
    onResponderGrant={[Function]}
    onResponderMove={[Function]}
    onResponderRelease={[Function]}
    onResponderTerminate={[Function]}
    onResponderTerminationRequest={[Function]}
    onStartShouldSetResponder={[Function]}
    style={
      Array [
        undefined,
        Object {
          "padding": 10,
        },
      ]
    }
  >
    <View
      style={
        Array [
          Object {},
          Object {},
          Object {},
        ]
      }
    >
      <svg
        data-file-name="SvgArrow_left_no_tail"
      />
    </View>
  </View>
  <View
    accessible={true}
    focusable={true}
    onClick={[Function]}
    onResponderGrant={[Function]}
    onResponderMove={[Function]}
    onResponderRelease={[Function]}
    onResponderTerminate={[Function]}
    onResponderTerminationRequest={[Function]}
    onStartShouldSetResponder={[Function]}
    style={
      Array [
        undefined,
        Object {
          "padding": 10,
        },
      ]
    }
  >
    <View
      style={
        Array [
          Object {},
          Object {},
          Object {},
        ]
      }
    >
      <svg
        data-file-name="SvgArrow_left_no_tail"
        style={
          Object {
            "transform": Array [
              Object {
                "rotate": "180deg",
              },
            ],
          }
        }
      />
    </View>
  </View>
</View>
`;
