// Jest Snapshot v1, https://goo.gl/fbAQLP

exports[`Test Card Variation Five 1`] = `
<View
  accessible={true}
  focusable={true}
  onClick={[Function]}
  onResponderGrant={[Function]}
  onResponderMove={[Function]}
  onResponderRelease={[Function]}
  onResponderTerminate={[Function]}
  onResponderTerminationRequest={[Function]}
  onStartShouldSetResponder={[Function]}
  style={
    Array [
      Object {
        "backgroundColor": "#fff",
        "borderRadius": 10,
        "elevation": 5,
        "marginLeft": 0,
        "marginVertical": 5,
        "overflow": "visible",
        "shadowColor": "#363e3f",
        "shadowOffset": Object {
          "height": 2,
          "width": 0,
        },
        "shadowOpacity": 0.25,
        "shadowRadius": 4,
      },
      Object {
        "flexDirection": "row",
      },
      Object {
        "borderColor": "#dee2e6",
        "borderWidth": 1,
      },
      Object {
        "marginRight": 20,
      },
      Object {
        "flex": 1,
      },
    ]
  }
>
  <Image
    source={
      Object {
        "uri": "https://reactnative.dev/img/tiny_logo.png",
      }
    }
    style={
      Array [
        Object {
          "height": 50,
          "width": 50,
        },
        Object {
          "height": 110,
          "width": 100,
        },
      ]
    }
  />
  <View
    style={
      Object {
        "height": 110,
        "width": 100,
      }
    }
  >
    <View
      style={
        Array [
          Object {},
          Object {},
          Object {},
        ]
      }
    />
  </View>
  <View
    style={
      Array [
        Object {
          "flex": 1,
          "justifyContent": "space-between",
          "padding": 15,
        },
        Object {
          "justifyContent": "space-between",
        },
      ]
    }
  >
    <View
      style={
        Array [
          Object {
            "flexDirection": "row",
          },
          Object {
            "alignItems": "center",
          },
          Object {
            "justifyContent": "space-between",
          },
        ]
      }
    >
      <Text
        style={
          Array [
            Object {
              "color": "#000000",
              "fontFamily": "System",
              "fontWeight": "400",
              "textAlign": "left",
            },
            Array [
              Object {
                "fontSize": 31,
              },
              Array [
                Object {
                  "color": "#363e3f",
                  "fontSize": 27,
                  "fontWeight": "600",
                },
                Object {
                  "flex": 1,
                },
              ],
            ],
          ]
        }
      >
        Weekly fitness challenge
      </Text>
      <View
        style={
          Array [
            Object {},
            Object {},
            Object {},
          ]
        }
      >
        <svg
          data-file-name="SvgArrow_right"
        />
      </View>
    </View>
    <View>
      <Text
        ellipsizeMode="tail"
        numberOfLines={3}
        style={
          Array [
            Object {
              "color": "#000000",
              "fontFamily": "System",
              "fontWeight": "400",
              "textAlign": "left",
            },
            Array [
              Object {
                "fontSize": 31,
              },
              Object {
                "color": "#7a8999",
                "flexWrap": "wrap",
                "fontSize": 24,
              },
            ],
          ]
        }
      >
        Terms and conditions
      </Text>
    </View>
  </View>
</View>
`;
