// Jest Snapshot v1, https://goo.gl/fbAQLP

exports[`Test DateListItem  1`] = `
<View
  style={
    Array [
      Object {
        "padding": 20,
      },
    ]
  }
>
  <View
    style={
      Array [
        Object {
          "flexDirection": "row",
        },
        Object {
          "alignItems": "center",
        },
        Object {
          "justifyContent": "space-between",
        },
      ]
    }
  >
    <View
      style={
        Array [
          Object {
            "flexDirection": "column",
          },
          Object {
            "flex": 1,
          },
        ]
      }
    >
      <Text
        style={
          Array [
            Object {
              "color": "#000000",
              "fontFamily": "System",
              "fontWeight": "400",
              "textAlign": "left",
            },
            Array [
              Object {
                "fontSize": 31,
              },
              Object {
                "color": "#7a8999",
                "fontSize": 24,
                "fontWeight": "300",
              },
            ],
          ]
        }
      >
        2020-02-20
      </Text>
      <Text
        style={
          Array [
            Object {
              "color": "#000000",
              "fontFamily": "System",
              "fontWeight": "400",
              "textAlign": "left",
            },
            Array [
              Object {
                "fontSize": 31,
              },
              Object {
                "color": "#363e3f",
                "fontSize": 27,
                "fontWeight": "600",
              },
            ],
          ]
        }
      >
        Title
      </Text>
    </View>
    <Text
      style={
        Array [
          Object {
            "color": "#000000",
            "fontFamily": "System",
            "fontWeight": "400",
            "textAlign": "left",
          },
          Array [
            Object {
              "fontSize": 31,
            },
            Object {
              "color": "#00a3ad",
              "fontSize": 27,
            },
          ],
        ]
      }
    >
      300
       
      general.points-suffix
    </Text>
  </View>
</View>
`;
