{
  "type": "File",
  "start": 0,
  "end": 285,
  "loc": {
    "start": {
      "line": 1,
      "column": 0
    },
    "end": {
      "line": 18,
      "column": 0
    }
  },
  "program": {
    "type": "Program",
    "start": 0,
    "end": 285,
    "loc": {
      "start": {
        "line": 1,
        "column": 0
      },
      "end": {
        "line": 18,
        "column": 0
      }
    },
    "sourceType": "module",
    "body": [
      {
        "type": "ImportDeclaration",
        "start": 36,
        "end": 121,
        "loc": {
          "start": {
            "line": 9,
            "column": 0
          },
          "end": {
            "line": 9,
            "column": 85
          }
        },
        "specifiers": [
          {
            "type": "ImportSpecifier",
            "start": 44,
            "end": 62,
            "loc": {
              "start": {
                "line": 9,
                "column": 8
              },
              "end": {
                "line": 9,
                "column": 26
              }
            },
            "imported": {
              "type": "Identifier",
              "start": 44,
              "end": 62,
              "loc": {
                "start": {
                  "line": 9,
                  "column": 8
                },
                "end": {
                  "line": 9,
                  "column": 26
                },
                "identifierName": "COLOR_AIA_GD_RED_1"
              },
              "name": "COLOR_AIA_GD_RED_1",
              "leadingComments": null
            },
            "importKind": null,
            "local": {
              "type": "Identifier",
              "start": 44,
              "end": 62,
              "loc": {
                "start": {
                  "line": 9,
                  "column": 8
                },
                "end": {
                  "line": 9,
                  "column": 26
                },
                "identifierName": "COLOR_AIA_GD_RED_1"
              },
              "name": "COLOR_AIA_GD_RED_1"
            },
            "leadingComments": null
          },
          {
            "type": "ImportSpecifier",
            "start": 64,
            "end": 77,
            "loc": {
              "start": {
                "line": 9,
                "column": 28
              },
              "end": {
                "line": 9,
                "column": 41
              }
            },
            "imported": {
              "type": "Identifier",
              "start": 64,
              "end": 77,
              "loc": {
                "start": {
                  "line": 9,
                  "column": 28
                },
                "end": {
                  "line": 9,
                  "column": 41
                },
                "identifierName": "COLOR_AIA_RED"
              },
              "name": "COLOR_AIA_RED"
            },
            "importKind": null,
            "local": {
              "type": "Identifier",
              "start": 64,
              "end": 77,
              "loc": {
                "start": {
                  "line": 9,
                  "column": 28
                },
                "end": {
                  "line": 9,
                  "column": 41
                },
                "identifierName": "COLOR_AIA_RED"
              },
              "name": "COLOR_AIA_RED"
            }
          },
          {
            "type": "ImportSpecifier",
            "start": 79,
            "end": 97,
            "loc": {
              "start": {
                "line": 9,
                "column": 43
              },
              "end": {
                "line": 9,
                "column": 61
              }
            },
            "imported": {
              "type": "Identifier",
              "start": 79,
              "end": 97,
              "loc": {
                "start": {
                  "line": 9,
                  "column": 43
                },
                "end": {
                  "line": 9,
                  "column": 61
                },
                "identifierName": "COLOR_AIA_GD_RED_2"
              },
              "name": "COLOR_AIA_GD_RED_2"
            },
            "importKind": null,
            "local": {
              "type": "Identifier",
              "start": 79,
              "end": 97,
              "loc": {
                "start": {
                  "line": 9,
                  "column": 43
                },
                "end": {
                  "line": 9,
                  "column": 61
                },
                "identifierName": "COLOR_AIA_GD_RED_2"
              },
              "name": "COLOR_AIA_GD_RED_2"
            }
          },
          {
            "type": "ImportSpecifier",
            "start": 99,
            "end": 104,
            "loc": {
              "start": {
                "line": 9,
                "column": 63
              },
              "end": {
                "line": 9,
                "column": 68
              }
            },
            "imported": {
              "type": "Identifier",
              "start": 99,
              "end": 104,
              "loc": {
                "start": {
                  "line": 9,
                  "column": 63
                },
                "end": {
                  "line": 9,
                  "column": 68
                },
                "identifierName": "WHITE"
              },
              "name": "WHITE"
            },
            "importKind": null,
            "local": {
              "type": "Identifier",
              "start": 99,
              "end": 104,
              "loc": {
                "start": {
                  "line": 9,
                  "column": 63
                },
                "end": {
                  "line": 9,
                  "column": 68
                },
                "identifierName": "WHITE"
              },
              "name": "WHITE"
            }
          }
        ],
        "importKind": "value",
        "source": {
          "type": "StringLiteral",
          "start": 111,
          "end": 120,
          "loc": {
            "start": {
              "line": 9,
              "column": 75
            },
            "end": {
              "line": 9,
              "column": 84
            }
          },
          "extra": {
            "rawValue": "@colors",
            "raw": "'@colors'"
          },
          "value": "@colors"
        },
        "leadingComments": [
          {
            "type": "CommentBlock",
            "value": "*\n *\n * @format\n *\n ",
            "start": 0,
            "end": 24,
            "loc": {
              "start": {
                "line": 1,
                "column": 0
              },
              "end": {
                "line": 5,
                "column": 3
              }
            }
          },
          {
            "type": "CommentLine",
            "value": " @flow",
            "start": 26,
            "end": 34,
            "loc": {
              "start": {
                "line": 7,
                "column": 0
              },
              "end": {
                "line": 7,
                "column": 8
              }
            }
          }
        ]
      },
      {
        "type": "ExportNamedDeclaration",
        "start": 123,
        "end": 238,
        "loc": {
          "start": {
            "line": 11,
            "column": 0
          },
          "end": {
            "line": 15,
            "column": 2
          }
        },
        "specifiers": [],
        "source": null,
        "declaration": {
          "type": "VariableDeclaration",
          "start": 130,
          "end": 238,
          "loc": {
            "start": {
              "line": 11,
              "column": 7
            },
            "end": {
              "line": 15,
              "column": 2
            }
          },
          "declarations": [
            {
              "type": "VariableDeclarator",
              "start": 136,
              "end": 237,
              "loc": {
                "start": {
                  "line": 11,
                  "column": 13
                },
                "end": {
                  "line": 15,
                  "column": 1
                }
              },
              "id": {
                "type": "Identifier",
                "start": 136,
                "end": 170,
                "loc": {
                  "start": {
                    "line": 11,
                    "column": 13
                  },
                  "end": {
                    "line": 11,
                    "column": 47
                  },
                  "identifierName": "buttonOneDefaultGradient"
                },
                "name": "buttonOneDefaultGradient",
                "typeAnnotation": {
                  "type": "TypeAnnotation",
                  "start": 160,
                  "end": 170,
                  "loc": {
                    "start": {
                      "line": 11,
                      "column": 37
                    },
                    "end": {
                      "line": 11,
                      "column": 47
                    }
                  },
                  "typeAnnotation": {
                    "type": "ArrayTypeAnnotation",
                    "start": 162,
                    "end": 170,
                    "loc": {
                      "start": {
                        "line": 11,
                        "column": 39
                      },
                      "end": {
                        "line": 11,
                        "column": 47
                      }
                    },
                    "elementType": {
                      "type": "StringTypeAnnotation",
                      "start": 162,
                      "end": 168,
                      "loc": {
                        "start": {
                          "line": 11,
                          "column": 39
                        },
                        "end": {
                          "line": 11,
                          "column": 45
                        }
                      }
                    }
                  }
                }
              },
              "init": {
                "type": "ArrayExpression",
                "start": 173,
                "end": 237,
                "loc": {
                  "start": {
                    "line": 11,
                    "column": 50
                  },
                  "end": {
                    "line": 15,
                    "column": 1
                  }
                },
                "elements": [
                  {
                    "type": "Identifier",
                    "start": 177,
                    "end": 195,
                    "loc": {
                      "start": {
                        "line": 12,
                        "column": 2
                      },
                      "end": {
                        "line": 12,
                        "column": 20
                      },
                      "identifierName": "COLOR_AIA_GD_RED_1"
                    },
                    "name": "COLOR_AIA_GD_RED_1"
                  },
                  {
                    "type": "Identifier",
                    "start": 199,
                    "end": 212,
                    "loc": {
                      "start": {
                        "line": 13,
                        "column": 2
                      },
                      "end": {
                        "line": 13,
                        "column": 15
                      },
                      "identifierName": "COLOR_AIA_RED"
                    },
                    "name": "COLOR_AIA_RED"
                  },
                  {
                    "type": "Identifier",
                    "start": 216,
                    "end": 234,
                    "loc": {
                      "start": {
                        "line": 14,
                        "column": 2
                      },
                      "end": {
                        "line": 14,
                        "column": 20
                      },
                      "identifierName": "COLOR_AIA_GD_RED_2"
                    },
                    "name": "COLOR_AIA_GD_RED_2"
                  }
                ]
              }
            }
          ],
          "kind": "const",
          "leadingComments": [],
          "trailingComments": []
        },
        "exportKind": "value"
      },
      {
        "type": "ExportNamedDeclaration",
        "start": 240,
        "end": 284,
        "loc": {
          "start": {
            "line": 17,
            "column": 0
          },
          "end": {
            "line": 17,
            "column": 44
          }
        },
        "specifiers": [],
        "source": null,
        "declaration": {
          "type": "VariableDeclaration",
          "start": 247,
          "end": 284,
          "loc": {
            "start": {
              "line": 17,
              "column": 7
            },
            "end": {
              "line": 17,
              "column": 44
            }
          },
          "declarations": [
            {
              "type": "VariableDeclarator",
              "start": 253,
              "end": 283,
              "loc": {
                "start": {
                  "line": 17,
                  "column": 13
                },
                "end": {
                  "line": 17,
                  "column": 43
                }
              },
              "id": {
                "type": "Identifier",
                "start": 253,
                "end": 275,
                "loc": {
                  "start": {
                    "line": 17,
                    "column": 13
                  },
                  "end": {
                    "line": 17,
                    "column": 35
                  },
                  "identifierName": "buttonOneTextFontColor"
                },
                "name": "buttonOneTextFontColor"
              },
              "init": {
                "type": "Identifier",
                "start": 278,
                "end": 283,
                "loc": {
                  "start": {
                    "line": 17,
                    "column": 38
                  },
                  "end": {
                    "line": 17,
                    "column": 43
                  },
                  "identifierName": "WHITE"
                },
                "name": "WHITE"
              }
            }
          ],
          "kind": "const",
          "leadingComments": [],
          "trailingComments": []
        },
        "exportKind": "value"
      }
    ],
    "directives": []
  },
  "comments": [
    {
      "type": "CommentBlock",
      "value": "*\n *\n * @format\n *\n ",
      "start": 0,
      "end": 24,
      "loc": {
        "start": {
          "line": 1,
          "column": 0
        },
        "end": {
          "line": 5,
          "column": 3
        }
      }
    },
    {
      "type": "CommentLine",
      "value": " @flow",
      "start": 26,
      "end": 34,
      "loc": {
        "start": {
          "line": 7,
          "column": 0
        },
        "end": {
          "line": 7,
          "column": 8
        }
      }
    }
  ],
  "tokens": [
    {
      "type": "CommentBlock",
      "value": "*\n *\n * @format\n *\n ",
      "start": 0,
      "end": 24,
      "loc": {
        "start": {
          "line": 1,
          "column": 0
        },
        "end": {
          "line": 5,
          "column": 3
        }
      }
    },
    {
      "type": "CommentLine",
      "value": " @flow",
      "start": 26,
      "end": 34,
      "loc": {
        "start": {
          "line": 7,
          "column": 0
        },
        "end": {
          "line": 7,
          "column": 8
        }
      }
    },
    {
      "type": {
        "label": "import",
        "keyword": "import",
        "beforeExpr": false,
        "startsExpr": true,
        "rightAssociative": false,
        "isLoop": false,
        "isAssign": false,
        "prefix": false,
        "postfix": false,
        "binop": null,
        "updateContext": null
      },
      "value": "import",
      "start": 36,
      "end": 42,
      "loc": {
        "start": {
          "line": 9,
          "column": 0
        },
        "end": {
          "line": 9,
          "column": 6
        }
      }
    },
    {
      "type": {
        "label": "{",
        "beforeExpr": true,
        "startsExpr": true,
        "rightAssociative": false,
        "isLoop": false,
        "isAssign": false,
        "prefix": false,
        "postfix": false,
        "binop": null
      },
      "start": 43,
      "end": 44,
      "loc": {
        "start": {
          "line": 9,
          "column": 7
        },
        "end": {
          "line": 9,
          "column": 8
        }
      }
    },
    {
      "type": {
        "label": "name",
        "beforeExpr": false,
        "startsExpr": true,
        "rightAssociative": false,
        "isLoop": false,
        "isAssign": false,
        "prefix": false,
        "postfix": false,
        "binop": null
      },
      "value": "COLOR_AIA_GD_RED_1",
      "start": 44,
      "end": 62,
      "loc": {
        "start": {
          "line": 9,
          "column": 8
        },
        "end": {
          "line": 9,
          "column": 26
        }
      }
    },
    {
      "type": {
        "label": ",",
        "beforeExpr": true,
        "startsExpr": false,
        "rightAssociative": false,
        "isLoop": false,
        "isAssign": false,
        "prefix": false,
        "postfix": false,
        "binop": null,
        "updateContext": null
      },
      "start": 62,
      "end": 63,
      "loc": {
        "start": {
          "line": 9,
          "column": 26
        },
        "end": {
          "line": 9,
          "column": 27
        }
      }
    },
    {
      "type": {
        "label": "name",
        "beforeExpr": false,
        "startsExpr": true,
        "rightAssociative": false,
        "isLoop": false,
        "isAssign": false,
        "prefix": false,
        "postfix": false,
        "binop": null
      },
      "value": "COLOR_AIA_RED",
      "start": 64,
      "end": 77,
      "loc": {
        "start": {
          "line": 9,
          "column": 28
        },
        "end": {
          "line": 9,
          "column": 41
        }
      }
    },
    {
      "type": {
        "label": ",",
        "beforeExpr": true,
        "startsExpr": false,
        "rightAssociative": false,
        "isLoop": false,
        "isAssign": false,
        "prefix": false,
        "postfix": false,
        "binop": null,
        "updateContext": null
      },
      "start": 77,
      "end": 78,
      "loc": {
        "start": {
          "line": 9,
          "column": 41
        },
        "end": {
          "line": 9,
          "column": 42
        }
      }
    },
    {
      "type": {
        "label": "name",
        "beforeExpr": false,
        "startsExpr": true,
        "rightAssociative": false,
        "isLoop": false,
        "isAssign": false,
        "prefix": false,
        "postfix": false,
        "binop": null
      },
      "value": "COLOR_AIA_GD_RED_2",
      "start": 79,
      "end": 97,
      "loc": {
        "start": {
          "line": 9,
          "column": 43
        },
        "end": {
          "line": 9,
          "column": 61
        }
      }
    },
    {
      "type": {
        "label": ",",
        "beforeExpr": true,
        "startsExpr": false,
        "rightAssociative": false,
        "isLoop": false,
        "isAssign": false,
        "prefix": false,
        "postfix": false,
        "binop": null,
        "updateContext": null
      },
      "start": 97,
      "end": 98,
      "loc": {
        "start": {
          "line": 9,
          "column": 61
        },
        "end": {
          "line": 9,
          "column": 62
        }
      }
    },
    {
      "type": {
        "label": "name",
        "beforeExpr": false,
        "startsExpr": true,
        "rightAssociative": false,
        "isLoop": false,
        "isAssign": false,
        "prefix": false,
        "postfix": false,
        "binop": null
      },
      "value": "WHITE",
      "start": 99,
      "end": 104,
      "loc": {
        "start": {
          "line": 9,
          "column": 63
        },
        "end": {
          "line": 9,
          "column": 68
        }
      }
    },
    {
      "type": {
        "label": "}",
        "beforeExpr": false,
        "startsExpr": false,
        "rightAssociative": false,
        "isLoop": false,
        "isAssign": false,
        "prefix": false,
        "postfix": false,
        "binop": null
      },
      "start": 104,
      "end": 105,
      "loc": {
        "start": {
          "line": 9,
          "column": 68
        },
        "end": {
          "line": 9,
          "column": 69
        }
      }
    },
    {
      "type": {
        "label": "name",
        "beforeExpr": false,
        "startsExpr": true,
        "rightAssociative": false,
        "isLoop": false,
        "isAssign": false,
        "prefix": false,
        "postfix": false,
        "binop": null
      },
      "value": "from",
      "start": 106,
      "end": 110,
      "loc": {
        "start": {
          "line": 9,
          "column": 70
        },
        "end": {
          "line": 9,
          "column": 74
        }
      }
    },
    {
      "type": {
        "label": "string",
        "beforeExpr": false,
        "startsExpr": true,
        "rightAssociative": false,
        "isLoop": false,
        "isAssign": false,
        "prefix": false,
        "postfix": false,
        "binop": null,
        "updateContext": null
      },
      "value": "@colors",
      "start": 111,
      "end": 120,
      "loc": {
        "start": {
          "line": 9,
          "column": 75
        },
        "end": {
          "line": 9,
          "column": 84
        }
      }
    },
    {
      "type": {
        "label": ";",
        "beforeExpr": true,
        "startsExpr": false,
        "rightAssociative": false,
        "isLoop": false,
        "isAssign": false,
        "prefix": false,
        "postfix": false,
        "binop": null,
        "updateContext": null
      },
      "start": 120,
      "end": 121,
      "loc": {
        "start": {
          "line": 9,
          "column": 84
        },
        "end": {
          "line": 9,
          "column": 85
        }
      }
    },
    {
      "type": {
        "label": "export",
        "keyword": "export",
        "beforeExpr": false,
        "startsExpr": false,
        "rightAssociative": false,
        "isLoop": false,
        "isAssign": false,
        "prefix": false,
        "postfix": false,
        "binop": null,
        "updateContext": null
      },
      "value": "export",
      "start": 123,
      "end": 129,
      "loc": {
        "start": {
          "line": 11,
          "column": 0
        },
        "end": {
          "line": 11,
          "column": 6
        }
      }
    },
    {
      "type": {
        "label": "const",
        "keyword": "const",
        "beforeExpr": false,
        "startsExpr": false,
        "rightAssociative": false,
        "isLoop": false,
        "isAssign": false,
        "prefix": false,
        "postfix": false,
        "binop": null,
        "updateContext": null
      },
      "value": "const",
      "start": 130,
      "end": 135,
      "loc": {
        "start": {
          "line": 11,
          "column": 7
        },
        "end": {
          "line": 11,
          "column": 12
        }
      }
    },
    {
      "type": {
        "label": "name",
        "beforeExpr": false,
        "startsExpr": true,
        "rightAssociative": false,
        "isLoop": false,
        "isAssign": false,
        "prefix": false,
        "postfix": false,
        "binop": null
      },
      "value": "buttonOneDefaultGradient",
      "start": 136,
      "end": 160,
      "loc": {
        "start": {
          "line": 11,
          "column": 13
        },
        "end": {
          "line": 11,
          "column": 37
        }
      }
    },
    {
      "type": {
        "label": ":",
        "beforeExpr": true,
        "startsExpr": false,
        "rightAssociative": false,
        "isLoop": false,
        "isAssign": false,
        "prefix": false,
        "postfix": false,
        "binop": null,
        "updateContext": null
      },
      "start": 160,
      "end": 161,
      "loc": {
        "start": {
          "line": 11,
          "column": 37
        },
        "end": {
          "line": 11,
          "column": 38
        }
      }
    },
    {
      "type": {
        "label": "name",
        "beforeExpr": false,
        "startsExpr": true,
        "rightAssociative": false,
        "isLoop": false,
        "isAssign": false,
        "prefix": false,
        "postfix": false,
        "binop": null
      },
      "value": "string",
      "start": 162,
      "end": 168,
      "loc": {
        "start": {
          "line": 11,
          "column": 39
        },
        "end": {
          "line": 11,
          "column": 45
        }
      }
    },
    {
      "type": {
        "label": "[",
        "beforeExpr": true,
        "startsExpr": true,
        "rightAssociative": false,
        "isLoop": false,
        "isAssign": false,
        "prefix": false,
        "postfix": false,
        "binop": null,
        "updateContext": null
      },
      "start": 168,
      "end": 169,
      "loc": {
        "start": {
          "line": 11,
          "column": 45
        },
        "end": {
          "line": 11,
          "column": 46
        }
      }
    },
    {
      "type": {
        "label": "]",
        "beforeExpr": false,
        "startsExpr": false,
        "rightAssociative": false,
        "isLoop": false,
        "isAssign": false,
        "prefix": false,
        "postfix": false,
        "binop": null,
        "updateContext": null
      },
      "start": 169,
      "end": 170,
      "loc": {
        "start": {
          "line": 11,
          "column": 46
        },
        "end": {
          "line": 11,
          "column": 47
        }
      }
    },
    {
      "type": {
        "label": "=",
        "beforeExpr": true,
        "startsExpr": false,
        "rightAssociative": false,
        "isLoop": false,
        "isAssign": true,
        "prefix": false,
        "postfix": false,
        "binop": null,
        "updateContext": null
      },
      "value": "=",
      "start": 171,
      "end": 172,
      "loc": {
        "start": {
          "line": 11,
          "column": 48
        },
        "end": {
          "line": 11,
          "column": 49
        }
      }
    },
    {
      "type": {
        "label": "[",
        "beforeExpr": true,
        "startsExpr": true,
        "rightAssociative": false,
        "isLoop": false,
        "isAssign": false,
        "prefix": false,
        "postfix": false,
        "binop": null,
        "updateContext": null
      },
      "start": 173,
      "end": 174,
      "loc": {
        "start": {
          "line": 11,
          "column": 50
        },
        "end": {
          "line": 11,
          "column": 51
        }
      }
    },
    {
      "type": {
        "label": "name",
        "beforeExpr": false,
        "startsExpr": true,
        "rightAssociative": false,
        "isLoop": false,
        "isAssign": false,
        "prefix": false,
        "postfix": false,
        "binop": null
      },
      "value": "COLOR_AIA_GD_RED_1",
      "start": 177,
      "end": 195,
      "loc": {
        "start": {
          "line": 12,
          "column": 2
        },
        "end": {
          "line": 12,
          "column": 20
        }
      }
    },
    {
      "type": {
        "label": ",",
        "beforeExpr": true,
        "startsExpr": false,
        "rightAssociative": false,
        "isLoop": false,
        "isAssign": false,
        "prefix": false,
        "postfix": false,
        "binop": null,
        "updateContext": null
      },
      "start": 195,
      "end": 196,
      "loc": {
        "start": {
          "line": 12,
          "column": 20
        },
        "end": {
          "line": 12,
          "column": 21
        }
      }
    },
    {
      "type": {
        "label": "name",
        "beforeExpr": false,
        "startsExpr": true,
        "rightAssociative": false,
        "isLoop": false,
        "isAssign": false,
        "prefix": false,
        "postfix": false,
        "binop": null
      },
      "value": "COLOR_AIA_RED",
      "start": 199,
      "end": 212,
      "loc": {
        "start": {
          "line": 13,
          "column": 2
        },
        "end": {
          "line": 13,
          "column": 15
        }
      }
    },
    {
      "type": {
        "label": ",",
        "beforeExpr": true,
        "startsExpr": false,
        "rightAssociative": false,
        "isLoop": false,
        "isAssign": false,
        "prefix": false,
        "postfix": false,
        "binop": null,
        "updateContext": null
      },
      "start": 212,
      "end": 213,
      "loc": {
        "start": {
          "line": 13,
          "column": 15
        },
        "end": {
          "line": 13,
          "column": 16
        }
      }
    },
    {
      "type": {
        "label": "name",
        "beforeExpr": false,
        "startsExpr": true,
        "rightAssociative": false,
        "isLoop": false,
        "isAssign": false,
        "prefix": false,
        "postfix": false,
        "binop": null
      },
      "value": "COLOR_AIA_GD_RED_2",
      "start": 216,
      "end": 234,
      "loc": {
        "start": {
          "line": 14,
          "column": 2
        },
        "end": {
          "line": 14,
          "column": 20
        }
      }
    },
    {
      "type": {
        "label": ",",
        "beforeExpr": true,
        "startsExpr": false,
        "rightAssociative": false,
        "isLoop": false,
        "isAssign": false,
        "prefix": false,
        "postfix": false,
        "binop": null,
        "updateContext": null
      },
      "start": 234,
      "end": 235,
      "loc": {
        "start": {
          "line": 14,
          "column": 20
        },
        "end": {
          "line": 14,
          "column": 21
        }
      }
    },
    {
      "type": {
        "label": "]",
        "beforeExpr": false,
        "startsExpr": false,
        "rightAssociative": false,
        "isLoop": false,
        "isAssign": false,
        "prefix": false,
        "postfix": false,
        "binop": null,
        "updateContext": null
      },
      "start": 236,
      "end": 237,
      "loc": {
        "start": {
          "line": 15,
          "column": 0
        },
        "end": {
          "line": 15,
          "column": 1
        }
      }
    },
    {
      "type": {
        "label": ";",
        "beforeExpr": true,
        "startsExpr": false,
        "rightAssociative": false,
        "isLoop": false,
        "isAssign": false,
        "prefix": false,
        "postfix": false,
        "binop": null,
        "updateContext": null
      },
      "start": 237,
      "end": 238,
      "loc": {
        "start": {
          "line": 15,
          "column": 1
        },
        "end": {
          "line": 15,
          "column": 2
        }
      }
    },
    {
      "type": {
        "label": "export",
        "keyword": "export",
        "beforeExpr": false,
        "startsExpr": false,
        "rightAssociative": false,
        "isLoop": false,
        "isAssign": false,
        "prefix": false,
        "postfix": false,
        "binop": null,
        "updateContext": null
      },
      "value": "export",
      "start": 240,
      "end": 246,
      "loc": {
        "start": {
          "line": 17,
          "column": 0
        },
        "end": {
          "line": 17,
          "column": 6
        }
      }
    },
    {
      "type": {
        "label": "const",
        "keyword": "const",
        "beforeExpr": false,
        "startsExpr": false,
        "rightAssociative": false,
        "isLoop": false,
        "isAssign": false,
        "prefix": false,
        "postfix": false,
        "binop": null,
        "updateContext": null
      },
      "value": "const",
      "start": 247,
      "end": 252,
      "loc": {
        "start": {
          "line": 17,
          "column": 7
        },
        "end": {
          "line": 17,
          "column": 12
        }
      }
    },
    {
      "type": {
        "label": "name",
        "beforeExpr": false,
        "startsExpr": true,
        "rightAssociative": false,
        "isLoop": false,
        "isAssign": false,
        "prefix": false,
        "postfix": false,
        "binop": null
      },
      "value": "buttonOneTextFontColor",
      "start": 253,
      "end": 275,
      "loc": {
        "start": {
          "line": 17,
          "column": 13
        },
        "end": {
          "line": 17,
          "column": 35
        }
      }
    },
    {
      "type": {
        "label": "=",
        "beforeExpr": true,
        "startsExpr": false,
        "rightAssociative": false,
        "isLoop": false,
        "isAssign": true,
        "prefix": false,
        "postfix": false,
        "binop": null,
        "updateContext": null
      },
      "value": "=",
      "start": 276,
      "end": 277,
      "loc": {
        "start": {
          "line": 17,
          "column": 36
        },
        "end": {
          "line": 17,
          "column": 37
        }
      }
    },
    {
      "type": {
        "label": "name",
        "beforeExpr": false,
        "startsExpr": true,
        "rightAssociative": false,
        "isLoop": false,
        "isAssign": false,
        "prefix": false,
        "postfix": false,
        "binop": null
      },
      "value": "WHITE",
      "start": 278,
      "end": 283,
      "loc": {
        "start": {
          "line": 17,
          "column": 38
        },
        "end": {
          "line": 17,
          "column": 43
        }
      }
    },
    {
      "type": {
        "label": ";",
        "beforeExpr": true,
        "startsExpr": false,
        "rightAssociative": false,
        "isLoop": false,
        "isAssign": false,
        "prefix": false,
        "postfix": false,
        "binop": null,
        "updateContext": null
      },
      "start": 283,
      "end": 284,
      "loc": {
        "start": {
          "line": 17,
          "column": 43
        },
        "end": {
          "line": 17,
          "column": 44
        }
      }
    },
    {
      "type": {
        "label": "eof",
        "beforeExpr": false,
        "startsExpr": false,
        "rightAssociative": false,
        "isLoop": false,
        "isAssign": false,
        "prefix": false,
        "postfix": false,
        "binop": null,
        "updateContext": null
      },
      "start": 285,
      "end": 285,
      "loc": {
        "start": {
          "line": 18,
          "column": 0
        },
        "end": {
          "line": 18,
          "column": 0
        }
      }
    }
  ]
}
