// Jest Snapshot v1, https://goo.gl/fbAQLP

exports[`RadioTwo 1`] = `
<View
  accessible={true}
  focusable={true}
  onClick={[Function]}
  onResponderGrant={[Function]}
  onResponderMove={[Function]}
  onResponderRelease={[Function]}
  onResponderTerminate={[Function]}
  onResponderTerminationRequest={[Function]}
  onStartShouldSetResponder={[Function]}
  style={
    Array [
      Object {
        "alignItems": "center",
        "borderColor": "#CDDDE8",
        "borderRadius": 5,
        "borderWidth": 1,
        "flexDirection": "row",
        "marginTop": 10,
      },
      undefined,
    ]
  }
>
  <View
    accessibilityLiveRegion="polite"
    accessibilityRole="button"
    accessible={true}
    focusable={true}
    onClick={[Function]}
    onResponderGrant={[Function]}
    onResponderMove={[Function]}
    onResponderRelease={[Function]}
    onResponderTerminate={[Function]}
    onResponderTerminationRequest={[Function]}
    onStartShouldSetResponder={[Function]}
    style={
      Array [
        Object {
          "overflow": "hidden",
        },
        Object {
          "borderRadius": 18,
        },
      ]
    }
  >
    <View
      style={
        Object {
          "borderColor": "#00A4C9",
          "borderRadius": 10,
          "borderWidth": 2,
          "height": 20,
          "margin": 8,
          "width": 20,
        }
      }
    >
      <View
        style={
          Array [
            Object {
              "bottom": 0,
              "left": 0,
              "position": "absolute",
              "right": 0,
              "top": 0,
            },
            Object {
              "alignItems": "center",
              "justifyContent": "center",
            },
          ]
        }
      >
        <View
          style={
            Object {
              "backgroundColor": "#00A4C9",
              "borderRadius": 5,
              "height": 10,
              "transform": Array [
                Object {
                  "scale": 1,
                },
              ],
              "width": 10,
            }
          }
        />
      </View>
    </View>
  </View>
  <View>
    <Text
      style={
        Array [
          Object {
            "color": "#000000",
            "fontFamily": "System",
            "fontWeight": "400",
            "textAlign": "left",
          },
          Array [
            Object {
              "fontSize": 31,
            },
            Object {
              "color": "#3E4546",
              "fontSize": 31,
              "marginBottom": 5,
            },
          ],
        ]
      }
    >
      Option2
    </Text>
    <Text
      style={
        Array [
          Object {
            "color": "#000000",
            "fontFamily": "System",
            "fontWeight": "400",
            "textAlign": "left",
          },
          Array [
            Object {
              "fontSize": 31,
            },
            Object {
              "color": "#99A5B0",
              "fontSize": 27,
            },
          ],
        ]
      }
    />
  </View>
  <View
    style={
      Object {
        "alignItems": "center",
        "flex": 1,
        "flexDirection": "row-reverse",
        "height": 80,
        "overflow": "hidden",
      }
    }
  />
</View>
`;
