// Jest Snapshot v1, https://goo.gl/fbAQLP

exports[`RadioOne 1`] = `
<View
  accessible={true}
  focusable={true}
  onClick={[Function]}
  onResponderGrant={[Function]}
  onResponderMove={[Function]}
  onResponderRelease={[Function]}
  onResponderTerminate={[Function]}
  onResponderTerminationRequest={[Function]}
  onStartShouldSetResponder={[Function]}
  style={
    Array [
      Object {
        "alignItems": "center",
        "borderColor": "#C3D5E3",
        "borderRadius": 5,
        "borderWidth": 1,
        "flexDirection": "row",
        "marginBottom": 15,
        "padding": 20,
      },
      undefined,
    ]
  }
>
  <View
    accessibilityLiveRegion="polite"
    accessibilityRole="button"
    accessible={true}
    focusable={true}
    onClick={[Function]}
    onResponderGrant={[Function]}
    onResponderMove={[Function]}
    onResponderRelease={[Function]}
    onResponderTerminate={[Function]}
    onResponderTerminationRequest={[Function]}
    onStartShouldSetResponder={[Function]}
    style={
      Array [
        Object {
          "overflow": "hidden",
        },
        Object {
          "borderRadius": 18,
        },
      ]
    }
  >
    <View
      style={
        Object {
          "borderColor": "#00A4C9",
          "borderRadius": 10,
          "borderWidth": 2,
          "height": 20,
          "margin": 8,
          "width": 20,
        }
      }
    />
  </View>
  <Text
    style={
      Array [
        Object {
          "color": "#000000",
          "fontFamily": "System",
          "fontWeight": "400",
          "textAlign": "left",
        },
        Array [
          Object {
            "fontSize": 31,
          },
          undefined,
        ],
      ]
    }
  >
    Option1
  </Text>
</View>
`;
