{
  "type": "File",
  "start": 0,
  "end": 196,
  "loc": {
    "start": {
      "line": 1,
      "column": 0
    },
    "end": {
      "line": 13,
      "column": 0
    }
  },
  "program": {
    "type": "Program",
    "start": 0,
    "end": 196,
    "loc": {
      "start": {
        "line": 1,
        "column": 0
      },
      "end": {
        "line": 13,
        "column": 0
      }
    },
    "sourceType": "module",
    "body": [
      {
        "type": "ExportNamedDeclaration",
        "start": 47,
        "end": 115,
        "loc": {
          "start": {
            "line": 11,
            "column": 0
          },
          "end": {
            "line": 11,
            "column": 68
          }
        },
        "specifiers": [],
        "source": null,
        "declaration": {
          "type": "VariableDeclaration",
          "start": 54,
          "end": 115,
          "loc": {
            "start": {
              "line": 11,
              "column": 7
            },
            "end": {
              "line": 11,
              "column": 68
            }
          },
          "declarations": [
            {
              "type": "VariableDeclarator",
              "start": 60,
              "end": 114,
              "loc": {
                "start": {
                  "line": 11,
                  "column": 13
                },
                "end": {
                  "line": 11,
                  "column": 67
                }
              },
              "id": {
                "type": "Identifier",
                "start": 60,
                "end": 79,
                "loc": {
                  "start": {
                    "line": 11,
                    "column": 13
                  },
                  "end": {
                    "line": 11,
                    "column": 32
                  },
                  "identifierName": "ASSESSMENT_QUESTION"
                },
                "name": "ASSESSMENT_QUESTION",
                "leadingComments": null
              },
              "init": {
                "type": "StringLiteral",
                "start": 82,
                "end": 114,
                "loc": {
                  "start": {
                    "line": 11,
                    "column": 35
                  },
                  "end": {
                    "line": 11,
                    "column": 67
                  }
                },
                "extra": {
                  "rawValue": "how-healthy-are-you-assessment",
                  "raw": "'how-healthy-are-you-assessment'"
                },
                "value": "how-healthy-are-you-assessment"
              },
              "leadingComments": null
            }
          ],
          "kind": "const",
          "leadingComments": [
            {
              "type": "CommentBlock",
              "value": "*\n *\n *\n * @format\n *\n ",
              "start": 0,
              "end": 27,
              "loc": {
                "start": {
                  "line": 1,
                  "column": 0
                },
                "end": {
                  "line": 6,
                  "column": 3
                }
              }
            },
            {
              "type": "CommentLine",
              "value": " @flow",
              "start": 29,
              "end": 37,
              "loc": {
                "start": {
                  "line": 8,
                  "column": 0
                },
                "end": {
                  "line": 8,
                  "column": 8
                }
              }
            },
            {
              "type": "CommentLine",
              "value": " keys",
              "start": 39,
              "end": 46,
              "loc": {
                "start": {
                  "line": 10,
                  "column": 0
                },
                "end": {
                  "line": 10,
                  "column": 7
                }
              }
            }
          ],
          "trailingComments": []
        },
        "leadingComments": [
          {
            "type": "CommentBlock",
            "value": "*\n *\n *\n * @format\n *\n ",
            "start": 0,
            "end": 27,
            "loc": {
              "start": {
                "line": 1,
                "column": 0
              },
              "end": {
                "line": 6,
                "column": 3
              }
            }
          },
          {
            "type": "CommentLine",
            "value": " @flow",
            "start": 29,
            "end": 37,
            "loc": {
              "start": {
                "line": 8,
                "column": 0
              },
              "end": {
                "line": 8,
                "column": 8
              }
            }
          },
          {
            "type": "CommentLine",
            "value": " keys",
            "start": 39,
            "end": 46,
            "loc": {
              "start": {
                "line": 10,
                "column": 0
              },
              "end": {
                "line": 10,
                "column": 7
              }
            }
          }
        ],
        "exportKind": "value"
      },
      {
        "type": "ExportNamedDeclaration",
        "start": 116,
        "end": 195,
        "loc": {
          "start": {
            "line": 12,
            "column": 0
          },
          "end": {
            "line": 12,
            "column": 79
          }
        },
        "specifiers": [],
        "source": null,
        "declaration": {
          "type": "VariableDeclaration",
          "start": 123,
          "end": 195,
          "loc": {
            "start": {
              "line": 12,
              "column": 7
            },
            "end": {
              "line": 12,
              "column": 79
            }
          },
          "declarations": [
            {
              "type": "VariableDeclarator",
              "start": 129,
              "end": 194,
              "loc": {
                "start": {
                  "line": 12,
                  "column": 13
                },
                "end": {
                  "line": 12,
                  "column": 78
                }
              },
              "id": {
                "type": "Identifier",
                "start": 129,
                "end": 159,
                "loc": {
                  "start": {
                    "line": 12,
                    "column": 13
                  },
                  "end": {
                    "line": 12,
                    "column": 43
                  },
                  "identifierName": "HOW_HEALTHY_ARE_YOU_ASSESSMENT"
                },
                "name": "HOW_HEALTHY_ARE_YOU_ASSESSMENT"
              },
              "init": {
                "type": "StringLiteral",
                "start": 162,
                "end": 194,
                "loc": {
                  "start": {
                    "line": 12,
                    "column": 46
                  },
                  "end": {
                    "line": 12,
                    "column": 78
                  }
                },
                "extra": {
                  "rawValue": "how-healthy-are-you-assessment",
                  "raw": "'how-healthy-are-you-assessment'"
                },
                "value": "how-healthy-are-you-assessment"
              }
            }
          ],
          "kind": "const",
          "leadingComments": [],
          "trailingComments": []
        },
        "exportKind": "value"
      }
    ],
    "directives": []
  },
  "comments": [
    {
      "type": "CommentBlock",
      "value": "*\n *\n *\n * @format\n *\n ",
      "start": 0,
      "end": 27,
      "loc": {
        "start": {
          "line": 1,
          "column": 0
        },
        "end": {
          "line": 6,
          "column": 3
        }
      }
    },
    {
      "type": "CommentLine",
      "value": " @flow",
      "start": 29,
      "end": 37,
      "loc": {
        "start": {
          "line": 8,
          "column": 0
        },
        "end": {
          "line": 8,
          "column": 8
        }
      }
    },
    {
      "type": "CommentLine",
      "value": " keys",
      "start": 39,
      "end": 46,
      "loc": {
        "start": {
          "line": 10,
          "column": 0
        },
        "end": {
          "line": 10,
          "column": 7
        }
      }
    }
  ],
  "tokens": [
    {
      "type": "CommentBlock",
      "value": "*\n *\n *\n * @format\n *\n ",
      "start": 0,
      "end": 27,
      "loc": {
        "start": {
          "line": 1,
          "column": 0
        },
        "end": {
          "line": 6,
          "column": 3
        }
      }
    },
    {
      "type": "CommentLine",
      "value": " @flow",
      "start": 29,
      "end": 37,
      "loc": {
        "start": {
          "line": 8,
          "column": 0
        },
        "end": {
          "line": 8,
          "column": 8
        }
      }
    },
    {
      "type": "CommentLine",
      "value": " keys",
      "start": 39,
      "end": 46,
      "loc": {
        "start": {
          "line": 10,
          "column": 0
        },
        "end": {
          "line": 10,
          "column": 7
        }
      }
    },
    {
      "type": {
        "label": "export",
        "keyword": "export",
        "beforeExpr": false,
        "startsExpr": false,
        "rightAssociative": false,
        "isLoop": false,
        "isAssign": false,
        "prefix": false,
        "postfix": false,
        "binop": null,
        "updateContext": null
      },
      "value": "export",
      "start": 47,
      "end": 53,
      "loc": {
        "start": {
          "line": 11,
          "column": 0
        },
        "end": {
          "line": 11,
          "column": 6
        }
      }
    },
    {
      "type": {
        "label": "const",
        "keyword": "const",
        "beforeExpr": false,
        "startsExpr": false,
        "rightAssociative": false,
        "isLoop": false,
        "isAssign": false,
        "prefix": false,
        "postfix": false,
        "binop": null,
        "updateContext": null
      },
      "value": "const",
      "start": 54,
      "end": 59,
      "loc": {
        "start": {
          "line": 11,
          "column": 7
        },
        "end": {
          "line": 11,
          "column": 12
        }
      }
    },
    {
      "type": {
        "label": "name",
        "beforeExpr": false,
        "startsExpr": true,
        "rightAssociative": false,
        "isLoop": false,
        "isAssign": false,
        "prefix": false,
        "postfix": false,
        "binop": null
      },
      "value": "ASSESSMENT_QUESTION",
      "start": 60,
      "end": 79,
      "loc": {
        "start": {
          "line": 11,
          "column": 13
        },
        "end": {
          "line": 11,
          "column": 32
        }
      }
    },
    {
      "type": {
        "label": "=",
        "beforeExpr": true,
        "startsExpr": false,
        "rightAssociative": false,
        "isLoop": false,
        "isAssign": true,
        "prefix": false,
        "postfix": false,
        "binop": null,
        "updateContext": null
      },
      "value": "=",
      "start": 80,
      "end": 81,
      "loc": {
        "start": {
          "line": 11,
          "column": 33
        },
        "end": {
          "line": 11,
          "column": 34
        }
      }
    },
    {
      "type": {
        "label": "string",
        "beforeExpr": false,
        "startsExpr": true,
        "rightAssociative": false,
        "isLoop": false,
        "isAssign": false,
        "prefix": false,
        "postfix": false,
        "binop": null,
        "updateContext": null
      },
      "value": "how-healthy-are-you-assessment",
      "start": 82,
      "end": 114,
      "loc": {
        "start": {
          "line": 11,
          "column": 35
        },
        "end": {
          "line": 11,
          "column": 67
        }
      }
    },
    {
      "type": {
        "label": ";",
        "beforeExpr": true,
        "startsExpr": false,
        "rightAssociative": false,
        "isLoop": false,
        "isAssign": false,
        "prefix": false,
        "postfix": false,
        "binop": null,
        "updateContext": null
      },
      "start": 114,
      "end": 115,
      "loc": {
        "start": {
          "line": 11,
          "column": 67
        },
        "end": {
          "line": 11,
          "column": 68
        }
      }
    },
    {
      "type": {
        "label": "export",
        "keyword": "export",
        "beforeExpr": false,
        "startsExpr": false,
        "rightAssociative": false,
        "isLoop": false,
        "isAssign": false,
        "prefix": false,
        "postfix": false,
        "binop": null,
        "updateContext": null
      },
      "value": "export",
      "start": 116,
      "end": 122,
      "loc": {
        "start": {
          "line": 12,
          "column": 0
        },
        "end": {
          "line": 12,
          "column": 6
        }
      }
    },
    {
      "type": {
        "label": "const",
        "keyword": "const",
        "beforeExpr": false,
        "startsExpr": false,
        "rightAssociative": false,
        "isLoop": false,
        "isAssign": false,
        "prefix": false,
        "postfix": false,
        "binop": null,
        "updateContext": null
      },
      "value": "const",
      "start": 123,
      "end": 128,
      "loc": {
        "start": {
          "line": 12,
          "column": 7
        },
        "end": {
          "line": 12,
          "column": 12
        }
      }
    },
    {
      "type": {
        "label": "name",
        "beforeExpr": false,
        "startsExpr": true,
        "rightAssociative": false,
        "isLoop": false,
        "isAssign": false,
        "prefix": false,
        "postfix": false,
        "binop": null
      },
      "value": "HOW_HEALTHY_ARE_YOU_ASSESSMENT",
      "start": 129,
      "end": 159,
      "loc": {
        "start": {
          "line": 12,
          "column": 13
        },
        "end": {
          "line": 12,
          "column": 43
        }
      }
    },
    {
      "type": {
        "label": "=",
        "beforeExpr": true,
        "startsExpr": false,
        "rightAssociative": false,
        "isLoop": false,
        "isAssign": true,
        "prefix": false,
        "postfix": false,
        "binop": null,
        "updateContext": null
      },
      "value": "=",
      "start": 160,
      "end": 161,
      "loc": {
        "start": {
          "line": 12,
          "column": 44
        },
        "end": {
          "line": 12,
          "column": 45
        }
      }
    },
    {
      "type": {
        "label": "string",
        "beforeExpr": false,
        "startsExpr": true,
        "rightAssociative": false,
        "isLoop": false,
        "isAssign": false,
        "prefix": false,
        "postfix": false,
        "binop": null,
        "updateContext": null
      },
      "value": "how-healthy-are-you-assessment",
      "start": 162,
      "end": 194,
      "loc": {
        "start": {
          "line": 12,
          "column": 46
        },
        "end": {
          "line": 12,
          "column": 78
        }
      }
    },
    {
      "type": {
        "label": ";",
        "beforeExpr": true,
        "startsExpr": false,
        "rightAssociative": false,
        "isLoop": false,
        "isAssign": false,
        "prefix": false,
        "postfix": false,
        "binop": null,
        "updateContext": null
      },
      "start": 194,
      "end": 195,
      "loc": {
        "start": {
          "line": 12,
          "column": 78
        },
        "end": {
          "line": 12,
          "column": 79
        }
      }
    },
    {
      "type": {
        "label": "eof",
        "beforeExpr": false,
        "startsExpr": false,
        "rightAssociative": false,
        "isLoop": false,
        "isAssign": false,
        "prefix": false,
        "postfix": false,
        "binop": null,
        "updateContext": null
      },
      "start": 196,
      "end": 196,
      "loc": {
        "start": {
          "line": 13,
          "column": 0
        },
        "end": {
          "line": 13,
          "column": 0
        }
      }
    }
  ]
}
